8767 131 53 356 286 64 106 276 63 7 3 6 3 1 1 27 4 5 4 2 7 6 3 1 1 52 6 3 3 1 1 1 48 3 3 1 1 28 1 1 5 1 1 5 159 5 3 3 1 3 1 1 39 4 2 34 21 2 26 3 2 5 2 3 1 1 12 5 5 832 47 54 63 3 9 3 5 2 4 1 1 13 12 12 3 6 6 2 4 3 1 6 1 3 1 1 15 5 2 4
11816 1 13 18 2 4 17 3 3 3 3 2 1 14 10 3 2 2 1 76 10 2 1 1 2 12 29 26 5 2 4 3 1 1 1 16 2 14 30 5 2 1 1 1 49 2 3 2 4 1 1 11 1 4 1 1 1 1 1 1 6 4 1 1 16 13 1 1 4 1 1 6 1 1 1 1 3 1 115 4 10 14 23 3 1 136 5 84 6 6 3 3 1 3 1 1 17 15 2 4
12790 3 3 3 3 2 1 52 7 4 2 1 1 50 29 6 2 1 1 4 12 28 3 1 4 1 1 1 1 21 8 11 2 5 29 6 1 1 1 1 20 1 4 1 3 1 1 13 2 5 1 1 1 1 1 1 1 5 4 1 1 1 1 21 10 1 1 6 1 1 1 133 7 10 18 2 4 8 21 3 1 1 1 103 65 2 6 1 1 2 1 2 23 5 170 53 2 4 3 3
13874 2 1 10 5 3 1 36 5 2 3 33 6 3 1 3 1 1 1 22 21 1 4 1 19 30 1 1 3 1 1 1 12 3 1 1 1 3 1 10 8 1 4 1 1 1 10 2 1 2 3 94 4 7 11 26 3 1 19 32 69 6 178 3 3 3 3 2 1 31 3 2 11 3 2 1 14 2 1 19 1 477 22 7 39 15 1 156 6 38 9 6 264 40 4 7 11 22 2 5
15852 1 27 9 3 1 55 5 12 7 20 3 1 123 5 240 3 1 737 10 5 28 1 471 96 3 9 3 6 2 2 4 3 1 1 1 16 6 2 4 2 1 1 17 2 17 21 6 5 4 3 1 1 12 5 2 3 3 1 1 3 15 8 15 2 34 4 9 32 5 2 4 3 1 1 1 1 20 2 58 7 2 1 1 4 1 4 1 1 1 1 5 1 1 2 16 6 2 2 2
18169 1 2 2 1 2 1 1 1 1 4 4 21 2 1 1 1 6 2 16 1 10 71 10 1 1 1 1 8 1 1 1 2 1 1 1 18 1 2 2 8 1 2 1 11 2 5 1 1 1 1 3 3 7 1 4 2 3 3 16 2 1 3 3 18 8 22 15 2 2 1 1 2 3 8 2 5 2 1 19 1 1 7 3 1 23 13 86 4 13 4 4 6 1 2 1 1 4 2 30
18787 1 1 7 1 11 3 8 2 2 1 1 1 1 1 1 5 2 1 43 36 5 3 1 1 1 2 2 1 1 1 4 3 14 127 3 3 3 3 4 1 77 4 2 1 5 3 4 3 1 6 2 5 2 4 1 1 1 1 1 10 7 1 1 21 3 1 8 9 1 6 32 11 25 40 2 5 11 2 16 28 20 3 4 1 21 12 126 2 3 211 41 1 2 2 17 1 7 65 1
20004 1 8 59 171 9 1 1 1 15 1 2 2 14 1 1 1 1 4 3 7 5 2 3 14 2 4 4 14 4 8 33 1 1 1 8 1 1 1 1 4 11 3 2 10 1 1 4 2 3 13 1 1 11 2 4 3 1 32 28 6 16 8 1 10 33 39 14 1 1 135 9 43 2 1 1 9 2 22 1 1 5 1 1 9 1 1 1 3 56 2 42 3 2 2 1 1 13 18 10
21120 39 1 1 1 2 1 35 1 1 4 3 3 1 2 6 8 87 5 2 3 13 2 7 9 14 8 124 42 2 4 18 14 2 15 7 88 160 118 26 46 43 3 65 9 18 13 3 13 60 14 6 21 1 1 2 1 5 1 3 16 142 3 26 3 1 243 7 6 3 1 1 27 5 2 145 3 10 6 2 4 3 1 1 13 1 1 2 2 2 7 1 1 16 2 1 1 26 7 6
23080 1 4 1 3 1 1 15 1 1 2 2 2 1 1 11 1 1 15 2 1 1 1 1 3 31 3 3 3 3 2 1 91 16 23 30 1 1 2 2 2 6 2 4 1 1 14 1 1 2 2 2 8 1 1 16 2 1 1 1 2 3 23 21 1 4 2 1 2 1 1 1 1 1 16 2 4 2 3 1 15 11 2 2 5 2 3 3 1 28 6 43 1 1 32 1 1 5 1 6
23696 1 1 1 1 5 1 81 31 9 12 2 1 1 14 7 2 1 1 2 1 1 1 1 2 5 3 242 3 9 5 2 4 3 1 1 13 25 3 3 1 48 26 10 43 3 2 1 98 9 5 2 4 3 3 1 1 1 15 2 38 7 2 3 1 1 13 17 23 1 1 2 2 4 6 1 1 10 2 1 1 30 2 2 2 1 1 11 2 2 11 1 2 3 3 7 11 2 4 3
24714 1 1 4 1 1 15 1 26 39 4 2 2 5 69 78 2 1 3 1 2 1 2 1 1 2 2 1 4 1 1 1 1 1 1 1 6 1 2 1 1 1 7 2 2 7 1 3 2 1 4 2 1 2 1 1 2 2 1 4 1 1 1 1 1 1 1 5 4 1 2 1 1 1 5 6 6 4 2 1 8 2 1 2 1 1 2 2 1 2 1 2 1 5 1 1 1 1 1 1
25134 1 1 1 7 1 2 2 1 2 4 1 1 1 1 1 1 1 1 1 1 4 3 1 1 2 1 1 1 1 2 5 1 11 6 2 2 1 2 1 4 1 1 1 1 1 1 1 1 1 5 3 3 3 2 2 3 1 4 1 1 1 1 4 1 1 1 1 1 2 1 1 1 1 1 1 2 1 1 1 3 11 1 1 1 1 7 1 1 1 2 4 5 28 12 1 2 1 1 1
25365 3 2 1 1 1 16 1 1 5 1 1 5 1 6 46 2 2 1 2 1 2 10 1 1 1 4 1 4 1 1 1 1 1 1 1 7 2 1 1 2 2 1 4 1 1 1 1 1 5 3 1 2 1 1 1 5 6 4 1 2 1 2 1 2 1 1 2 2 1 1 1 1 1 4 6 4 2 1 1 13 1 2 1 1 2 2 2 2 1 6 1 2 1 1 1 1 1 1 5
25635 2 2 1 1 1 1 4 1 2 10 4 6 4 3 1 1 13 9 1 3 3 1 2 1 2 2 9 1 17 1 1 3 11 1 1 1 1 1 1 1 1 1 1 1 1 1 4 5 3 2 1 4 3 7 1 1 1 1 1 1 1 1 1 3 3 5 1 2 2 1 1 22 10 10 2 1 1 2 2 1 2 1 5 1 1 1 1 1 1 1 1 7 3 1 1 2 1 1 1
25913 2 4 1 7 8 4 2 1 1 1 2 5 1 1 1 1 1 1 1 1 1 1 7 1 1 2 1 1 1 1 2 4 2 1 15 2 2 1 2 1 4 1 1 1 1 1 1 1 4 5 1 1 1 1 1 1 1 1 1 7 3 3 2 2 2 3 1 4 1 1 1 4 1 1 1 1 6 1 1 1 3 1 1 1 1 1 2 1 1 1 1 3 8 1 6 3 1 1 1
26129 1 1 1 1 8 1 1 1 1 1 1 3 1 5 1 34 9 6 19 1 2 1 1 1 1 3 1 2 1 1 1 6 6 1 1 1 1 3 1 1 1 1 18 1 1 4 2 1 4 3 1 1 4 1 1 6 1 1 1 6 1 37 13 13 8 55 6 3 6 2 1 40 3 4 2 1 37 2 1 12 1 1 18 45 2 1 1 2 2 1 2 1 5 1 1 1 1 1 1
26657 1 6 1 1 2 1 1 1 1 2 3 2 1 1 10 3 1 7 2 2 1 2 1 2 1 5 1 1 1 1 1 1 1 1 1 1 6 3 3 3 3 4 1 1 2 1 1 1 6 1 3 1 5 1 1 1 1 1 1 4 1 1 1 1 1 2 1 2 1 1 1 1 1 1 1 1 1 2 1 1 2 1 1 5 13 1 1 1 5 1 1 1 9 1 1 4 7 37 1
26900 2 1 1 1 1 1 2 2 1 2 1 1 1 1 2 5 1 19 1 1 1 4 1 1 3 1 1 7 1 9 24 1 1 26 1 9 52 11 2 37 3 3 1 1 14 3 3 1 1 12 2 1 2 1 4 1 1 1 1 1 1 1 5 2 2 1 4 1 1 1 1 1 1 1 5 3 3 3 2 2 3 1 4 1 1 1 1 1 4 1 1 1 1 1 1 2 1 1 1
27267 1 3 1 1 1 14 1 1 1 1 8 1 1 1 4 4 5 21 1 1 1 17 1 1 11 1 1 18 1 1 3 4 1 14 3 3 1 1 13 1 1 5 1 1 3 4 1 1 1 4 1 1 1 1 2 1 1 1 1 1 1 1 2 1 1 17 1 1 1 1 1 2 1 1 2 1 1 1 1 1 1 1 2 1 3 2 6 2 1 1 1 1 22 1 1 3 59 1 1
27619 7 1 1 4 5 37 3 22 178 1 2 1 1 1 1 3 1 2 1 1 1 11 1 1 1 1 6 1 1 7 1 1 6 1 7 25 3 1 11 3 1 1 6 1 1 7 1 8 102 1 1 9 1 7 34 1 1 5 1 7 295 2 2 1 2 1 2 4 1 4 1 1 1 1 1 1 1 7 1 2 1 1 1 4 5 1 2 1 2 1 2 1 2 1 1 2 4 1 1
28544 1 1 1 1 6 4 2 1 1 9 1 6 1 1 2 2 1 1 1 1 3 1 1 1 2 10 2 1 2 1 2 6 1 1 1 2 1 1 1 6 3 1 1 13 1 4 1 1 1 1 3 2 1 3 2 4 1 1 5 1 1 1 1 1 1 1 1 1 1 4 2 3 1 2 2 1 1 1 1 3 1 7 6 3 4 2 1 1 1 1 6 1 1 1 1 1 1 1 1
28756 1 3 2 1 3 1 1 1 1 1 1 4 3 5 1 4 1 4 1 1 1 1 1 1 1 7 1 3 15 1 1 1 1 2 1 1 5 1 1 1 1 1 1 1 1 1 1 1 1 1 1 1 1 1 1 1 1 5 1 3 2 2 4 1 1 1 2 5 1 1 1 1 1 1 1 1 1 1 1 1 1 1 2 2 8 1 1 5 1 3 1 1 1 2 5 1 1 1 2
28980 12 20 1 2 1 1 1 1 2 1 2 1 1 1 5 6 1 1 1 1 2 1 1 1 1 14 1 1 4 2 1 4 3 1 1 2 3 1 1 34 11 8 2 1 33 3 2 1 3 2 1 2 1 1 2 2 1 1 1 1 1 5 4 1 3 1 1 9 6 6 3 1 1 1 3 1 3 5 3 2 1 4 10 1 1 1 1 1 1 1 1 1 1 1 3 7 1 1 2
29301 1 1 1 2 24 5 4 1 2 1 1 1 1 3 7 11 5 20 1 2 1 1 1 1 1 2 2 1 1 1 1 5 13 1 1 5 3 2 1 1 2 3 23 8 1 7 1 3 42 14 16 14 7 2 2 11 2 3 1 1 1 1 6 2 1 1 10 3 2 2 1 2 1 1 2 2 1 1 1 1 1 4 3 2 4 2 2 1 1 1 1 2 2 1 1 1 4 1 1
29681 1 1 1 1 1 1 1 1 1 1 1 4 1 17 1 1 1 4 1 1 1 6 7 33 3 4 2 1 1 38 2 1 1 12 15 48 1 3 3 2 1 1 4 11 13 5 1 15 2 5 1 2 1 2 1 1 1 1 2 1 2 2 1 1 1 1 4 1 2 11 1 1 1 1 2 1 1 1 1 15 1 1 1 1 4 2 2 1 5 2 5 1 1 1 1 4 1 1 1
30068 3 1 1 1 1 5 1 7 1 1 1 1 1 1 1 2 27 30 1 2 15 7 6 49 2 4 3 5 2 2 1 4 7 4 1 1 1 1 1 5 2 2 1 1 1 5 19 4 3 1 1 28 2 1 1 41 1 1 17 1 1 15 1 4 95 4 1 23 3 2 5 1 4 1 3 11 3 2 1 4 3 3 7 1 1 1 1 1 1 1 1 1 4 2 1 4 3 7 1
30640 1 1 1 1 1 1 1 1 3 3 5 1 2 2 1 1 19 5 3 3 3 4 9 1 1 1 1 1 1 1 1 1 1 1 5 1 2 3 2 2 3 8 1 1 1 2 11 3 1 1 1 1 1 1 1 1 1 1 1 1 1 1 1 1 1 1 1 2 2 1 1 10 1 1 1 1 1 1 6 1 1 1 1 2 32 5 3 2 2 1 18 15 3 7 1 2 2 1 1
30917 6 1 1 2 1 1 2 8 1 88 28 7 68 10 132 1 2 1 1 1 1 2 1 2 1 1 1 5 6 1 1 1 1 1 2 1 2 1 1 1 1 11 1 1 1 1 2 1 1 1 1 6 1 1 4 2 1 1 6 3 1 1 4 1 1 35 3 1 4 6 1 1 1 1 1 2 2 1 1 12 1 4 1 1 4 2 1 5 3 1 1 4 1 1 44 20 8 89 1
31632 1 6 1 1 1 7 1 28 1 1 1 7 1 1 1 5 1 121 3 1 1 7 1 1 8 1 1 1 6 1 36 2 1 11 1 1 8 25 30 1 1 4 1 1 45 7 242 5 77 8 398 3 4 2 1 14 4 2 1 32 2 1 13 225 2 1 10 627 1 2 1 1 1 1 2 1 2 1 1 1 9 1 1 1 1 1 4 1 1 6 1 1 18 2 1 1 1 1 2
33771 1 10 2 1 1 6 1 1 72 1 1 1 4 1 1 6 1 1 40 1 1 9 1 8 37 1 1 82 1 1 14 1 6 53 2 1 17 1 1 10 1 7 32 1 1 464 1 1 8 1 7 216 1 1 598 3 9 5 2 4 1 1 10 1 1 2 2 2 1 1 10 1 1 14 2 1 1 1 1 1 3 1 5 6 3 13 2 3 1 37 33 1 2 2 2 1 1 13 1
35722 2 2 1 1 17 2 1 1 1 1 1 2 3 1 1 3 1 5 7 1 2 2 1 1 11 1 1 3 3 1 3 7 2 1 4 2 9 2 1 1 1 1 1 3 10 17 2 1 1 1 1 11 2 2 1 8 3 13 2 2 1 15 15 1 1 6 1 1 2 1 73 16 16 12 2 1 1 3 1 1 1 1 2 1 1 3 2 1 4 2 1 2 1 1 6 1 3 19 1
36147 7 2 25 8 28 2 1 5 17 62 9 7 2 2 4 3 1 1 1 18 13 1 1 2 2 3 6 1 1 17 2 1 1 24 7 1 4 1 1 11 2 14 1 1 2 2 1 1 12 1 1 2 15 2 1 1 1 1 3 25 4 44 1 1 2 2 2 8 1 2 5 1 1 1 2 1 1 1 1 16 2 2 2 2 2 7 1 2 1 6 1 1 3 5 10 14 1 1 1
36706 6 4 1 1 1 1 1 5 3 1 2 1 13 4 1 6 1 2 1 3 13 1 3 29 29 15 2 1 10 1 1 10 2 1 1 1 2 3 16 36 1 1 6 1 5 1 27 45 19 3 2 1 1 1 1 1 2 6 2 1 22 113 2 1 2 1 1 2 2 1 2 1 2 1 1 5 1 1 4 1 1 1 1 1 1 5 4 2 2 1 1 2 4 1 1 1 1 1 2
37268 1 2 6 1 1 2 3 5 2 1 2 1 1 2 2 1 2 1 2 10 1 1 1 4 1 4 1 1 1 1 1 1 3 2 2 1 2 1 1 5 1 1 4 1 1 1 1 1 1 5 3 4 2 4 1 1 1 1 1 1 2 4 1 1 1 1 1 2 1 1 2 1 1 2 8 1 2 1 1 1 2 3 5 2 1 2 1 2 1 2 1 2 3 1 1 1 1 1 5
37460 2 1 2 1 1 1 2 1 2 2 1 2 2 3 1 1 1 1 1 1 1 1 1 1 5 1 1 2 2 1 1 1 1 5 3 7 2 2 5 1 1 2 1 1 1 1 1 5 2 1 1 9 1 1 2 1 2 1 1 2 2 2 6 1 2 1 1 1 1 1 1 7 1 1 1 2 2 1 3 1 2 2 13 2 1 2 3 1 5 1 1 10 3 5 2 1 2 1 1
37668 2 4 1 1 2 1 5 1 1 1 1 1 1 1 1 1 1 5 2 1 1 1 5 1 1 2 4 1 1 1 1 1 1 1 1 1 4 2 4 2 2 1 2 1 1 2 4 1 1 1 1 1 1 1 1 2 1 1 2 1 1 2 6 1 1 1 2 3 1 3 4 3 6 4 4 2 1 1 1 2 5 1 1 1 1 1 1 1 1 1 1 1 1 4 2 1 5 1 1
37847 1 1 1 1 1 1 1 1 4 2 1 1 2 1 1 1 1 2 5 2 1 15 5 1 4 1 1 4 1 1 1 1 1 1 1 4 5 1 15 1 1 1 1 1 1 2 1 1 5 1 1 1 1 1 1 1 1 1 1 1 1 4 2 1 1 2 2 2 3 1 4 1 1 1 4 1 1 1 1 1 6 1 1 1 3 1 1 1 2 1 1 1 1 1 3 1 2 1 1
38034 6 1 3 1 1 1 2 1 6 1 1 1 1 1 7 1 1 1 1 1 1 1 3 1 3 1 1 3 1 8 1 12 5 13 8 2 10 8 2 4 2 2 1 1 1 3 2 1 4 1 1 1 1 1 1 3 1 1 1 2 4 2 2 1 1 1 2 4 1 1 1 1 1 1 3 2 2 1 1 2 1 7 2 1 2 1 1 2 2 2 1 3 1 3 7 2 2 1 1
38270 3 7 1 1 1 1 1 1 1 1 1 1 1 2 1 1 2 2 1 3 1 1 1 1 1 1 1 1 1 1 1 1 1 2 1 1 5 1 2 1 2 2 2 1 2 1 3 1 1 2 2 1 1 1 1 1 2 1 2 1 5 4 15 1 1 2 1 2 1 4 1 3 1 4 1 1 1 3 1 1 1 1 1 7 1 1 3 1 1 1 2 1 1 1 3 1 1 1 1
38445 1 1 5 2 1 2 1 1 3 1 1 6 1 1 2 1 7 1 4 5 9 1 3 2 1 1 1 1 8 1 1 11 1 1 1 1 1 1 1 1 5 1 1 1 4 4 14 1 4 2 1 1 1 7 1 1 3 1 1 2 1 1 12 1 2 1 1 2 1 2 1 1 1 1 1 1 1 6 1 3 3 1 5 2 26 10 28 2 1 2 2 1 3 1 1 1 4 1 2
38734 1 6 2 1 1 1 2 1 2 2 1 2 2 3 1 1 1 1 1 1 1 1 4 1 1 2 2 1 1 1 1 4 2 3 1 10 6 1 2 1 1 2 2 2 6 2 1 1 1 1 1 5 1 1 1 2 2 1 3 1 1 1 4 11 2 3 2 5 2 10 1 1 1 4 1 1 6 1 1 1 1 1 1 1 1 1 1 3 1 3 2 1 1 5 1 3 4 1 2
38944 1 1 1 1 1 4 2 4 2 4 1 1 1 1 1 1 1 1 2 4 1 2 1 1 1 1 1 2 1 1 2 1 1 2 8 1 2 1 1 1 1 2 2 1 3 5 1 8 5 2 1 1 1 1 6 1 1 1 1 1 1 1 1 1 1 9 1 1 12 22 1 1 1 1 1 1 1 2 1 1 4 1 1 1 1 1 1 1 1 1 1 1 1 1 10 1 4 1 4
39155 1 1 1 1 1 1 3 4 4 15 1 1 1 1 1 2 1 1 6 1 1 1 1 1 1 1 1 1 1 1 1 1 1 1 1 1 1 1 5 1 4 1 1 1 1 3 2 2 2 4 1 1 2 5 1 1 1 1 1 1 1 1 1 1 2 1 2 1 1 1 5 1 1 5 1 4 1 1 2 1 4 1 1 1 1 2 2 1 1 13 17 15 1 2 1 1 1 1 2
39369 13 9 2 4 3 3 9 1 3 3 2 4 1 1 1 1 1 1 1 3 1 1 1 2 3 2 4 1 1 1 1 1 1 1 3 2 2 1 1 2 1 8 2 1 4 1 2 1 1 1 2 2 2 3 1 3 5 1 2 6 1 1 1 1 1 1 1 3 1 1 1 2 2 3 1 1 1 1 1 1 1 2 1 2 1 5 1 2 1 3 2 1 3 1 2 1 3 4 1
39580 1 2 4 1 3 1 1 1 1 1 1 1 1 1 1 1 1 2 1 1 2 1 1 1 3 1 1 1 4 1 3 1 2 1 1 3 1 1 2 17 6 8 1 4 2 1 1 1 2 1 4 4 1 1 10 1 2 1 1 1 1 1 1 1 1 1 5 1 1 1 1 4 18 1 1 1 7 3 1 1 1 2 1 1 2 1 12 1 4 1 1 2 3 4 1 1 1 3 1
39805 1 1 1 1 1 5 3 2 2 1 1 2 2 1 1 1 1 2 2 12 5 4 7 7 7 1 25 2 4 3 2 10 1 1 2 3 2 3 2 5 2 1 2 1 3 1 2 3 8 9 10 1 1 25 20 1 1 2 1 2 1 2 1 2 1 2 3 1 1 1 1 1 4 2 2 7 1 3 4 1 1 1 3 3 2 1 1 1 2 1 2 2 1 2 2 3 1 1 1
40113 1 1 1 1 5 2 1 1 2 2 1 1 1 1 5 2 3 7 2 2 3 3 2 1 4 2 5 1 1 2 1 1 1 1 1 5 1 3 1 1 8 2 2 1 1 2 10 1 1 1 4 1 5 1 1 1 1 1 1 1 1 1 1 1 4 2 1 2 1 1 2 2 2 6 2 1 1 1 1 1 4 4 1 1 1 4 1 3 1 2 3 8 2 4 1 1 3 1 1
40322 1 1 1 1 1 4 6 2 1 2 4 1 5 1 1 1 1 4 9 7 1 3 3 1 2 1 17 17 1 1 1 2 12 1 2 1 1 1 1 1 1 1 1 1 1 1 1 1 1 1 11 11 1 9 1 1 6 1 1 1 1 1 1 1 1 1 18 1 1 10 1 3 1 1 1 1 1 1 1 1 2 4 3 1 1 1 2 5 4 1 17 9 1 1 2 1 1 1 1
40606 1 1 8 2 1 2 1 1 1 1 1 2 3 1 25 5 2 2 1 1 2 4 1 1 1 1 1 4 2 1 1 2 7 12 1 3 5 11 6 2 1 1 5 1 1 2 1 6 1 1 1 1 1 1 1 1 1 1 1 1 5 4 2 2 1 2 1 1 2 4 1 1 1 1 1 1 1 1 2 1 1 2 6 1 1 1 2 3 1 1 5 6 3 9 4 1 2 5 2
40858 1 1 2 5 1 1 1 1 1 1 1 1 1 1 4 2 1 1 2 1 1 1 1 2 4 2 1 7 14 1 4 1 1 4 1 1 1 1 1 3 2 1 13 1 1 1 1 1 1 2 1 1 4 1 1 1 1 1 1 1 1 1 1 3 1 1 2 2 2 3 1 7 1 1 1 1 4 1 1 1 1 2 1 1 1 2 1 1 1 1 2 1 1 1 5 1 8 3 2
41050 1 1 2 2 3 4 2 1 1 1 1 3 4 2 1 1 12 7 16 8 2 2 6 12 1 3 4 2 2 1 1 1 1 3 2 1 4 1 1 1 1 1 1 1 3 2 1 1 1 2 4 2 2 1 1 1 2 4 1 1 1 1 1 1 3 2 2 1 1 2 1 7 2 1 2 1 1 1 1 2 2 2 1 4 2 4 7 5 2 2 1 1 2 3 7 1 1 1 1
41291 1 1 1 1 1 1 3 1 1 1 1 2 2 1 3 1 1 1 1 1 1 1 1 1 1 1 1 1 2 1 1 4 1 2 1 2 2 2 1 3 1 3 1 1 1 2 2 1 1 1 1 1 2 1 2 1 6 2 6 17 2 1 2 1 3 1 4 1 3 1 4 1 1 1 1 3 1 1 1 1 1 3 1 1 1 1 1 2 1 1 1 2 1 1 1 1 3 1 1
41460 5 1 3 2 1 2 2 1 2 3 1 1 1 3 3 12 14 2 1 2 2 2 1 1 22 1 9 1 1 10 1 1 1 1 1 1 1 1 5 1 1 1 5 14 1 1 9 2 1 1 1 3 5 4 1 1 2 1 3 1 1 12 1 1 2 1 1 2 1 2 1 1 1 1 1 1 1 1 7 2 1 1 2 2 5 1 5 19 3 1 4 1 7 1 1 1 5 20 47
41816 2 7 28 11 2 1 2 1 2 1 2 1 2 1 2 3 1 1 1 1 1 1 1 5 2 2 1 2 1 2 1 2 1 2 3 1 1 1 1 1 1 1 5 3 3 3 3 3 2 1 2 1 2 2 1 1 1 1 1 6 2 1 2 3 1 1 1 1 1 1 1 6 2 3 1 1 1 1 1 1 6 1 1 1 1 1 1 1 1 3 1 1 1 1 1 1 1 1 4
42025 4 14 1 4 6 20 5 6 2 4 2 10 2 1 1 1 2 1 2 2 1 2 1 1 2 2 4 1 1 1 1 1 1 1 1 1 1 1 5 1 1 1 2 2 1 1 1 1 1 2 3 2 2 1 1 1 6 3 8 1 3 2 1 1 1 5 2 3 1 10 6 2 2 1 2 1 2 2 3 1 1 1 1 1 1 1 1 1 1 5 3 2 2 1 3 2 2 1 2
42272 1 1 2 3 1 1 1 1 1 1 1 1 4 1 1 1 1 1 1 2 1 1 1 1 1 4 1 1 1 17 1 1 1 4 1 1 1 1 12 1 1 1 3 6 4 21 1 1 2 2 1 1 1 1 1 3 1 2 2 1 1 1 1 6 3 8 2 3 1 14 1 1 1 4 1 1 2 1 1 10 1 10 46 3 18 33 3 8 2 2 1 18 2 5 1 1 2 1 1
42630 1 1 1 4 6 2 1 1 41 2 1 1 9 1 2 1 1 1 1 1 1 2 2 1 1 1 1 5 2 1 1 14 1 1 7 1 1 1 3 1 1 52 2 1 1 12 16 1 43 1 5 1 5 2 1 2 2 2 1 1 1 1 15 3 3 3 2 1 1 4 7 2 1 1 2 2 2 2 1 1 7 1 1 1 2 1 1 1 1 1 5 2 1 1 1 3 1 5 3
43004 1 1 1 5 1 2 2 12 6 1 4 2 1 1 1 2 2 4 1 1 1 1 1 1 1 1 1 3 1 1 2 1 1 1 1 2 4 2 2 15 2 3 1 1 6 4 15 2 3 6 2 1 1 1 1 1 4 1 3 3 2 2 4 2 1 2 6 1 1 4 1 8 1 1 1 8 1 1 1 1 1 2 1 1 1 2 1 1 6 1 2 2 6 1 1 1 1 1 5
43247 1 1 1 4 4 1 1 1 1 1 1 1 1 7 1 7 1 1 1 1 1 1 1 1 1 7 2 33 2 9 1 1 1 4 1 1 1 2 2 1 3 2 1 3 1 2 2 10 2 19 2 1 1 2 1 1 1 1 1 5 2 5 1 1 1 4 1 1 1 3 3 1 1 1 1 1 6 1 1 4 1 1 1 1 1 1 1 1 30 12 9 2 1 3 2 13 12 3 26
43581 2 3 13 8 5 66 2 1 2 3 1 8 3 1 1 25 1 1 32 6 2 1 1 15 1 2 3 2 2 2 1 5 1 1 15 2 16 2 1 1 1 5 3 2 1 1 2 5 1 1 2 2 4 1 1 1 1 1 1 1 7 1 1 1 1 4 18 7 1 4 1 11 3 34 1 1 18 1 1 3 13 1 6 1 5 84 9 5 20 3 4 2 1 1 42 2 1 1 5
44204 1 2 1 5 1 1 1 1 1 1 1 1 4 4 2 2 1 2 1 2 4 1 1 1 1 1 1 1 2 6 1 1 1 2 2 2 1 1 3 5 5 4 1 7 2 1 2 1 1 2 5 1 1 1 1 1 1 1 1 1 1 1 1 4 1 1 2 1 1 1 1 1 3 4 2 1 1 18 1 4 1 1 2 1 5 1 1 1 1 1 1 1 1 1 1 3 5 4 1
44401 1 18 1 1 1 1 1 1 2 2 1 1 4 1 1 1 1 1 1 1 1 1 1 1 3 2 1 1 4 4 1 2 1 1 1 2 6 1 2 2 3 1 1 1 1 2 1 1 1 6 2 1 5 1 1 1 1 5 1 1 1 1 1 1 1 3 1 3 1 1 1 1 1 1 2 1 1 1 1 1 2 1 1 1 1 3 1 1 1 1 8 1 1 3 1 1 1 4 1
44578 1 4 1 1 2 1 1 5 1 1 1 1 7 2 1 1 1 11 8 2 22 1 1 10 14 2 4 2 2 1 1 2 1 1 3 2 1 4 1 1 1 1 1 1 1 1 3 1 4 1 1 2 1 1 3 1 1 1 1 1 3 2 2 2 1 1 3 1 3 1 3 1 4 2 7 2 2 1 1 3 2 3 7 1 1 1 1 1 1 1 1 1 1 1 1 1 3 2 2
44814 1 3 1 1 1 1 1 1 1 1 1 1 1 4 3 1 2 1 2 1 3 1 2 1 1 2 2 1 1 1 1 1 1 2 1 2 1 4 3 2 1 1 2 1 1 1 1 1 1 1 1 4 4 4 1 12 7 1 2 1 3 2 1 3 4 1 2 1 4 1 1 1 1 3 1 1 1 1 1 1 1 1 2 1 1 1 1 1 1 3 1 3 1 1 1 1 1 4 1
44992 1 1 1 1 2 1 1 4 1 2 1 1 3 1 1 6 1 14 5 10 1 4 2 1 1 1 1 13 1 4 2 1 1 7 2 1 1 1 1 1 1 5 1 3 1 1 1 1 1 1 6 16 1 2 5 2 1 4 5 1 1 3 1 5 10 1 2 1 1 1 2 2 1 1 1 1 1 1 1 1 6 1 2 2 1 1 3 3 1 1 4 2 1 2 10 17 7 14 1
45275 3 3 1 1 9 1 15 32 2 11 12 43 2 4 3 2 1 1 1 27 2 1 44 1 1 1 29 1 8 1 2 4 2 12 1 39 2 2 1 2 1 1 1 2 5 1 1 1 1 1 1 1 1 1 1 1 1 4 6 1 1 1 1 1 1 1 4 1 1 1 1 4 1 3 2 1 2 5 1 1 1 1 1 1 1 1 1 1 1 1 5 1 1 1 2 1 1 1 1
45697 1 1 1 1 1 1 1 4 1 1 1 1 1 1 4 6 13 1 1 1 1 1 11 1 1 1 1 3 8 27 1 1 2 1 1 1 1 1 2 1 2 1 1 1 4 2 1 18 1 1 2 3 1 1 1 4 1 29 2 1 34 2 1 10 1 7 74 2 3 2 4 1 1 10 6 1 4 1 1 4 1 1 1 1 6 1 1 5 1 13 1 1 1 1 1 2 1 1 4
46098 1 1 1 1 1 1 1 1 1 6 1 1 4 1 1 1 1 13 1 1 1 1 2 1 1 4 1 1 1 1 1 1 1 3 2 1 1 1 3 2 2 3 1 4 1 1 4 1 1 1 1 1 2 1 1 1 2 1 1 2 1 1 1 1 1 5 1 3 1 1 2 1 1 5 1 1 1 1 1 6 1 2 8 1 11 20 2 1 2 3 5 2 3 10 1 1 1 2 1
46316 1 1 1 1 1 1 5 1 1 1 2 3 1 1 2 2 2 4 1 1 14 1 1 1 1 1 3 1 1 1 9 1 3 1 1 1 1 1 1 1 1 6 1 1 2 1 1 1 1 1 1 1 1 1 1 1 1 1 1 1 1 1 11 3 4 1 1 1 5 1 1 4 1 1 1 1 1 1 1 1 1 1 1 4 1 4 1 1 3 4 2 1 1 1 1 1 1 1 1
46494 1 1 1 1 1 1 2 5 1 1 1 1 1 1 1 1 1 3 2 15 41 5 1 1 8 2 3 1 1 1 1 1 1 2 5 1 3 1 1 3 2 14 1 10 1 1 3 3 3 1 1 1 1 8 8 3 11 2 12 1 3 6 1 11 1 1 4 1 1 3 2 1 4 4 1 1 4 1 1 1 1 1 1 2 1 1 1 1 1 2 1 1 2 1 1 1 3 1 1
46783 4 1 5 1 6 1 3 1 1 1 1 2 1 1 1 1 1 1 3 1 1 1 1 4 13 1 1 1 1 1 1 1 1 1 1 1 1 1 1 2 1 1 1 2 1 1 18 1 2 1 1 7 24 18 1 4 1 2 3 36 1 1 2 1 5 1 1 1 1 8 3 1 16 6 36 1 1 3 1 6 1 35 1 60 46 72 17 4 1 53 2 2 1 1 15 1 1 2 2
47396 1 10 1 1 16 2 1 1 1 1 1 2 2 1 1 3 10 15 5 3 5 4 2 2 1 1 1 3 2 1 4 1 1 1 1 1 1 2 4 1 1 1 1 3 1 1 1 1 3 2 2 1 2 2 1 3 1 1 4 7 1 3 1 1 2 3 8 1 1 1 1 1 1 1 1 1 1 1 1 1 3 2 2 2 2 1 1 1 1 2 2 2 1 3 1 1 1 1 1
47615 1 1 1 1 2 1 1 1 1 5 1 2 2 2 1 2 1 2 2 1 1 1 2 2 1 1 1 1 1 1 1 1 1 3 1 2 1 1 5 2 3 4 15 2 1 4 1 1 1 1 1 1 2 2 2 1 3 1 1 1 1 1 1 1 1 1 1 2 1 1 1 6 2 1 2 1 4 1 3 1 4 1 1 1 1 5 1 1 1 1 1 1 1 1 1 4 1 1 1
47787 1 1 2 1 1 1 1 1 2 1 1 1 1 3 1 1 1 4 1 1 5 1 2 1 2 1 2 1 1 3 1 1 5 12 5 7 3 1 3 2 1 1 1 1 1 1 5 12 2 3 8 1 1 9 2 1 1 1 1 1 1 2 1 1 5 1 3 1 1 4 4 12 1 1 2 1 1 4 1 3 1 1 2 1 2 2 3 7 2 2 1 1 3 7 1 1 1 1 1
48018 1 1 1 1 1 2 1 2 2 1 4 1 1 1 1 1 1 1 1 1 1 1 1 3 1 6 2 1 1 2 1 2 2 1 1 1 1 1 2 2 7 2 3 16 2 1 1 1 1 1 1 4 1 2 2 1 4 1 1 1 3 1 1 1 1 1 2 1 1 1 2 1 2 1 1 1 2 2 5 4 1 2 1 1 1 3 1 1 16 2 3 7 8 1 1 12 5 2 9
48252 1 10 1 1 5 1 5 15 2 1 2 7 1 1 1 1 1 1 1 6 2 1 1 7 4 3 15 2 1 2 3 1 3 1 2 1 1 2 2 1 8 1 2 1 15 11 15 11 42 2 1 1 18 2 1 21 10 15 20 21 1 27 1 3 1 1 1 1 1 1 5 1 1 1 1 1 1 1 5 1 1 1 3 1 2 1 1 2 3 1 1 1 3 7 1 1 1 1 1
48679 1 1 5 1 1 1 1 1 1 1 1 1 3 1 1 1 1 1 1 1 1 1 1 1 5 1 1 1 1 1 1 1 1 1 1 1 1 1 1 1 1 1 3 1 1 3 1 1 1 1 1 1 6 1 6 13 1 1 1 3 1 1 2 1 1 2 1 1 1 2 9 4 19 1 2 1 6 2 1 1 2 1 2 2 2 2 5 2 1 3 1 1 1 1 1 1 1 1 1
48868 2 1 2 5 1 5 1 4 5 1 1 1 1 1 1 1 1 1 1 1 1 1 1 1 2 2 1 1 2 1 10 1 1 1 1 2 5 13 8 2 8 3 3 2 7 9 1 30 3 1 3 1 1 12 5 18 3 7 1 2 2 1 3 1 1 3 20 7 13 3 1 9 1 1 2 2 1 1 1 1 1 1 3 1 3 1 4 6 1 1 1 1 2 1 1 1 1 1 2
49191 6 1 4 4 1 26 16 36 4 28 69 17 10 1 3 1 5 1 1 9 1 1 1 14 19 1 3 1 1 6 9 2 7 4 1 1 5 1 1 4 2 1 5 4 1 1 1 3 1 1 1 1 1 1 1 3 1 1 1 2 1 1 2 1 1 1 3 1 1 1 4 1 4 1 6 1 5 4 1 3 1 1 1 1 1 1 1 3 3 1 1 1 17 1 1 1 3 1 1
49635 1 1 1 1 1 2 1 1 3 1 1 1 1 2 1 24 9 3 18 1 2 9 1 28 27 2 24 1 2 1 1 3 1 1 7 17 7 21 5 168 3 24 1 5 1 6 6 8 4 3 2 1 1 1 1 2 2 1 1 1 1 1 1 1 5 6 1 5 1 22 3 11 83 1 1 6 1 8 91 2 6 15 1 1 3 1 1 1 2 1 1 5 1 24 26 24 1 1 6
50508 76 21 7 2 1 1 4 1 3 39 4 2 1 1 1 1 1 1 1 3 4 3 70 1 1 2 7 9 1 1 1 4 1 16 1 3 6 4 5 2 15 1 3 1 1 1 1 5 1 1 1 4 4 1 1 8 2 1 1 2 2 1 1 1 13 1 1 2 1 1 1 6 1 1 1 1 1 1 1 1 2 1 1 1 1 1 1 2 2 1 1 1 1 1 1 1 3 2 7
50948 1 1 3 1 1 1 1 1 1 1 1 1 6 1 1 1 1 1 1 1 6 20 1 1 2 52 1 3 3 1 6 37 24 165 10 190 6 2 2 2 3 3 2 5 2 2 2 2 4 18 3 2 25 3 2 9 9 1 1 12 1 80 6 31 23 19 1 1 2 4 2 5 2 3 1 1 12 14 34 1 4 1 3 1 1 1 1 1 13 2 2 3 2 8 1 3 1 13 6
51946 2 4 1 1 37 3 1 2 10 3 3 1 4 2 1 1 2 14 27 13 10 2 74 127 33 73 1 1 2 2 1 3 1 2 2 2 1 2 1 2 4 1 6 1 1 1 2 1 1 1 1 1 1 5 1 1 2 2 1 1 1 1 4 2 3 6 2 2 1 2 1 2 4 1 5 1 1 1 1 1 1 1 1 1 1 1 1 5 4 1 1 4 1 3 1 2 3 7 2
52539 2 4 1 1 7 1 1 1 1 1 1 1 1 1 1 1 1 1 1 3 2 4 1 1 2 5 1 1 1 1 1 1 1 1 1 1 9 1 15 1 1 13 1 1 1 1 9 1 1 2 5 1 1 1 1 1 1 1 1 1 1 1 3 4 3 1 11 1 1 3 2 2 1 2 4 2 6 2 1 1 2 1 1 1 2 1 1 1 2 1 1 3 3 1 1 4 1 1 5
52754 1 1 1 1 2 5 1 9 20 3 2 7 9 2 9 2 3 2 2 1 1 1 2 3 1 1 1 1 2 2 4 2 1 4 6 1 2 3 1 1 1 1 1 2 2 2 1 1 1 5 1 3 3 1 1 2 1 1 1 2 2 6 2 5 19 1 8 5 3 5 2 2 4 6 1 1 36 2 2 3 2 1 2 1 6 11 9 1 1 1 1 4 1 1 1 2 2 2 2
53077 3 1 1 2 2 1 4 1 1 1 4 1 3 3 2 1 2 1 2 2 1 1 6 2 1 3 1 1 4 2 2 1 1 8 1 1 1 4 1 1 2 1 1 3 1 1 19 1 2 1 2 1 1 2 2 2 1 1 1 1 1 1 4 6 2 4 3 1 13 1 1 1 2 2 1 2 1 1 1 1 5 1 1 2 4 4 1 3 6 4 4 7 2 2 1 11 5 3 4
53324 1 5 8 7 1 1 1 1 1 1 1 1 3 5 1 4 1 2 2 2 5 2 1 1 1 1 1 12 3 1 1 13 11 4 1 1 2 1 1 1 1 1 2 1 1 2 2 1 1 1 4 2 3 5 3 2 3 1 7 1 1 1 1 1 2 1 1 1 1 4 3 1 8 2 4 7 1 1 2 1 1 2 5 1 1 2 1 1 1 6 1 2 1 1 49 14 6 2 3
53647 1 7 20 1 39 1 2 1 2 1 1 2 4 1 1 1 1 1 1 5 4 2 2 1 8 1 5 2 1 2 1 1 1 1 3 16 2 1 1 4 2 1 1 1 2 1 1 1 1 5 3 3 2 3 4 9 2 1 1 3 1 3 1 1 5 2 1 2 2 8 2 1 1 1 2 3 1 1 1 5 1 4 1 5 1 1 1 1 1 1 1 1 1 1 6 8 1 1 1
53930 1 1 2 1 3 1 1 1 1 1 1 3 2 2 1 1 1 5 1 1 1 1 1 2 4 1 1 2 4 1 1 1 1 1 1 1 1 1 1 1 1 1 1 1 3 1 8 1 1 1 4 5 1 1 1 1 2 4 1 1 5 1 1 1 1 1 1 2 2 3 37 2 6 2 1 11 8 1 1 4 1 1 4 3 1 2 3 7 2 16 5 2 4 1 1 4 1 1 3
54183 1 1 1 6 3 1 1 26 1 11 2 33 1 2 4 4 10 7 1 1 2 3 20 51 13 2 1 4 1 1 1 2 16 3 2 2 1 1 1 2 3 1 1 1 1 2 2 5 1 5 6 1 1 2 5 1 1 1 1 1 1 2 6 2 2 1 1 1 1 5 1 4 3 7 1 1 2 1 4 1 1 1 1 1 2 1 7 1 1 1 2 1 1 5 3 2 1 1 1
54556 14 2 1 6 6 6 1 1 4 2 2 10 10 2 1 4 5 1 2 33 34 4 4 3 2 1 1 1 9 4 11 1 2 1 2 1 7 3 1 4 12 1 1 2 2 2 2 4 1 1 1 1 2 4 2 1 5 11 1 6 10 3 17 1 1 3 1 4 1 9 5 1 2 3 2 1 1 1 1 1 7 1 1 2 1 4 1 1 1 17 1 20 1 7 15 2 1 2 2
54983 6 5 40 36 1 25 1 1 8 1 6 10 10 5 1 1 1 1 1 6 8 1 9 1 1 1 1 14 1 1 1 3 1 1 1 1 8 3 1 2 1 1 2 2 1 1 8 6 1 2 18 1 6 1 1 1 1 1 1 1 17 1 1 1 1 2 3 1 1 1 1 2 1 4 1 1 5 1 10 1 1 2 1 1 1 4 1 11 4 19 1 2 1 1 1 1 2 1 3
55381 1 1 1 1 1 1 1 1 5 2 3 1 6 1 1 2 2 8 1 2 1 1 1 1 1 1 1 1 1 1 1 1 6 1 1 1 5 4 1 1 5 1 1 3 6 1 19 2 6 4 21 1 4 1 1 1 1 9 2 2 2 1 2 10 4 5 1 3 11 1 2 12 1 6 1 3 1 2 1 1 3 1 4 1 4 7 1 1 2 1 2 1 2 2 1 2 21 48 37
55763 1 10 2 2 6 9 3 1 1 1 4 4 1 6 27 4 1 41 11 67 11 27 15 5 3 5 3 2 2 1 1 1 1 2 3 1 1 1 1 2 2 5 1 1 5 5 2 1 2 4 1 1 1 1 1 1 3 2 2 1 2 1 1 1 2 1 2 2 1 1 1 1 1 1 1 1 5 2 1 3 3 2 1 1 1 2 2 1 1 1 1 1 1 1 1 1 3 1 2
56158 3 2 5 11 3 1 2 1 1 1 1 2 1 4 3 2 3 6 1 2 3 1 1 1 2 1 2 1 3 1 1 1 1 1 1 3 1 6 1 1 1 1 2 6 2 1 4 19 2 5 5 2 5 1 2 2 11 20 6 1 44 3 1 1 1 24 1 2 5 1 1 1 1 1 1 2 2 2 2 1 1 1 1 1 2 1 1 1 5 2 1 2 2 1 2 2 1 1 1
56472 2 3 1 1 1 1 1 1 1 1 1 1 2 2 1 1 1 9 4 1 1 11 1 4 1 1 2 2 1 1 4 1 1 1 1 1 1 1 1 4 8 1 2 1 1 1 6 1 3 1 5 12 18 2 3 3 2 5 3 13 1 1 13 20 9 2 42 1 1 1 1 1 1 5 1 2 1 1 2 1 1 1 1 6 1 1 2 3 1 1 2 3 1 1 1 1 1 3 1
56782 1 1 1 1 1 1 3 1 1 1 1 1 3 1 1 2 2 1 8 1 7 1 1 2 1 2 1 2 1 20 1 2 1 3 2 3 2 2 1 1 1 5 1 4 1 2 3 4 1 1 1 1 1 1 2 1 14 2 13 16 15 2 2 3 9 1 4 4 3 34 1 4 6 3 1 12 12 2 3 1 10 1 1 1 2 1 1 1 1 3 3 6 1 6 4 1 1 1 1
57115 1 3 1 7 3 1 1 1 1 2 1 3 5 1 69 16 5 2 6 22 1 6 110 24 3 2 1 4 7 37 65 1 2 2 1 1 3 17 50 26 2 47 2 1 5 1 1 2 1 5 26 7 26 44 46 1 65 2 295 2 2 2 1 3 1 1 2 2 2 1 3 1 1 4 2 1 2 1 3 1 1 1 5 3 1 1 1 3 1 1 1 1 2 1 1 1 5 3 21
58303 2 8 3 3 2 1 13 7 3 1 6 1 2 1 4 2 1 3 1 1 1 8 1 1 4 1 1 1 2 1 1 1 14 16 3 1 1 3 1 1 2 1 1 1 1 3 27 5 1 1 71 3 5 2 4 2 46 4 1 8 4 2 21 61 1 1 2 1 1 1 1 1 2 1 1 2 1 1 1 4 3 4 1 1 1 1 1 4 1 1 1 5 1 1 2 1 1 23 2
58786 1 3 3 5 1 3 1 1 2 1 1 40 3 16 39 3 4 3 1 83 1 1 2 1 43 1 1 7 1 7 10 1 1 212 3 17 145 3 4 2 1 30 3 1 1 7 2 1 10 31 4 3 5 13 10 8 4 4 4 8 2 8 13 1 1 31 1 1 4 1 4 1 8 3 14 1 2 6 2 1 1 1 4 2 4 1 1 4 1 1 2 1 5 2 1 1 1 13 1
59766 1 3 1 3 7 2 9 3 2 4 1 2 2 1 1 4 1 1 1 1 46 1 13 7 45 4 14 109 3 6 29 6 5 5 4 1 8 3 1 11 1 1 4 1 1 2 1 5 3 1 1 1 14 1 8 14 1 1 1 154 1 9 246 1 4 12 9 72 237 13 32 92 1 1 30 3 12 28 3 2 2 1 1 1 2 3 1 1 1 1 2 2 3 1 1 2 3 5 2
61197 2 4 1 1 1 1 1 3 2 2 1 2 1 1 1 2 2 2 1 1 1 1 1 1 1 1 5 2 1 2 2 2 1 1 1 2 3 1 1 1 1 1 1 1 1 2 2 1 1 5 3 4 8 3 1 2 1 1 1 2 1 1 3 1 2 1 2 3 1 3 6 1 3 1 2 1 2 1 3 1 1 1 1 1 3 1 5 1 1 1 1 6 1 3 12 11 2 2 3
61399 1 3 1 14 6 1 3 1 13 10 24 2 1 4 1 1 1 4 1 1 1 1 1 1 1 1 1 5 1 3 1 1 2 4 1 1 1 1 4 1 1 1 1 1 2 1 1 1 1 1 1 1 1 2 1 2 1 2 2 1 8 1 3 1 1 2 15 2 1 2 2 1 1 1 1 1 2 1 6 1 1 1 2 2 1 1 4 1 1 1 1 1 1 1 1 1 1 1 1
61628 3 1 7 2 2 1 2 3 1 2 2 1 1 1 1 3 1 5 1 1 3 15 1 1 2 1 3 2 1 1 1 1 1 1 4 2 2 2 4 2 1 1 1 1 1 1 1 2 7 1 1 1 1 1 1 1 1 1 2 11 2 2 1 2 10 4 2 5 3 13 29 9 3 3 10 1 3 3 1 1 4 15 10 7 4 1 1 7 2 5 1 1 1 2 2 1 1 1 1
61932 1 1 1 1 1 4 1 1 5 1 1 12 1 1 1 1 1 1 4 1 3 1 10 1 43 36 4 23 4 66 6 1 4 1 20 14 30 1 1 1 2 1 1 1 1 1 4 1 2 1 1 1 3 1 1 1 2 1 1 1 4 1 1 8 16 1 2 1 1 8 3 1 5 1 3 1 1 1 1 1 1 4 1 6 2 4 1 1 1 2 2 1 2 1 3 1 4 1 1
62374 3 12 15 36 1 1 12 2 1 1 3 3 5 41 1 3 109 65 14 2 2 3 1 2 12 9 13 2 2 2 1 139 133 61 56 1 13 1 5 1 1 4 1 1 1 1 1 5 1 4 1 11 1 28 3 1 2 14 2 1 2 1 1 1 1 1 9 2 1 4 2 3 1 1 1 1 1 2 1 1 1 1 1 3 1 9 3 1 1 1 2 1 1 1 1 1 2 1 2
63320 10 1 1 1 1 1 1 1 1 1 8 22 54 1 1 11 68 10 1 1 3 2 20 2 3 1 14 2 17 2 1 1 5 1 1 1 1 2 12 2 8 15 1 4 10 268 3 65 1 3 3 4 33 160 6 15 1 7 3 30 35 1 1 2 1 1 1 1 1 3 4 7 1 1 1 2 8 65 1 23 269 4 285 67 4 1 9 2 3 1 11 1 1 1 56 146 8 12 4
65296 2 3 2 3 2 1 5 1 1 97 284 252 1 9 10 1 1 1 1 5 12 1 8 10 1 1 1 2 1 2 2 1 1 1 1 2 3 1 1 1 9 21 1 1 5 15 1 1 1 3 1 1 1 1 3 2 1 24 4 1 2 1 1 1 1 1 1 4 1 1 1 1 1 4 1 1 1 1 2 1 1 1 1 1 1 1 1 1 1 1 1 1 7 1 5 10 30 1 1
66231 10 1 1 1 2 1 2 3 16 1 1 2 1 1 1 1 2 4 1 1 1 1 1 2 1 9 16 1 1 3 2 1 1 1 1 1 7 1 1 1 1 2 1 4 1 1 1 1 1 23 40 1 1 1 4 5 1 1 1 1 1 1 1 2 1 2 1 1 1 1 1 1 9 21 1 1 9 15 1 1 1 3 1 1 1 2 1 22 1 1 15 1 1 1 2 3 1 1 1
66562 1 1 1 1 1 3 2 2 1 33 6 1 3 1 1 1 1 1 2 1 1 2 1 4 1 1 1 1 1 4 1 1 1 1 1 8 1 1 1 1 3 1 1 1 1 1 1 1 1 1 1 1 1 1 1 1 1 1 1 1 1 1 4 2 3 2 1 4 1 3 5 1 12 2 1 1 1 2 1 1 1 2 1 1 1 2 3 1 1 1 1 1 1 1 1 2 1 1 1
66756 1 1 1 10 2 2 1 1 1 4 2 3 1 1 1 1 1 3 4 1 1 1 1 2 2 1 1 1 2 1 1 1 1 1 3 8 4 1 19 1 9 16 1 1 2 4 1 1 1 1 1 1 1 29 1 1 1 11 1 1 1 1 3 1 35 4 4 1 1 3 1 1 1 1 1 1 1 1 1 1 1 5 1 1 5 1 1 1 1 1 1 4 1 1 2 1 1 1 1
67032 2 1 1 1 1 1 1 1 1 1 1 1 1 1 1 1 6 14 1 1 2 3 1 1 1 1 3 2 8 31 1 3 5 1 1 1 2 1 1 1 1 1 1 1 1 1 5 1 1 1 4 1 1 1 1 1 1 1 4 1 1 1 1 1 1 1 2 1 1 1 1 1 1 1 1 1 1 1 1 1 1 1 1 1 1 5 1 3 3 1 1 1 1 1 1 1 2 1 1
67221 1 2 1 3 1 7 1 8 13 2 7 1 2 1 1 3 1 1 1 1 1 1 1 1 1 5 1 2 1 4 1 1 1 1 1 4 1 4 1 1 1 4 1 24 4 1 1 2 1 1 1 1 1 1 1 1 1 1 1 1 15 2 1 2 1 1 1 1 1 1 4 1 1 1 1 1 1 1 1 1 1 1 1 1 2 1 1 1 1 1 2 1 3 1 1 1 1 1 1
67427 1 3 1 1 1 1 1 1 1 1 1 1 1 7 15 1 1 4 1 1 9 1 1 1 1 1 4 1 1 1 1 1 2 1 1 1 1 1 1 1 1 1 1 1 1 1 11 1 1 1 1 2 1 1 1 1 1 1 1 1 1 2 2 1 1 1 1 2 8 2 1 1 1 1 1 26 1 1 1 1 1 16 43 1 5 18 22 2 1 1 1 9 16 1 5 1 1 1 1
67738 1 1 1 1 19 5 30 1 2 8 16 1 3 1 1 1 1 2 1 22 1 11 1 53 1 1 1 1 2 2 9 17 2 2 1 1 1 1 1 4 1 1 2 1 4 1 1 1 5 2 1 1 1 1 1 1 1 1 1 1 1 1 1 1 1 1 1 1 1 1 1 1 1 1 4 2 1 1 1 1 1 1 1 1 2 3 2 2 2 3 2 1 2 22 1 2 16 1 1
68090 1 1 1 1 3 1 4 1 1 1 1 1 22 4 22 39 1 1 13 2 1 1 1 1 1 1 1 1 1 1 3 1 8 11 1 2 1 1 1 1 2 1 1 1 1 2 1 2 1 1 1 2 1 1 1 1 6 26 1 2 17 1 1 4 1 1 1 1 1 1 2 1 1 1 1 1 3 2 1 20 4 1 2 1 1 1 1 1 1 1 6 1 1 1 1 1 2 1 1
68398 1 1 1 1 1 1 1 1 1 1 4 3 1 3 1 3 1 2 2 2 2 3 2 1 1 12 1 1 1 2 1 1 1 1 1 2 2 2 1 1 1 1 1 1 1 3 2 1 1 1 6 1 1 1 1 2 4 1 1 1 1 1 1 16 1 2 1 1 2 2 28 1 1 3 1 1 1 1 1 1 1 1 1 1 1 1 1 1 5 1 1 4 1 1 1 1 2 1 1
68596 2 1 1 1 1 1 1 1 1 1 1 1 1 1 1 4 1 1 1 1 2 1 1 1 1 2 4 1 1 1 1 1 1 1 1 1 1 2 1 1 1 1 1 1 1 1 1 1 1 10 4 2 2 1 1 1 5 2 4 1 1 1 1 1 1 1 3 2 1 1 2 2 1 1 1 1 2 1 1 1 1 1 1 3 3 1 10 1 2 4 1 12 1 1 1 1 3 1 2
68765 6 1 1 2 1 1 1 1 2 1 4 1 1 1 1 2 2 1 1 1 3 1 1 1 1 1 1 1 15 3 17 1 1 1 7 1 1 3 2 1 1 1 1 1 22 1 11 1 1 2 2 2 1 1 1 1 1 1 1 1 1 1 3 1 2 2 2 1 1 49 3 1 2 1 1 1 2 1 2 2 1 1 1 8 1 1 1 5 1 1 10 1 1 1 1 2 1 1 1
69042 3 1 1 1 1 1 1 1 2 1 1 1 1 1 1 1 1 1 1 1 1 1 1 1 1 1 1 5 3 2 1 1 7 2 1 1 1 1 1 1 4 1 2 1 3 2 1 1 1 2 1 1 2 5 4 1 1 1 1 3 1 6 1 21 7 1 1 1 1 3 25 1 1 1 2 2 3 1 1 2 1 1 1 1 2 1 1 1 2 1 1 2 1 4 1 1 1 1 1
69245 1 1 1 1 2 1 1 1 1 1 1 1 1 1 1 1 1 1 1 1 1 1 1 1 1 7 1 1 1 2 3 1 1 1 1 1 1 1 1 1 1 2 2 2 1 3 1 1 1 5 1 3 1 1 4 1 1 1 1 1 1 1 4 2 1 1 4 1 1 1 1 3 7 1 1 2 1 1 1 1 1 1 1 2 7 1 1 1 1 3 2 1 1 1 1 1 1 2 1
69399 1 6 48 7 37 1 4 1 18 1 1 1 4 5 1 1 1 1 1 1 1 1 1 1 1 1 8 4 1 5 77 1 1 1 1 1 1 1 1 3 2 5 50 1 5 2 1 1 1 1 1 1 1 1 1 1 1 1 1 5 1 1 1 1 1 1 3 2 1 1 1 1 1 1 1 1 1 1 1 1 1 1 1 1 1 1 1 1 1 1 1 1 1 1 1 1 1 1 1
69778 1 1 5 3 2 1 3 1 1 1 1 3 1 3 1 2 1 1 2 4 6 1 1 1 7 3 1 1 1 1 1 2 1 1 1 1 1 1 2 1 1 1 1 2 1 7 1 4 10 1 1 7 21 1 1 2 1 1 1 1 1 1 7 1 1 4 1 1 2 2 1 1 1 1 1 2 1 1 1 2 1 1 1 2 12 1 1 2 5 1 13 17 11 1 1 1 1 3 9
70035 1 1 1 1 23 3 1 1 4 1 1 1 1 1 1 1 1 1 1 1 1 1 1 1 1 1 1 1 1 1 4 3 1 1 1 2 1 14 1 3 3 1 1 1 1 4 1 1 1 1 1 1 1 1 3 2 2 13 26 1 3 5 1 1 1 1 1 1 1 1 1 1 1 4 1 1 4 1 1 1 1 4 1 1 1 3 1 1 1 1 1 1 3 1 1 1 1 1 1
70248 1 1 1 1 1 1 1 1 1 1 1 1 1 1 1 1 1 4 2 2 1 3 1 1 1 3 1 3 1 1 1 1 3 1 1 1 1 1 1 1 1 3 1 1 1 1 2 1 1 1 1 1 1 3 1 1 1 11 3 2 1 4 1 2 1 1 8 1 21 1 11 1 1 6 1 1 3 1 2 39 1 1 5 1 1 1 3 1 1 2 1 1 1 1 1 1 1 1 1
70473 1 1 1 1 1 7 1 1 1 1 1 5 1 2 1 1 1 1 2 1 1 1 1 1 1 1 1 1 1 1 1 1 1 1 1 1 1 1 6 1 4 2 21 1 5 1 3 1 1 1 1 1 1 1 1 1 1 1 1 2 1 4 1 1 1 1 3 2 1 1 1 1 1 1 1 1 1 1 1 1 1 1 1 1 1 1 1 1 1 1 1 6 1 1 1 1 1 4 1
70637 3 1 1 1 1 1 1 1 1 3 1 1 1 1 1 1 1 1 1 4 1 1 1 1 3 1 1 14 1 1 1 2 1 6 1 6 15 13 2 3 6 1 2 1 2 1 5 1 1 1 1 1 1 1 1 1 1 1 1 4 2 1 1 1 1 2 3 2 1 1 1 1 5 1 2 1 1 1 1 1 1 1 1 1 1 1 5 1 2 1 4 1 1 1 4 1 1 2 3
70837 1 24 1 4 1 1 2 1 1 1 1 2 1 1 3 1 1 1 1 11 1 1 3 1 1 1 3 1 1 1 1 1 1 1 4 13 1 2 1 1 3 1 1 1 1 1 1 1 1 1 1 1 1 1 1 1 2 1 1 1 1 1 1 2 1 1 1 1 1 1 1 2 1 1 1 1 1 1 1 1 1 2 1 3 1 1 1 1 1 1 1 1 1 1 17 2 1 1 2
71025 1 2 1 1 1 1 3 1 1 1 7 2 1 1 1 1 1 1 5 1 1 4 1 1 4 1 1 7 1 1 1 4 1 1 1 1 1 1 2 1 1 1 1 1 1 1 2 1 1 1 1 1 1 1 1 2 5 3 1 3 3 1 3 1 1 1 2 1 1 1 1 1 1 3 1 1 1 2 1 3 8 1 1 1 2 1 1 1 1 1 1 1 1 1 1 1 1 1 1
71183 1 1 2 1 1 1 2 1 4 1 2 1 15 26 1 1 1 1 1 1 1 7 1 2 1 30 40 15 13 5 9 2 1 4 1 3 2 6 1 25 2 2 2 1 1 11 81 2 1 1 1 2 2 1 1 1 1 1 1 2 1 1 1 1 1 1 1 1 1 1 8 1 2 3 1 1 1 1 1 1 3 1 1 1 1 1 12 2 2 1 1 4 2 2 1 1 1 1 1
71604 1 1 1 1 3 1 1 2 4 1 1 1 1 1 1 1 1 1 1 1 1 5 3 11 3 4 5 3 37 1 1 1 1 1 1 2 9 1 1 2 74 2 1 10 2 1 1 17 2 1 15 1 1 5 1 9 14 2 3 1 1 1 1 1 3 2 1 1 1 3 2 1 1 1 1 1 1 3 7 2 5 15 2 1 1 1 1 1 9 21 6 1 1 118 1 1 1 4 1
72113 1 6 2 1 22 3 1 3 1 2 1 1 1 1 1 1 1 1 3 1 1 1 1 1 1 1 1 1 1 1 1 2 1 1 1 1 1 1 1 1 1 1 1 1 1 7 1 2 2 1 1 1 1 1 1 1 3 2 1 4 1 1 1 3 1 1 15 2 1 1 1 3 1 1 1 1 1 1 1 1 1 1 1 3 1 1 1 1 4 1 1 1 1 1 1 1 1 1 1
72286 1 2 1 1 1 1 1 1 1 1 1 1 1 1 3 1 2 5 1 1 1 2 1 1 1 1 1 1 1 1 2 2 6 1 1 29 1 1 1 11 1 22 3 1 1 1 1 3 3 1 1 1 1 1 1 1 1 1 1 1 1 1 1 1 2 1 1 1 1 3 6 2 1 15 2 5 1 2 2 1 1 1 1 1 1 1 1 1 1 1 4 1 1 1 1 1 1 2 1
72501 22 1 3 1 3 1 1 1 1 1 1 1 2 1 4 1 1 1 1 2 1 1 16 1 2 1 3 1 1 1 1 1 1 1 1 1 1 1 1 1 1 1 1 1 1 1 1 1 5 1 1 1 2 1 1 1 1 1 1 1 1 1 1 1 1 1 1 1 1 1 1 1 1 2 1 1 3 1 1 1 1 1 1 1 1 1 1 4 1 1 1 1 2 1 1 1 1 1 1
72661 1 1 2 3 4 1 5 1 1 23 2 1 3 1 1 1 1 2 4 1 1 1 1 1 1 1 1 1 1 1 1 2 1 1 1 1 1 1 1 1 1 1 1 5 1 1 4 1 6 1 1 1 1 1 2 1 1 1 1 1 1 1 1 1 1 1 1 1 1 1 2 8 3 1 4 1 1 1 1 1 1 1 2 2 2 1 1 1 2 4 3 1 32 8 14 1 54 1 7
72963 1 4 1 7 1 1 1 1 1 1 1 1 1 1 1 1 1 3 1 4 1 9 3 1 4 4 2 1 34 16 42 1 101 1 1 1 1 1 3 12 1 1 3 4 1 12 1 3 3 3 1 1 15 6 1 1 2 1 4 1 1 3 1 1 1 1 1 1 1 1 1 1 1 1 2 9 3 2 4 1 1 2 1 1 1 1 1 1 1 1 6 2 1 1 1 1 1 1 4
73374 22 1 18 2 2 2 2 1 1 3 3 1 8 2 1 1 1 1 1 22 1 1 5 1 1 4 1 1 4 1 4 1 1 1 1 1 2 1 1 1 1 1 1 1 1 1 2 3 1 1 4 7 4 1 1 1 3 1 1 1 1 2 1 1 1 2 3 5 17 2 1 1 2 1 1 1 1 1 1 1 1 6 1 1 1 1 1 1 2 1 1 1 1 1 1 1 1 1 1
73612 1 1 2 1 1 1 1 1 1 1 1 1 1 4 4 1 1 1 1 1 22 10 1 1 1 1 1 1 2 1 1 1 1 1 1 1 1 1 1 1 1 2 1 1 1 1 1 1 1 2 1 1 1 1 3 1 1 1 1 1 1 1 1 2 1 5 2 1 1 1 1 1 1 2 27 4 1 14 1 1 3 1 1 4 1 43 13 81 1 1 8 7 17 1 1 5 1 33 1
74007 1 1 1 1 1 1 1 1 1 1 1 1 1 9 1 1 1 1 1 1 1 3 1 2 5 3 28 1 1 59 12 3 21 123 289 1 5 142 1 1 1 2 7 1 1 5 2 1 1 1 1 1 1 1 1 1 1 1 13 1 2 1 13 15 1 1 2 1 2 1 2 1 1 1 1 2 1 3 1 2 1 1 1 1 1 1 1 1 3 1 1 3 2 5 1 1 1 1 1
74865 2 1 2 2 3 4 1 2 5 1 1 1 3 1 4 1 2 22 6 32 1 1 1 2 1 1 1 1 1 1 1 1 1 4 1 8 1 1 1 4 8 3 1 1 1 1 1 1 1 1 1 1 1 1 1 1 5 1 3 1 1 3 1 1 1 1 2 2 1 4 1 11 1 2 1 1 2 1 1 2 6 3 2 2 2 1 1 1 1 1 1 1 2 1 1 1 1 2 1
75103 6 1 1 1 1 1 1 1 1 3 1 1 9 5 2 2 7 18 1 1 1 1 1 1 5 1 1 4 1 1 1 2 1 3 1 1 1 1 1 1 2 1 1 1 1 7 1 4 1 1 1 1 6 2 1 1 1 2 4 2 1 1 4 8 1 2 8 25 1 4 1 2 2 17 6 1 2 4 11 4 3 1 2 46 1 2 1 1 3 2 4 1 1 1 4 2 2 2 2
75426 1 1 3 2 1 1 3 1 2 1 1 1 3 2 1 1 5 7 1 1 1 1 1 1 1 1 7 1 1 1 1 3 2 14 1 1 1 1 1 3 2 11 1 8 15 2 1 1 1 2 2 1 10 2 2 1 1 2 1 1 5 3 1 1 1 1 1 1 1 3 2 1 1 1 1 1 1 1 2 14 1 1 8 29 2 2 1 3 3 1 1 2 1 2 1 4 1 2 1
75687 1 1 1 1 1 7 2 2 1 2 2 4 1 4 4 4 2 8 1 1 1 17 1 1 1 4 1 1 14 1 1 1 1 1 1 9 1 1 1 1 1 1 1 1 1 1 1 1 1 1 1 1 2 1 2 1 4 8 1 8 1 3 2 2 1 3 1 1 6 1 2 1 1 1 1 3 1 2 3 1 1 1 1 8 1 2 1 1 1 1 29 10 2 2 3 1 1 36 1
75978 8 1 14 1 2 12 4 7 1 1 5 4 1 13 20 1 1 1 1 1 1 1 4 1 2 1 4 2 1 1 1 1 1 7 5 1 1 1 1 6 8 15 10 1 4 3 10 5 11 1 1 1 1 1 4 1 1 12 60 8 153 1 1 2 1 4 6 1 1 1 1 4 1 1 1 1 1 1 6 1 2 4 35 1 1 1 1 1 1 1 1 1 1 1 1 2 1 3 1
76528 2 6 1 1 1 1 1 3 1 1 1 1 2 1 1 1 13 4 1 1 1 28 8 3 1 1 1 1 30 7 1 1 4 2 19 11 3 1 2 1 15 1 2 1 1 1 1 1 1 4 2 2 1 1 1 3 1 1 2 12 22 1 2 3 15 1 5 3 3 1 7 1 2 2 1 5 1 1 1 2 2 1 1 1 1 1 1 3 5 1 2 1 2 2 1 5 2 4 6
76874 1 1 4 2 1 1 1 1 1 1 1 1 1 2 1 1 1 3 9 1 8 4 1 1 1 1 1 2 1 1 1 1 2 1 1 1 1 1 2 6 8 1 22 17 55 1 4 80 1 7 148 3 1 7 24 3 1 2 12 9 4 4 4 8 1 1 1 1 1 2 1 13 1 1 17 67 1 1 2 187 113 35 37 2 3 17 2 1 262 211 2 66 2 61 68 1 72 2 1
78630 1 3 3 1 1 422 50 8 1 4 18 88 11 1 1 5 1 1 2 41 1 3 83 2 62 1 16 12 1 9 6 1 2 1 2 1 1 1 1 29 1 2 1 5 1 19 1 1 1 1 1 1 15 215 556 1 485
