80894 2 1 3 1 1 2 1 1 6 2 1 1 2 2 2 1 2 1 1 1 2 1 3 5 2 1 1 2 2 2 1 1 1 1 2 1 1 1 2 2 1 1 1 3 5 2 1 3 1 1 1 1 2 2 1 1 2 2 4 1 6 1 7 14 1 1 1 3 4 1 1 1 1 5 8 1 1 3 4 1 1 2 1 3 1 2 1 1 2 3 1 1 1 2 1 4 5 2 4
81102 1 1 1 2 1 1 1 1 1 4 1 1 3 1 1 1 2 1 1 1 1 1 1 1 1 4 1 4 1 5 6 1 1 10 2 7 15 1 1 1 4 5 3 3 1 2 1 1 7 5 20 1 1 2 1 7 5 3 7 1 2 1 1 2 1 1 20 1 1 1 1 5 2 5 1 1 2 1 2 1 1 2 2 4 6 1 1 1 2 4 1 1 1 2 3 6 1 3 2
81372 1 1 1 1 2 5 1 1 1 4 1 1 1 1 3 1 4 7 4 6 1 3 3 1 2 1 1 1 2 18 2 1 2 1 1 2 1 1 1 1 3 1 3 4 1 4 1 4 3 1 3 1 1 1 1 1 1 1 1 3 1 2 1 1 1 2 3 1 1 2 1 1 2 1 1 1 1 1 2 1 3 2 1 2 1 3 1 2 1 3 2 1 9 1 1 10 2 7 15
81599 1 1 7 5 3 7 1 2 1 1 7 5 20 1 1 2 1 7 5 3 7 2 2 1 1 2 1 1 20 1 1 1 1 5 2 5 1 2 2 1 3 1 1 1 2 2 4 6 1 1 1 2 4 1 1 1 2 3 6 1 5 2 2 1 1 1 1 1 2 6 1 1 1 4 1 1 1 1 3 1 7 7 8 6 1 8 8 1 2 1 1 1 2 20 2 1 3 4 1
81909 1 1 1 1 1 1 1 1 1 1 3 1 3 4 1 4 1 4 3 1 3 3 1 3 1 1 1 1 1 3 3 1 1 1 1 1 2 1 1 1 2 5 4 1 9 1 4 3 1 1 1 1 1 1 1 1 1 1 1 1 2 2 1 1 1 1 3 2 1 2 1 3 2 3 1 1 2 3 2 1 5 1 5 1 1 7 2 7 21 1 1 1 1 7 6 3 3 1 3
82130 1 2 2 1 1 7 13 1 3 1 8 8 3 7 3 2 1 1 3 1 1 1 2 1 4 7 6 3 1 1 3 1 5 2 1 1 1 3 2 15 13 11 1 5 2 1 1 1 1 1 1 1 1 1 3 11 1 5 4 2 6 4 1 1 1 1 1 1 1 1 1 1 1 2 2 1 1 1 1 2 3 2 1 2 1 1 2 1 1 1 1 5 2 3 1 1 1 2 1
82391 1 3 1 4 1 2 2 1 2 2 1 2 1 1 1 2 3 7 1 1 1 11 2 7 21 1 1 1 1 10 6 3 7 1 3 2 1 2 2 1 1 13 1 2 8 3 6 3 2 2 2 1 4 1 2 1 1 3 9 3 8 7 5 2 2 1 2 1 1 1 1 2 2 2 22 15 1 4 2 1 1 1 1 1 17 11 1 6 4 2 1 7 1 3 2 1 1 1 1
82728 1 1 1 1 1 1 3 3 1 1 3 2 1 2 1 1 1 1 1 1 2 4 4 2 4 1 1 1 1 1 1 1 1 1 1 1 17 9 3 1 1 4 4 4 1 1 1 1 1 1 1 3 1 5 1 2 1 3 2 3 1 1 2 1 1 3 2 1 1 1 2 6 1 7 1 5 6 1 3 4 1 1 1 1 8 2 15 12 1 12 2 3 5 1 1 2 1 1 7
82983 10 1 1 3 4 1 1 2 1 2 1 49 62 1 22 55 5 111 1 1 1 4 3 21 36 1 6 1 1 3 1 1 1 1 3 1 1 1 1 2 1 1 1 1 1 1 47 5 39 27 22 1 5 57 12 4 3 3 3 22 18 50 2 2 1 1 3 4 1 2 1 5 1 1 6 2 1 1 2 1 3 1 1 1 1 1 1 1 1 2 1 1 1 2 2 1 2 1 3
83796 2 2 1 2 7 20 3 1 1 2 1 2 1 1 2 2 5 1 1 12 1 10 15 1 1 1 1 1 1 1 1 1 2 1 1 3 1 1 1 1 1 1 2 1 4 5 1 3 4 1 1 1 1 1 4 5 3 4 1 1 1 1 21 38 2 12 38 1 1 3 1 1 3 1 1 1 3 1 1 1 1 1 2 1 1 1 1 1 1 2 2 2 1 1 1 1 4 1 1
84118 1 1 4 1 1 1 4 1 1 1 1 1 4 4 1 27 1 1 1 19 2 1 2 2 1 1 1 1 1 10 1 1 1 1 1 1 1 1 1 1 1 1 1 1 1 1 1 1 1 1 1 1 4 1 1 1 1 1 1 1 1 1 1 1 3 1 1 1 4 1 1 1 1 2 1 1 3 1 1 1 1 1 1 2 1 1 1 1 1 1 1 4 1 4 1 2 1 5 1
84309 1 2 1 1 1 1 1 5 4 1 2 1 1 16 1 1 8 2 5 8 1 4 5 3 1 2 1 1 8 3 21 13 1 21 2 1 8 6 11 8 1 2 1 1 1 7 3 11 2 1 7 5 7 2 2 1 1 2 1 1 8 4 7 1 5 2 5 3 1 4 1 1 1 1 1 64 110 4 85 35 52 26 1 7 69 8 57 194 1 1 1 5 4 6 5 1 42 40 41
85464 21 2 5 25 3 3 2 1 5 3 1 8 1 1 2 3 1 1 1 1 1 1 1 1 1 1 1 72 7 62 61 34 48 1 9 76 6 209 1 1 25 5 7 3 5 1 59 61 49 11 24 6 5 60 3 8 2 1 5 3 1 8 3 2 1 1 3 3 1 1 1 1 1 1 1 3 1 1 8 1 3 4 5 1 3 4 1 1 1 1 1 16 2 16 18 2 8 1 7
86633 2 1 2 3 1 1 76 43 59 46 4 105 7 23 17 1 7 5 2 1 39 41 49 5 2 7 6 25 2 3 5 1 14 2 4 2 1 1 7 2 3 5 2 1 2 1 1 1 1 2 1 1 1 1 11 1 8 1 5 1 2 1 5 2 2 2 2 1 2 3 1 2 1 1 2 1 2 2 1 2 1 1 155 1 1 1 1 24 4 4 34 12 45 2 2 2 4 1 1
87642 2 1 4 10 1 3 1 1 1 9 1 1 1 2 1 1 1 2 1 1 1 1 1 1 25 3 4 18 33 40 1 2 2 5 1 1 1 2 2 6 1 1 1 13 1 9 19 1 2 1 1 1 1 2 1 1 1 2 4 1 1 1 1 1 29 20 10 30 7 3 64 1 6 4 1 2 7 5 1 1 1 2 13 2 1 7 1 2 15 1 1 1 2 1 1 6 1 1 3
88159 1 1 1 1 1 1 1 1 1 10 26 4 8 49 1 5 4 1 1 7 5 1 1 1 3 13 2 1 2 16 1 3 1 1 30 1 1 1 1 6 2 7 8 1 1 1 3 1 1 3 1 1 1 1 2 2 2 1 1 2 1 1 3 2 1 2 1 4 7 1 2 1 1 2 4 7 4 6 2 3 3 1 2 1 1 1 8 8 8 6 2 8 8 1 2 1 1 1 7
88544 2 1 35 39 61 31 40 45 3 1 2 2 6 21 2 6 27 1 3 4 1 5 4 1 8 1 3 3 1 1 1 1 1 1 1 1 1 1 1 3 2 3 1 6 2 1 1 1 6 1 3 2 1 1 1 30 119 2 6 2 13 3 2 1 2 6 1 3 12 2 1 3 2 1 12 1 1 2 1 1 3 1 1 1 1 1 1 1 1 1 1 1 1 1 1 6 6 10 6
89238 2 7 1 6 6 1 4 32 15 2 5 2 3 28 4 1 18 14 1 1 3 5 3 8 9 2 3 1 2 10 1 1 1 1 1 1 1 1 1 1 1 1 1 1 1 1 1 1 1 1 1 1 1 2 2 11 7 1 3 1 3 3 1 2 1 1 1 2 1 3 3 4 1 2 1 1 1 2 2 2 1 2 1 1 2 1 1 1 1 1 7 1 3 4 1 3 1 1 3
89561 1 1 1 1 1 1 1 1 1 1 3 2 2 5 13 2 3 8 1 3 19 4 1 4 2 1 14 1 3 3 1 1 10 1 1 1 1 1 1 1 1 1 1 1 1 1 1 1 1 1 1 1 1 1 1 1 2 2 1 1 1 3 3 1 1 2 1 1 1 2 1 1 1 1 1 1 1 1 1 2 1 1 3 2 1 1 1 2 2 1 1 1 3 1 1 6 3 1 6
89774 1 1 1 3 3 1 1 1 1 1 1 1 1 2 1 1 1 1 1 1 3 1 2 2 2 1 2 2 1 2 9 1 1 1 1 1 1 1 1 1 1 2 1 1 3 1 2 1 2 1 1 1 3 1 1 1 1 1 1 1 1 1 1 2 4 2 1 1 2 1 2 2 1 1 1 1 16 1 1 8 2 5 8 1 7 5 7 1 2 1 1 7 19 1 19 2 2 8 10
90028 2 2 1 1 8 4 7 1 5 2 5 3 1 4 1 1 1 1 1 71 66 88 35 55 27 1 7 76 8 57 205 1 1 1 5 4 6 5 1 59 58 45 11 28 6 5 62 3 8 2 1 5 3 1 11 2 1 1 2 3 1 1 1 1 1 1 1 1 3 1 1 16 2 16 9 9 1 7 4 2 1 2 4 2 1 1 61 57 4 86 21 1 6 2 1 39 52 8 12
91602 2 9 3 1 10 2 5 2 1 8 3 1 1 2 1 4 1 1 1 2 1 2 3 1 2 1 1 92 1 1 24 4 4 37 12 47 2 2 2 4 1 2 2 2 1 9 12 1 3 1 1 1 16 3 1 1 1 2 1 1 1 1 2 1 1 1 1 1 1 19 14 10 32 10 3 68 1 6 6 1 3 7 5 1 1 1 2 15 2 1 13 1 2 27 1 1 1 1 2
92235 1 13 3 1 1 3 1 1 3 1 1 7 1 1 1 1 2 2 2 1 4 1 1 3 1 4 1 7 2 1 3 4 8 7 8 6 2 8 8 1 2 1 1 1 7 2 3 1 36 57 43 47 6 5 6 47 7 50 1 8 8 1 4 4 9 2 1 1 1 3 1 3 1 1 1 7 3 2 1 1 1 1 21 76 6 10 6 15 3 6 1 6 6 1 6 26 12 1 3
92958 2 29 3 1 4 4 1 1 3 2 3 1 7 1 3 1 1 5 1 1 1 1 1 1 1 1 1 1 1 1 1 1 1 1 1 2 6 4 2 12 18 1 5 5 3 7 7 1 2 1 1 2 1 2 1 7 8 7 1 2 1 1 4 6 1 3 4 1 3 1 1 1 1 1 1 1 1 1 1 1 1 1 6 4 2 2 5 51 38 4 1 1 1 8 2 8 5 27 14
93372 4 29 4 1 3 5 4 4 1 1 1 1 3 3 4 1 1 1 1 1 1 1 1 2 1 1 1 1 1 2 1 1 1 1 1 1 1 1 1 1 2 1 1 1 1 4 2 7 1 4 5 8 1 1 1 1 1 1 1 1 1 1 1 1 1 1 1 1 2 2 1 1 1 3 2 1 1 1 2 1 1 5 3 6 4 2 1 1 1 1 3 1 2 3 1 1 1 1 3
93581 2 2 2 10 1 1 1 1 1 2 2 1 1 2 1 1 1 1 1 1 1 1 1 4 2 1 1 1 2 1 1 2 1 1 1 1 1 1 1 1 1 1 1 3 7 6 1 1 9 2 5 9 4 8 1 4 5 3 1 1 2 1 1 9 4 21 17 1 22 14 28 2 1 1 10 7 13 12 9 5 4 1 2 1 1 1 1 7 4 11 3 10 2 1 7 5 7 1 1
93967 1 1 2 1 1 1 8 122 110 3 45 6 84 10 205 1 1 1 3 7 1 76 57 24 18 49 12 25 3 2 11 4 2 1 5 4 2 2 1 2 2 1 2 1 1 1 1 1 6 138 133 8 77 77 56 81 2 13 91 6 316 1 1 35 6 8 3 7 1 91 93 73 23 29 32 47 93 16 55 5 2 14 5 2 1 8 6 3 2 1 4 6 1 1 2 2 1 2 2
96581 6 1 2 1 1 1 1 5 8 9 2 3 4 7 4 5 3 1 2 1 1 1 3 20 6 29 2 1 17 1 14 9 11 8 1 2 1 5 4 2 1 1 8 1 5 1 5 1 1 1 2 2 1 1 57 40 66 298 1 1 1 1 7 37 29 11 2 62 16 65 56 29 7 6 3 33 3 1 7 2 2 15 4 2 2 7 5 1 1 1 3 20 2 10 1 7 1 2 2
97747 1 1 1 1 1 3 1 3 1 1 1 1 1 1 1 1 73 149 1 37 7 36 33 12 2 79 16 71 72 32 12 8 3 62 8 2 7 1 2 15 4 2 7 5 1 1 2 1 22 2 3 16 2 1 2 1 1 3 3 1 1 1 1 1 3 3 1 2 3 1 1 1 1 1 1 2 2 4 1 5 1 1 1 2 1 2 1 1 15 39 28 1 17 63 30 73 50 5 5
98965 30 3 1 1 2 2 8 5 1 1 18 4 14 1 3 5 1 1 1 17 2 8 22 1 1 1 3 1 1 9 7 1 1 3 3 1 3 1 1 1 1 1 1 2 8 8 6 4 4 1 2 3 1 1 2 25 37 1 3 13 3 3 69 75 14 5 3 36 9 3 38 6 2 8 1 2 1 1 3 8 7 1 2 1 1 7 2 1 1 16 1 7 1 3 6 1 1 1 1
99631 1 2 1 1 2 1 2 1 2 1 1 1 1 7 5 4 4 4 6 1 4 1 3 1 1 2 1 5 11 68 10 4 27 3 1 4 4 2 1 1 3 28 7 14 2 2 1 1 9 1 8 4 1 2 2 1 3 1 2 1 1 1 1 6 1 4 1 1 1 1 5 1 3 2 1 1 1 1 3 1 8 3 2 2 11 2 1 2 1 66 64 87 77 2 2 15 47 18 51
100427 28 30 2 11 4 2 6 6 1 1 1 1 2 1 2 1 1 1 1 1 1 1 9 2 5 1 1 19 3 8 3 2 1 1 1 1 178 132 47 15 97 23 23 1 6 6 1 2 18 5 1 2 7 7 1 2 29 2 2 12 2 1 4 6 1 1 1 1 1 1 5 1 1 1 2 2 2 1 1 2 1 1 1 1 1 1 1 1 7 14 4 1 2 59 88 20 46 21 4
101523 1 1 1 7 7 1 25 16 4 10 4 48 7 1 2 23 7 1 1 4 3 5 2 1 3 4 1 7 1 1 7 1 2 2 1 1 1 1 2 2 1 1 1 1 1 1 1 1 1 1 1 1 1 1 1 7 3 11 1 1 4 1 1 1 1 4 15 13 1 1 13 2 1 8 2 2 1 1 1 4 3 2 21 22 1 5 2 1 1 1 1 1 1 1 1 1 1 6 20
101980 16 2 2 1 5 4 2 3 1 1 1 1 1 1 1 1 1 1 1 2 1 1 1 4 14 38 5 2 4 10 1 1 3 2 8 1 1 2 2 1 1 3 1 1 1 1 1 1 1 1 1 1 1 1 1 1 13 15 36 15 3 2 1 65 153 5 2 1 1 17 4 6 1 3 20 4 1 3 9 6 1 2 23 2 3 13 4 1 4 4 1 1 1 1 1 2 4 3 1
102607 1 1 3 2 1 3 1 2 1 1 1 1 1 1 1 1 1 1 1 1 1 1 1 5 14 13 1 1 17 7 1 1 1 1 7 2 1 1 1 1 1 1 3 17 1 3 3 1 2 1 1 1 1 1 1 1 2 1 2 8 1 21 2 42 7 3 7 14 4 1 3 2 20 1 1 6 5 3 1 1 2 1 1 1 1 1 2 1 3 2 1 2 1 2 1 1 1 1 1
102935 2 2 1 1 1 1 1 1 3 1 5 3 2 4 1 1 2 1 1 1 1 4 3 1 1 1 1 1 2 4 1 2 1 1 1 3 13 2 8 2 1 1 8 4 3 1 1 1 1 1 1 2 1 1 2 1 1 1 1 1 1 2 1 2 1 3 1 1 1 1 2 1 1 2 2 15 1 3 1 4 2 4 8 1 1 1 1 2 1 1 1 1 1 1 1 4 3 1 1
103140 1 1 1 1 2 1 1 1 1 1 1 1 4 1 4 1 2 4 1 1 1 1 1 2 2 1 1 2 1 1 1 1 1 1 1 1 1 1 1 1 1 2 4 1 2 1 1 2 1 1 1 1 2 1 1 2 1 1 1 1 1 1 1 1 1 1 3 2 1 1 1 1 1 4 3 13 1 1 9 2 6 9 2 6 6 3 1 4 1 1 2 1 1 8 24 16 1 12 13
103396 5 7 3 1 5 2 3 1 1 87 64 48 128 1 115 56 31 29 39 16 28 1 9 2 31 10 2 1 13 6 2 1 11 1 4 2 1 1 3 1 2 2 1 1 2 1 1 1 1 2 1 1 1 1 2 4 3 1 37 72 9 1 6 11 1 3 1 1 99 3 113 88 16 11 83 18 105 121 2 1 1 34 3 78 11 3 2 52 2 2 4 1 1 1 7 17 24 2 1
105253 1 1 3 3 2 3 8 2 4 4 4 1 3 2 1 3 2 2 1 1 1 1 2 5 9 11 8 2 1 8 1 1 1 1 2 1 5 45 4 1 1 1 30 42 88 2 1 20 2 45 86 53 4 1 1 79 14 1 1 1 6 2 20 1 2 8 1 1 1 4 2 1 4 2 4 1 2 5 1 1 1 2 3 2 1 1 1 1 1 2 27 5 1 1 1 1 1 1 5
106032 98 4 59 7 2 1 1 2 3 28 2 3 3 1 5 1 1 5 1 1 4 1 1 1 4 2 2 2 1 1 2 1 1 3 1 2 1 1 1 1 2 3 28 6 1 4 1 3 1 2 1 3 1 2 3 1 1 1 17 6 4 1 3 1 9 1 1 1 1 4 1 1 1 1 2 1 2 1 1 2 2 1 6 1 2 1 1 3 1 2 21 1 3 1 4 1 1 1 1
106475 1 1 1 1 1 1 1 1 2 1 1 1 1 2 2 3 1 1 1 1 1 3 1 1 1 1 1 3 1 1 1 1 2 1 1 1 3 1 1 1 4 1 1 13 1 5 4 1 1 1 1 8 2 7 6 5 3 5 1 1 2 1 1 8 2 10 6 12 3 5 1 1 2 1 1 6 8 1 1 1 2 4 62 42 1 21 4 35 53 2 2 6 3 21 36 1 3 1 1
106972 4 1 1 1 3 1 1 1 1 2 1 1 1 1 1 106 115 4 67 34 40 28 1 121 161 142 19 18 1 9 13 107 1 2 3 25 20 51 7 9 1 5 4 1 2 1 5 3 1 8 1 2 1 3 1 1 1 1 1 2 1 1 1 1 1 66 65 4 60 32 33 28 1 37 3 95 8 3 6 1 6 3 22 18 45 2 1 4 4 1 1 5 2 1 8 3 2 1 1
108721 1 3 1 1 1 1 1 1 1 4 6 6 1 4 5 1 1 1 1 84 63 3 62 138 19 34 5 1 4 26 54 2 1 1 1 5 1 3 1 10 3 2 4 2 5 1 2 2 2 1 1 1 1 1 6 7 7 2 5 4 1 1 2 1 1 487 943 7 16 190 452 53 752 1 1 1 28 3 24 22 183 211 1 12 49 2 2 5 1 1 6 31 1 4 1 1 3 6 1
112847 3 3 1 18 1 1 1 2 1 2 1 1 1 8 1 1 1 1 1 1 1 1 1 1 1 1 1 1 1 2 1 1 1 1 1 1 1 1 1 691 36 346 36 13 342 326 287 10 16 21 8 484 117 32 14 27 3 24 23 25 290 26 161 390 14 8 12 15 2 1 7 5 1 1 8 8 43 34 1 2 1 1 3 3 15 1 1 5 6 1 4 37 7 1 3 4 3 29 2
116960 4 1 1 1 7 4 1 1 19 1 1 1 2 1 1 1 1 2 2 1 4 1 1 1 1 1 1 1 1 1 1 1 1 1 1 2 2 1 1 1 1 1 1 1 1 1 2 1 6 1 1 1 1 1 1 1 4 1 2 1 1 1 1 1 1 1 1 1 2 21 8 3 3 1 1 1 1 3 1 3 1 13 1 3 5 2 2 10 1 13 2 1 1 8 1 1 1 1 1
117193 1 1 1 1 1 2 2 2 7 23 24 5 21 51 166 30 1 2 5 14 1 2 5 14 3 1 2 2 1 1 2 2 2 5 13 14 14 3 11 13 1 3 31 1 1 1 1 1 73 1 49 7 5 49 1 1 14 1 1 1 1 1 1 1 1 3 1 1 1 1 1 1 1 1 1 1 1 1 1 1 1 1 1 21 2 1 2 1 1 21 2 1 1 2 1 1 1 1 1
117993 1 1 1 1 2 2 1 1 1 1 1 1 1 1 1 1 4 5 1 3 4 1 1 1 1 1 4 5 3 4 1 1 1 1 4 6 3 4 1 1 1 2 1 4 22 43 2 4 1 2 2 23 42 1 3 1 1 4 1 1 1 3 1 1 1 1 3 1 1 1 1 1 2 1 1 1 1 1 1 1 21 18 50 3 22 16 46 2 4 4 1 1 3 3 1 1 1 3 1
118460 4 1 1 1 1 2 1 1 1 1 1 1 1 1 2 1 1 2 1 1 1 152 230 2 11 2 85 226 2 1 7 37 1 1 1 5 1 1 1 5 27 1 1 1 3 1 1 3 1 3 3 1 19 1 1 1 2 1 2 1 1 2 1 1 1 1 9 1 1 1 1 1 1 1 1 1 1 1 1 1 1 1 1 1 1 1 1 1 1 1 1 1 1 1 1 2 2 2 2
119386 1 4 1 3 3 12 17 1 2 2 1 2 1 1 1 3 1 1 1 1 1 1 1 1 4 4 33 4 4 39 4 4 4 36 4 4 4 34 4 4 4 29 1 4 4 5 1 28 35 4 2 131 2 1 8 1 62 11 2 1 17 11 2 1 2 2 1 1 1 2 2 1 1 1 1 29 4 1 1 4 1 1 1 1 1 1 1 1 1 2 1 1 1 1 1 1 1 1 1
120081 1 1 1 1 1 1 1 1 1 1 1 1 1 4 5 10 1 1 2 1 1 1 4 7 1 1 1 1 1 1 1 1 1 1 1 1 2 1 1 1 1 1 1 1 1 1 1 1 1 1 1 1 1 1 1 1 1 1 1 2 1 1 1 2 1 1 1 2 1 4 1 1 3 1 1 1 3 1 1 1 1 1 2 1 1 1 1 1 1 2 1 1 1 1 1 2 1 1 1
120221 2 4 1 4 1 1 3 1 1 1 3 1 1 1 1 1 2 1 1 1 1 1 1 5 1 1 2 2 1 1 1 1 1 1 1 17 1 3 1 3 3 1 21 1 1 1 2 1 2 1 1 2 1 1 1 2 1 1 1 1 1 7 1 1 1 1 1 1 1 1 1 1 1 1 1 1 1 1 1 1 1 1 1 1 1 1 1 1 1 1 1 1 1 1 1 2 1 2 1
120394 1 3 1 1 1 1 1 2 1 1 1 1 1 1 1 3 1 2 1 2 2 1 1 3 3 1 1 1 1 2 1 1 1 1 1 4 1 1 2 1 1 1 1 2 1 1 1 1 1 2 1 2 15 1 1 1 2 1 1 2 8 1 1 1 1 1 1 1 1 1 1 1 1 1 1 1 1 1 1 1 1 1 1 1 1 4 1 3 1 1 1 1 2 1 1 1 1 2 3
120549 1 1 1 2 1 1 1 2 1 1 3 1 1 1 1 1 1 1 1 1 1 2 1 1 1 7 1 14 1 2 1 1 22 2 11 6 12 7 1 2 1 1 7 10 8 12 7 2 2 1 6 80 88 4 67 33 36 24 1 5 47 34 90 4 2 7 9 39 43 51 9 9 11 44 4 1 5 3 1 8 1 1 2 3 1 1 1 1 1 1 1 1 1 6 155 159 5 70 43
121981 34 1 198 236 172 27 22 19 19 231 1 1 2 87 71 69 17 8 93 12 10 13 103 11 9 3 1 5 4 1 11 2 1 3 3 1 1 1 1 4 1 1 1 1 1 3 1 1 1 5 89 91 5 60 43 32 32 1 61 4 110 18 4 7 2 9 58 77 43 15 13 11 103 8 1 5 3 1 8 3 2 1 1 3 3 1 1 1 1 1 3 1 1 9 7 7 2 7 5
124485 4 5 1 2 1 1 1 7 104 118 5 112 44 90 38 2 239 32 79 158 20 18 135 1 16 2 43 51 63 30 13 50 8 3 1 14 4 2 1 9 2 3 5 2 1 1 4 1 1 1 1 1 1 2 1 1 1 1 6 116 116 6 73 86 43 89 2 26 242 172 50 18 130 1 10 13 1 61 74 53 36 13 87 14 3 1 15 5 2 1 12 3 1 4 6 1 1 3 1
127640 1 1 1 1 5 1 1 1 1 8 8 7 2 5 6 6 3 5 1 1 2 1 1 9 11 7 2 11 12 6 5 5 1 2 1 1 1 6 94 105 5 67 43 40 38 2 160 16 11 1 2 8 7 1 42 43 47 10 14 40 5 1 17 2 7 2 2 1 1 8 2 3 5 1 1 1 1 1 2 1 1 1 1 12 8 7 2 13 10 6 5 5 1 1 2 1 1 84 43
128907 3 56 22 35 13 50 3 3 24 4 41 1 1 3 1 1 1 4 1 1 1 1 1 3 3 1 1 1 1 1 1 1 2 1 1 1 1 1 1186 2018 39 121 1494 50 31 14 763 329 761 399 15 30 64 1036 94 32 73 2 498 1792 1 1 1 80 26 56 2 41 45 64 623 431 447 88 79 169 18 29 42 105 330 6 28 2 5 33 19 3 1 7 7 1 4 40 12 1 3 5 3
142936 4 1 1 4 7 20 1 2 2 1 1 1 3 3 1 1 5 2 1 1 2 3 1 1 1 1 1 1 3 3 2 7 1 1 1 1 2 1 1 1 1 1 1 1 1 1 1 1 1249 69 100 1644 69 15 31 563 578 511 742 17 39 115 1180 50 78 30 2 1889 1 1 241 90 61 25 2 43 65 65 866 634 444 166 62 231 30 50 71 108 702 5 26 6 5 61 22 3 1 7 7
156114 4 47 14 1 3 4 5 41 3 9 13 1 2 1 1 1 1 15 17 1 1 3 3 2 5 2 1 1 1 2 4 1 1 1 1 1 1 1 3 4 2 19 1 1 1 1 3 1 1 1 1 1 1 1 2 1 1 1 1 57 1 56 22 16 32 50 3 3 6 22 41 1 1 3 1 1 1 4 1 1 1 1 1 1 4 1 2 1 1 1 1 1 2 1 1 1 1 1 146
156876 197 29 41 33 21 1 122 35 154 197 1 99 6 16 28 8 52 7 10 6 3 5 1 5 16 3 5 5 1 24 1 8 2 2 1 18 2 3 3 1 2 1 2 1 2 1 1 1 1 1 1133 107 63 58 1030 629 830 709 39 610 42 476 423 50 18 15 20 22 38 34 5 1374 72 282 246 18 49 43 16 4 22 20 2 59 49 20 2 44 63 633 506 586 691 194 32 22 62 33 43
169714 47 129 488 9 22 3 6 31 53 52 4 4 10 12 1 8 74 16 1 9 12 10 1 8 79 7 23 8 1 3 1 1 7 47 9 1 26 31 2 1 2 3 4 8 3 6 3 1 1 1 1 1 9 1 1 1 4 1 1 1 2 2 1 1 4 4 6 1 5 12 1 1 1 3 1 1 1 2 1 2 1 2 1 1 1 1 1 1 1 1 1 1 1 1 1 1 1 2 108
171221 14 1 77 2 9 9 26 41 6 8 3 1 5 1 6 17 1 4 1 6 7 2 2 1 25 1 15 2 1 13 9 1 1 1 1 1 1 1 1 1 1 2 7 17 12 1 2 8 3 12 25 3 2 2 6 2 1 3 1 1 10 2 1 2 1 1 1 2 3 1 1 1 1 1 1 8 14 9 1 8 11 18 2 2 1 1 6 2 1 3 1 1 9 2 1 2 1 2 1
171794 1 1 1 1 20 19 20 16 47 2 1 2 6 5 7 3 15 7 2 1 1 15 3 1 10 1 3 4 1 1 4 1 1 1 2 1 2 1 19 19 24 15 39 1 2 1 3 7 1 14 6 2 1 1 23 3 1 11 2 9 6 1 1 2 1 5 1 4 1 2 1 3 2 1 3 1 1038 1 1 1 1 210 4 38 39 36 301 100 269 12 2 2 13 13 42 2 5 1 2
174398 2 1 4 10 14 4 4 9 3 1 1 23 53 1 16 1 1 1 1 1 5 3 33 4 1 1 1 1 13 1 1 1 2 1 1 1 10 1 1 1 1 1 1 1 1 1 1 1 1 1 1 1 1 1 1 3 1 1 1 1 1 1 1 1 1 1 1 213 3 41 41 45 144 281 253 15 1 2 15 16 41 1 6 1 1 2 2 2 4 14 13 10 3 12 9 1 3 38 1
175896 1 1 1 72 1 31 4 6 51 1 1 18 1 1 1 2 1 1 1 1 1 9 1 1 1 1 1 1 1 1 1 1 1 1 1 1 1 1 1 1 12 13 1 1 1 1 1 3 2 1 1 1 1 1 1 1 1 1 1 1 236 308 11 31 33 31 89 358 91 18 521 21 5 17 6 3 69 54 2 7 16 2 6 7 1 1 13 19 1 7 15 1 7 1 13 63 17 1 1
178271 1 4 12 85 10 1 10 32 7 2 7 2 5 2 3 91 2 1 6 1 1 1 1 1 15 1 3 1 1 1 1 32 8 1 7 21 2 1 4 1 3 5 3 1 2 2 2 1 12 1 1 1 2 1 1 1 1 1 1 1 1 1 1 1 1 1 1 1 1 1 1 1 1 1 1 1 12 26 29 31 91 368 47 76 425 19 5 15 5 8 60 36 2 7 9 1 7 6 1
180007 15 11 1 1 19 13 1 14 1 4 76 19 1 1 1 1 18 13 121 13 1 12 11 69 7 2 8 4 8 5 21 1 4 1 1 1 1 127 1 2 6 1 1 1 1 1 1 1 30 10 1 28 29 1 1 11 1 3 6 4 3 4 2 6 2 19 1 1 1 4 1 1 1 1 1 1 1 1 1 1 1 2 1 1 1 1 1 1 1 1 1 1 1 1 1 1 2 2 2
180868 1 2 2 2 2 2 1 2 2 2 12 1 3 3 2 10 1 1 1 2 1 1 1 1 1 1 1 1 1 1 12 34 11 10 8 2 4 2 2 14 5 2 1 1 10 7 27 5 2 8 5 20 11 1 1 1 22 1 1 1 28 2 11 3 5 11 1 3 2 1 2 1 4 1 1 1 1 1 1 1 1 1 9 8 9 9 7 10 13 9 1 2 1 1 1 1 2 41 46
181490 12 62 49 61 10 12 2 4 13 55 3 6 38 3 4 8 1 5 4 1 10 1 3 3 1 1 1 1 1 1 1 1 1 1 1 1 61 71 79 17 89 71 53 15 14 2 9 13 114 7 6 69 3 9 9 1 5 4 1 12 2 1 4 3 1 1 1 1 1 3 1 1 3 1 1 1 2 5 2 2 40 45 70 64 46 51 11 14 57 3 7 35 5 10 1 7 4 2 1
183124 1 3 3 1 1 1 1 1 1 1 1 1 1 1 1 1 7 3 1 1 1 84 9 1 3 3 10 15 1 1 1 2 1 1 1 479 401 525 102 403 428 434 70 9 34 33 38 123 447 21 25 18 46 272 1 2 7 2 7 34 15 5 51 2 8 8 1 4 41 15 1 3 5 4 40 4 1 13 18 1 1 4 4 1 1 1 3 3 3 8 3 3 2 7 1 1 1 2 1
187542 1 1 1 1 1 1 1 1 1 1 1 1 1 1 1 34 3 4 11 22 1 4 3 1 1 1 93 14 2 4 8 14 8 1 14 2 9 1 2 8 1 2 1 1 1 1 1 1 1 72 11 4 5 60 19 1 1 2 7 23 1 2 20 1 14 4 1 1 3 5 2 3 1 1 1 3 2 2 2 5 7 13 1 1 324 728 2 6 23 62 3 6 26 123 3 17 9 31 74
189572 6 6 1 3 14 37 4 3 14 3 4 2 19 79 1 1 17 9 3 1 1 51 5 1 20 1 21 2 1 1 1 2 1 1 1 1 1 1 5 1 3 2 8 1 3 1 4 1 3 2 9 1 2 1 1 1 1 1 1 1 1 1 1 1 1 1 1 1 1 1 1 1 1 1 1 1 1 1 1 39 13 7 51 90 8 6 56 125 6 21 41 49 20 363 124 11 3 1 1
191020 1 1 6 6 6 1 4 45 33 3 3 32 4 5 5 1 30 204 3 1 30 8 13 1 3 96 17 1 1 49 23 1 1 22 3 3 11 1 1 15 34 2 1 1 2 3 3 16 3 6 3 35 1 1 1 1 1 1 1 1 2 11 1 1 1 1 1 1 1 1 1 6 2 1 1 1 1 1 1 1 1 1 1 1 4 2 1 1 1 1 1 2 1 1 1 1 1 1 1
191893 1 1 1 1 1 1 1 1 1 1 1 1 1 1 1 1 1 1 1 1 1 1 1 1 1 1 1 1 1 1 1 16 3 11 7 20 48 15 1 1 1 43 129 3 1 1 1 10 32 29 42 3 47 2 1 1 21 9 4 9 4 1 1 1 1 1 1 1 1 1 4 13 52 2 6 34 4 8 1 5 4 1 8 1 3 3 1 1 1 1 1 1 1 1 1 1 2 2 5
192617 2 1 1 4 6 6 7 1 2 1 1 1 13 13 7 1 2 1 1 1 3 6 2 1 2 2 4 14 57 4 14 50 6 5 5 42 7 8 1 5 4 1 8 1 3 3 1 1 1 1 1 1 1 1 1 1 1 1 14 2 3 1 2 3 6 3 1 1 4 5 15 1 3 2 1 1 1 32 27 68 10 5 10 6 1 3 15 1 2 2 1 15 1 3 1 3 1 1 1
193238 1 1 1 1 1 1 1 1 1 1 1 1 1 1 1 1 1 1 34 8 214 84 2 2 1 1 32 20 2 1 1 1 5 6 42 2 6 6 1 3 23 16 1 3 2 2 22 3 1 8 4 1 4 4 1 1 1 1 1 1 1 1 4 1 5 1 2 2 3 1 1 8 1 1 1 1 1 1 1 1 2 1 1 1 1 2 1 1 1 1 1 1 1 1 1 1 1 1 1
193890 1 1 44 15 12 7 1 4 3 1 1 1 1 1 1 6 2 19 12 1 147 1 18 12 553 11 3 1 1 1 1 8 55 92 3 8 8 1 23 52 3 20 3 2 17 119 1 1 13 10 8 1 63 5 1 37 5 22 1 2 1 1 2 1 1 1 1 1 1 1 1 7 1 4 6 10 10 1 2 5 1 1 1 2 2 3 10 1 6 6 2 1 1 1 1 1 6 9 1
195472 1 1 1 1 1 2 2 1 1 2 1 1 1 1 1 1 1 3 1 1 1 2 3 1 1 1 1 1 1 1 1 1 1 1 1 1 1 1 1 1 1 1 1 1 1 1 1 1 1 1 1 1 1 1 1 1 1 1 1 1 1 2 2 1 1 1 3 1 4 1 1 1 1 1 1 2 1 6 1 3 3 1 4 1 2 1 1 1 1 1 1 1 2 1 1 1 1 2 15
195618 1 5 1 6 1 1 1 19 8 1 27 1 2 1 23 1 4 4 2 6 1 1 2 1 1 1 1 1 2 2 1 1 1 1 1 2 2 2 1 1 2 1 1 2 3 1 1 1 1 1 1 1 1 1 1 1 1 1 1 3 2 1 5 2 2 1 1 1 2 2 1 1 1 2 2 1 1 1 3 1 2 5 4 1 8 1 1 3 3 1 1 1 1 1 1 1 1 1 1
195857 1 2 5 4 1 8 4 2 1 1 3 3 1 1 1 1 3 1 1 3 1 1 1 2 1 2 1 2 5 2 3 2 1 6 1 2 3 1 2 1 1 1 1 1 1 2 1 2 2 1 1 1 2 1 2 1 1 6 1 1 1 1 1 1 1 1 3 1 1 1 1 1 1 1 38 1 9 1 3 1 3 3 2 3 35 4 1 1 1 1 13 15 2 2 1 1 1 1 2
196137 3 2 1 2 2 1 3 6 1 1 1 1 1 1 1 1 1 1 3 3 1 2 1 7 1 1 1 1 1 1 1 2 1 1 1 1 1 1 1 1 1 1 1 1 1 2 3 1 1 1 1 3 1 1 1 1 1 1 1 3 8 1 1 1 1 1 1 1 1 1 1 3 2 1 1 1 1 1 1 1 1 3 2 1 2 8 2 2 1 2 2 34 1 1 4 1 1 1 1
196329 1 1 1 1 1 1 1 1 1 1 1 3 1 1 2 5 1 1 1 1 1 1 1 2 1 1 1 1 1 1 1 1 1 1 1 1 1 1 1 1 1 1 4 1 1 3 3 1 2 9 1 1 1 1 1 3 1 1 1 3 1 1 1 1 1 1 1 3 1 1 1 1 2 1 1 1 1 1 1 1 1 1 1 1 1 1 1 1 1 1 1 1 1 1 1 2 1 4 1
196464 1 1 1 1 1 1 1 1 1 1 1 2 1 2 1 2 1 1 1 1 1 1 1 1 1 1 2 1 1 1 1 1 1 1 1 1 1 2 1 1 1 1 1 1 1 1 1 1 1 1 1 1 1 2 1 1 1 1 1 1 1 1 1 1 1 1 1 1 1 1 1 1 1 1 1 1 1 1 1 1 1 1 1 1 1 1 1 1 4 2 1 2 1 1 1 1 1 1 1
196581 6 11 19 100 85 3 45 4 51 101 2 2 11 181 165 89 108 86 2 6 2 11 5 2 1 5 4 2 2 1 1 2 1 5 1 1 1 1 7 183 75 68 2 159 273 27 22 27 213 1 1 204 201 150 40 145 134 58 117 2 7 5 2 10 8 2 10 4 1 1 1 7 2 1 1 2 2 5 2 1 8 1 1 1 1 5 102 105 4 6 63 84 36 39 118 37 26 3 5
200579 6 19 31 89 10 4 40 9 46 46 13 9 7 34 3 1 4 1 6 3 1 1 2 3 9 1 1 2 2 2 1 1 1 1 1 1 1 1 1 1 246 159 70 253 18 49 34 2 175 44 210 296 1 1 15 21 110 13 67 98 17 20 86 11 14 76 10 8 6 6 2 15 4 5 1 42 2 13 2 1 1 2 4 1 1 2 1 2 3 3 1 1 3 1 1 3 1 1 1
203251 1525 2143 64 1935 1809 28 812 76 1276 58 449 40 19 77 90 1475 152 61 1084 139 2690 1 1 24 98 39 63 30 78 1973 2512 1676 559 447 438 311 617 1150 178 56 254 51 90 649 1 89 2 47 9 2 10 13 1 57 26 3 10 7 90 9 1 2 7 10 20 19 3 8 2 1 1 4 5 4 1 5 4 3 1 2 13 8 1 1 2 1 3 7 7 17 1 7 4 1 5 8 23 2 2
231141 1 1 2 1 2 1 2 1 1 1 1 1 1 1 1 1 1 1 1 1 138 44 74 208 119 39 5 225 20 115 66 110 23 19 78 45 86 15 15 6 3 46 5 2 3 6 18 6 3 1 1 3 31 1 6 2 6 5 1 1 2 1 1 4 1 1 1 1 3 2 1 1 1 1 2 1 1 50 1302 79 742 43 1060 26 273 25 62 24 711 1296 192 92 262 457 35 74 47 81 75
239799 5 37 11 2 25 67 7 2 39 2 7 2 1 7 44 8 2 1 3 12 2 1 2 3 2 9 1 7 4 1 5 14 3 3 1 1 4 1 1 1 6 1 1 1 7 1 1 1 1 1 1 1 1 1 1 1 1 1 1 29 14 1 25 1 2 15 1 1 3 28 23 2 1 12 4 2 1 9 1 2 2 1 2 3 2 1 1 1 1 1 1 62 23 4 4 2 32 5 46
240552 2 1 5 1 1 1 2 2 3 4 9 1 2 9 1 1 1 2 1 1 1 2 1 1 1 1 1 1 493 346 1321 1 536 390 161 15 36 66 82 65 825 202 601 452 235 72 38 16 66 89 37 329 7 48 13 7 1 2 17 17 2 2 23 6 2 7 1 4 58 18 10 135 19 1 10 11 40 18 1 1 1 1 2 2 8 7 9 2 17 103 10 1 48 8 1 40 2 3 2
247850 1 1 1 1 1 1 3 1 7 1 1 1 1 3 4 4 5 3 10 4 5 1 8 8 1 1 1 3 2 1 1 1 1 1 1 1 1 2 1 1 1 2 1 1 1 1 1 1 1 1 1 1 1 29 20 62 12 79 8 26 6 4 14 2 14 7 2 1 10 1 37 4 13 8 9 1 44 2 25 2 1 6 14 3 15 3 1 4 1 1 3 1 4 1 1 1 1 1 1
248466 1 306 25 221 36 18 117 477 210 53 804 243 5 82 117 38 387 15 17 145 1 1 1 1 54 3 7 27 7 59 28 5 1 1 8 1 1 24 16 114 23 2 17 1 8 56 20 1 7 1 15 159 2 1 12 1 1 2 1 41 9 1 1 1 1 2 5 70 9 1 29 15 1 1 10 1 2 2 3 3 3 6 8 6 2 4 1 10 10 4 1 4 1 2 6 5 7 1 3
252766 1 14 1 2 1 1 3 1 1 1 2 2 2 1 1 2 2 1 1 2 1 1 3 1 1 1 1 1 1 1 1 1 1 1 1 1 1 1 21 37 4 6 1 1 4 13 2 1 6 1 6 1 1 21 1 1 1 1 2 3 2 3 1 1 1 1 1 1 1 1 10 1 92 14 6 24 34 3 1 7 4 18 17 2 1 2 1 8 2 1 28 15 1 17 2 7 4 5 1
253305 2 2 3 1 1 3 1 2 1 1 1 1 1 1 30 3 197 181 285 220 9 12 84 151 62 75 16 36 17 62 20 3 1 11 7 2 7 6 1 2 1 1 2 1 2 1 1 8 1 1 1 2 1 1 1 1 397 45 196 16 11 174 13 1 4 6 24 1 3 27 2 9 1 1 4 2 3 1 1 1 1 557 1735 849 1720 140 82 198 789 131 391 56 3 1 120 2 84 211 37
262910 1 98 6 1 9 1 1 17 4 1 11 29 30 4 7 45 10 1 1 5 3 2 2 9 2 7 4 7 3 8 1 6 4 2 2 1 1 6 24 2 2 1 1 2 2 2 3 14 1 3 1 1 1 1 2 2 2 2 2 1 1 3 1 2 1 1 1 1 1 1 1 1 1 1 1 1 1 1 7 21 5 9 4 1 1 136 24 12 17 171 58 32 32 23 3 83 16 2 8
264021 16 7 1 7 2 13 1 4 4 3 2 1 1 7 2 1 2 2 3 1 1 1 168 21 112 56 29 237 12 1 17 3 43 2 12 41 1 3 1 1 1 1 1 3 2 3 1 1 2 1 1 1 1329 113 218 820 213 158 1276 84 68 95 152 1239 1 1 1 248 10 1 1 78 34 15 113 248 111 8 1 1 1 32 105 594 123 18 133 16 7 1 4 2 1 1 1 1 6 2 23
272596 38 7 1 46 17 153 2 1 28 3 2 13 9 2 1 17 111 10 1 44 20 1 1 5 6 8 1 6 11 2 30 9 1 3 3 5 9 22 6 1 10 17 1 1 1 1 3 2 9 20 1 1 1 1 1 1 1 3 3 1 1 2 3 2 1 1 1 1 1 1 1 1 1 1 2 1 2 2 1 2 1 2 1 1 1 1 1 1 1 1 1 2 1 1 1 1 1 1 1
273381 1 1 1 1 1 1 1 1 1 1 22 14 73 19 170 1 1 1 30 2 15 34 24 2 1 20 72 38 126 3 1 1 239 31 2 30 10 46 18 55 1 1 9 36 6 7 1 4 3 3 1 2 11 4 2 2 4 2 6 2 2 2 11 1 2 1 1 1 2 1 1 1 1 1 1 1 1 1 1 1 1 1 1 6 4 1 32 8 6 8 8 4 3 1 1 1 1 1 1
274723 78 39 16 27 1 4 2 21 1 4 1 2 1 12 2 1 1 1 6 1 1 1 1 2 1 1 1 15 57 9 1 22 30 5 7 13 1 23 2 1 1 1 1 1 1 1 2 2 2 1 25 1 15 8 17 2 98 41 24 1 1 1 1 1 1 1 1 1 1 8 1 3 4 1 1 2 1 2 2 1 1 1 1 93 85 17 40 12 9 2 3 58 13 3 1 13 2 1 1
275775 1 2 6 1 2 1 2 1 6 1 2 2 1 3 1 1 1 2 18 24 10 13 1 1 335 223 25 25 2 96 170 90 9 1 1 23 5 13 15 2 1 20 46 3 2 1 1 1 57 168 1 1 2 3 2 23 1 4 1 2 32 2 12 3 1 1 1 1 2 2 1 2 1 1 4 2 3 13 1 1 1 2 2 5 1 1 1 1 1 1 2 1 1 1 2 3 4 1 2
277373 1 1 1 1 1 1 1 1 1 12 29 13 13 2 1 1 1 1 2 23 24 19 37 119 1 15 2 192 70 596 14 2 1 1 1 115 296 37 534 3 1 1 12 1 13 25 3 8 13 123 2 1 14 3 2 16 77 7 1 35 9 14 1 1 1 4 1 1 1 1 1 1 12 2 8 12 16 3 3 2 10 2 19 22 1 1 1 4 1 1 1 1 4 10 2 7 11 1 1
280112 9 3 1 1 2 14 1 6 1 1 2 2 1 1 1 2 1 1 2 1 1 1 5 1 2 1 1 1 4 9 2 2 3 1 1 1 1 4 1 1 1 1 1 1 1 1 1 1 1 1 1 1 1 1 1 1 1 1 1 1 1 1 1 1 1 1 1 1 1 2 1 6 11 18 44 1 5 1 13 5 8 6 1 1 1 2 1 1 1 1 5 5 1 1 1 3 1 2 1
280388 1 2 1 1 1 2 1 2 1 6 1 3 1 1 1 1 1 1 1 1 1 1 1 1 1 2 2 1 3 5 1 1 1 4 6 1 2 1 1 1 4 15 2 5 1 14 145 1 5 1 1 1 1 13 2 2 7 2 19 7 1 1 2 1 1 2 3 1 1 4 3 2 1 1 1 5 10 1 1 1 1 5 1 1 2 1 1 1 1 2 1 1 1 2 1 1 1 1 2
280775 4 1 1 8 1 1 1 1 1 1 1 1 7 1 1 1 1 1 1 2 5 15 3 23 11 1 1 2 1 1 1 1 10 8 3 47 3 2 2 2 37 4 3 1 3 7 9 5 10 1 9 3 5 8 2 2 10 4 2 2 1 1 8 2 1 1 1 2 2 1 14 2 1 1 1 1 2 2 1 1 1 2 1 1 7 2 2 1 1 1 1 1 3 1 1 1 2 1 1
281159 1 1 1 17 1 1 1 1 2 1 1 1 2 1 1 1 1 1 1 2 1 1 1 1 1 1 1 1 1 1 1 1 1 2 2 1 1 1 1 2 2 1 1 1 2 12 6 2 1 8 4 3 1 1 1 1 1 2 1 5 1 1 1 1 1 2 1 1 2 8 5 1 2 2 12 2 1 4 2 3 3 1 1 1 2 1 1 1 1 3 2 1 1 1 3 1 1 1 1
281358 1 1 26 2 17 3 7 2 25 12 18 6 5 1 1 1 4 3 6 2 1 4 2 1 1 1 1 1 1 2 1 1 3 1 7 1 1 4 1 6 1 1 1 1 1 5 1 8 7 2 1 2 1 1 1 1 1 2 1 2 1 1 1 1 1 1 1 2 1 1 1 1 1 1 3 3 3 3 1 1 1 1 1 1 1 1 1 1 2 2 2 1 1 2 11 1 1 1 1
281646 1 2 1 1 1 1 1 28 15 1 1 1 3 8 7 2 4 1 1 2 1 17 1 1 1 1 1 3 1 1 1 1 1 1 1 2 1 1 2 1 2 1 1 2 1 1 1 1 1 1 1 1 1 1 1 1 1 1 1 1 2 1 3 3 1 1 1 1 1 1 1 1 1 1 1 1 3 1 2 1 1 1 1 1 1 1 1 6 1 1 1 1 2 1 1 1 1 2 1
281848 1 1 1 1 1 1 1 1 1 1 2 1 1 1 1 2 1 1 1 2 1 1 1 1 1 1 1 1 1 1 1 1 1 1 1 1 1 1 1 2 1 1 1 1 1 1 1 1 1 1 1 1 1 1 2 2 1 1 1 1 1 1 3 2 1 1 2 2 1 1 1 1 1 1 1 2 1 1 2 1 1 9 2 2 1 1 1 1 1 1 4 1 1 1 1 1 1 1 1
281974 1 1 1 1 1 1 1 1 1 1 1 1 2 1 1 1 1 6 1 3 2 1 1 1 1 1 1 1 2 1 5 3 2 1 3 1 1 1 2 1 9 5 29 69 36 459 449 5 14 123 40 37 298 260 8 9 36 6 20 1 3 3 1 14 1 1 1 2 1 1 1 7 1 1 1 1 1 1 1 1 1 1 1 1 1 1 1 98 64 2028 2063 39 109 1580 50 25 14 621 314
291635 424 15 39 134 1735 1680 1363 223 41 149 53 109 158 861 1 29 28 29 367 33 204 501 34 70 63 4 9 6 52 60 26 1 2 7 7 1 4 39 13 1 3 5 3 36 4 1 4 4 1 1 21 1 1 1 2 1 1 1 3 4 5 3 1 13 1 1 1 1 1 2 1 1 1 2 2 1 1 1 1 1 1 1 1 1 1 1 1 1 1202 463 20 406 447 12 14 40 495 18 40
304122 50 22 9 45 3 44 4 5 6 4 28 4 1 4 24 3 1 8 13 1 1 2 1 1 1 2 3 3 1 1 1 1 1 1 1 1 2 1 1 1142 2000 117 1248 1009 26 930 612 38 373 17 653 78 1816 204 83 33 31 282 53 29 28 258 49 268 524 8 48 11 5 8 38 7 77 43 2 6 8 12 1 49 12 2 10 8 64 5 1 2 25 11 1 1 22 2 1 1 2 1 1
316827 4 3 4 4 15 1 1 1 2 1 4 1 2 1 3 1 2 1 1 1 1 3 1 5 1 1 1 2 1 2 1 1 1 1 1 1 1 1 1 4504 11714 44 167 1449 3375 455 4123 1 1 1 144 229 314 1304 1397 81 284 29 44 183 57 3 1 1 3 3 6 1 20 24 3 2 84 1 1 4 1 14 3 2 13 2 1 2 1 1 2 1 1 33 5 1 1 4 1 1 1 1 1
347058 1 1 3 1 1 1 1 1 1 1 1 1 1 1 1 1 1 1 1 1 1 1 1 5 2 11 1 1 1 1 1 1 1 1 1 1 1 3 5 1 1 1 1 1 1 1 1 1 1 1 1 1 1 1 1 1 1 1 1 1 8715 5853 400 100 235 2395 3455 2604 65 212 156 91 3527 881 326 72 156 369 319 316 221 2745 290 1060 2725 263 74 174 26 84 39 317 308 144 4 1 13 5 6
385893 1 3 41 49 3 3 36 3 7 5 1 24 221 1 1 19 24 16 1 1 99 19 1 27 20 1 3 1 1 1 1 1 41 26 3 1 3 2 47 5 1 1 1 1 2 1 1 1 1 1 1 1 17 1 1 1 1 12 1 1 1 1 19 1 1 1 2 1 13 1 1 1 1 2 1 1 1 1 1 1 1 1 1 1 1 1 2 1 1 1 1 1 1 1 1 6 1 3 13
386805 1 1 1 1 1 1 1 1 1 1 1 1 1 1 1 1 2 1 1 1 1 2 1 1 1 1 1 1 1 1 1 1 1 2 1 1 1 1 1 1 1 1 1 1 5 4 3 1 1 1 4 4 4 4 2 3 20 1 14 1 1 1 1 2 1 1 1 3 1 1 1 1 1 1 1 2 1 1 1 1 1 1 1 1 1 1 1 1 1 1 1 1 1 1 1 1 1 1 20
387005 182 62 28 31 12 4 36 1 4 3 13 13 16 4 22 12 75 8 1 19 4 6 3 28 8 6 1 1 1 44 2 1 50 28 2 1 2 2 19 1 1 1 2 1 1 1 1 1 1 1 3 4 2 1 2 4 7 1 1 1 1 1 1 1 1 1 1 1 1 1 1 1 1 1 1 1 1 1 1 1 1 1 1 1 1 200 195 254 286 986 140 105 30 2 1 2 2 2 2
390034 13 14 14 4 3 11 13 4 5 12 6 1 3 28 93 86 60 29 100 73 17 7 9 7 142 1 1 1 1 1 1 1 1 306 1 1 135 24 22 103 1 1 1 71 1 1 2 1 1 1 1 7 1 1 1 1 1 25 1 1 2 1 1 1 1 1 1 1 1 3 1 1 1 1 1 1 1 1 1 1 1 1 1 1 1 1 1 1 1 1 1 89 11 2 1 11 2 1 1
391714 6 1 1 1 1 3 1 1 1 1 1 1 1 1 1 1 1 1 1 1 1 1 1 1 4 4 4 5 15 1 1 1 1 1 1 1 1 1 1 1 1 1 1 1 1 2 1 1 1 2 1 2 1 2 1 1 1 1 1 1 1 1 1 1 1 1 1 1 1 1 1 1 1 25 24 199 308 17 44 11 22 165 275 11 35 7 43 5 22 1 3 3 1 20 1 1 1 2 1
393073 2 1 1 2 1 1 1 1 8 1 1 1 1 1 1 1 1 1 1 1 1 1 1 1 1 1 1 1 1 1 1 1 1 1 1 1 1 1 1 1 1 26 250 40 181 436 32 220 28 146 368 28 7 55 55 6 3 28 27 1 3 6 1 3 24 6 1 3 2 1 20 2 1 2 3 1 3 1 1 1 15 1 1 1 1 1 1 1 1 1 1 1 1 1 1 1 1 1 1
395179 1 1 1 1 1 1 1 1 1 1 1 1 1 1 1 890 1286 299 1247 33 50 253 47 109 6 3 3 6 1 21 24 3 2 88 1 1 5 1 15 3 2 12 2 1 2 1 1 13 2 1 2 1 1 2 1 1 1 2 1 24 6 1 1 4 1 1 1 1 1 1 4 1 1 1 1 1 1 1 1 1 1 1 2 1 1 1 1 1 1 1 1 1 1 1 1 1 1 1 1
399716 1 1 1 1 1 3 1 2 1 1 3 6 1 1 1 1 3 5 1 1 1 1 1 1 1 1 1 1 1 1 1 1 1 1 1 1 1 1 1 1 1 55 232 25 2 1 1 1 14 4 3 22 3 11 26 75 61 2 1 1 14 18 2 1 15 2 1 2 1 1 2 15 1 1 1 1 1 1 1 1 1 1 1 1 1 1 1 1 1 1 1 2 2 5 1 1 1 1 1
400421 1 1 1 1 1 1 1 202 27 32 11 169 112 752 177 15 6 1 1 1 1 1 1 1 1 4 4 5 5 1 28 32 32 3 19 3 136 150 12 4 358 6 1 1 36 1 129 23 2 5 61 30 3 1 11 5 1 2 1 3 12 54 7 1 1 1 1 10 1 1 1 1 2 1 1 1 1 1 3 2 1 1 1 1 1 1 1 1 1 1 1 1 1 1 1 1 1 1 1
403180 1 1 1 1 1 1 1 1 3 5 18 9 35 1 1 2 5 1 1 2 5 1 1 1 3 5 1 1 23 2 29 5 1 1 1 1 1 1 1 1 1 1 1 1 1 5 1 1 1 1 1 2 1 1 1 2 1 1 1 1 1 1 1 1 1 1 1 2 1 5 1 2 1 1 1 1 1 1 1 1 1 1 1 1 1 4 1 1 1 1 1 1 1 1 1 1 1 1 1
403431 1 1 1 1 1 1 1 1 1 1 1 1 1 1 1 1 1 1 1 1 1 1 1 1 1 1 1 1 1 1 1 1 1 1 1 1 1 1 1 1 1 1 1 1 1 1 1 4 11 69 8 24 1 3 3 1 18 1 1 1 2 1 1 2 1 1 1 2 1 1 7 1 1 1 1 1 1 1 1 1 1 1 1 1 1 1 1 1 1 1 1 1 1 1 1 1 1 1 4
403676 28 125 1 1 1 10 41 1 1 2 2 1 122 8 3 3 3 1 23 23 3 2 83 1 1 2 1 14 4 1 14 2 1 2 1 1 5 1 1 10 2 1 2 1 2 19 2 1 1 2 1 1 1 1 1 1 1 1 2 1 1 1 1 1 1 1 1 1 1 1 1 1 1 1 1 1 1 1 1 1 1 1 1 4 1 2 1 1 1 1 1 1 1 1 1 1 4 5 1
404321 1 2 1 1 1 1 3 1 1 1 1 1 1 1 1 1 1 1 1 1 1 1 1 1 1 1 1 1 1 1 1 1 1 1 1 1 1 1 1 1 1 1 1 2 1 1 1 1 1 1 5 2 1 1 3 1 1 1 1 1 1 3 1 2 1 2 1 2 2 1 1 2 2 1 1 3 3 1 1 1 1 2 1 1 1 1 1 2 3 1 1 2 1 1 1 2 1 1 1
404450 1 1 2 5 3 1 6 3 1 1 2 1 3 1 1 1 1 1 1 1 1 1 2 1 2 3 1 1 1 1 2 1 1 1 1 2 1 4 3 1 17 1 1 2 2 1 1 1 7 1 1 1 1 1 1 1 1 1 1 1 1 1 1 1 1 1 1 1 1 1 1 1 1 1 1 7 1 21 4 1 3 2 1 12 2 1 2 2 1 1 1 1 3 1 1 11 1 1 1
404660 1 1 1 1 1 2 1 1 1 1 1 1 1 1 1 1 1 1 1 1 4 1 1 1 1 1 1 1 3 2 1 1 53 1 1 1 3 1 1 12 2 2 2 1 1 2 1 4 20 5 1 1 4 1 1 1 1 1 1 1 1 2 1 1 1 1 1 1 1 1 1 1 1 1 1 2 1 1 1 2 4 1 1 1 1 1 1 1 1 1 1 1 1 1 3 1 5 1 1
404877 1 1 1 1 1 1 1 1 1 1 1 1 1 1 1 1 1 1 1 1 1 1 1 2 4 1 1 1 1 1 1 1 1 1 1 1 1 1 1 1 3 1 1 1 1 1 2 1 1 1 1 1 1 1 2 1 1 1 2 2 1 1 1 7 1 1 1 1 1 1 1 1 1 1 1 1 1 1 1 1 2 1 1 2 1 1 1 2 3 1 1 2 1 1 1 2 4 1 1
405003 2 1 1 1 1 2 1 1 1 1 6 1 1 1 1 1 1 1 1 1 1 1 1 3 1 1 1 1 1 1 1 1 1 1 1 1 1 1 2 1 1 1 1 1 1 1 1 9 1 1 1 1 20 1 2 1 1 1 2 1 1 1 1 1 1 1 1 1 2 1 1 1 1 1 1 1 1 1 1 1 1 1 1 1 1 1 1 1 1 1 1 1 9 1 10 1 9 76 1959
407279 1074 341 442 35 219 2307 1500 262 84 151 1116 1 1 35 40 414 34 1 3 7 4 27 13 1 4 29 11 1 1 2 6 6 1 26 2 2 1 1 1 1 1 4 1 1 1 2 1 1 1 1 1 2 1 1 1531 3154 100 1971 1887 707 44 1243 67 292 165 2447 225 3370 255 867 1309 271 158 25 122 93 909 1 155 41 242 2 6 10 13 1 49 16 2 10 6 93 10 1 2 11 19 2 1
437412 5 8 1 4 9 3 21 2 1 1 8 1 2 1 3 1 1 3 2 1 1 1 1 2 1 2 1 1 1 1 1 1 1 1 1 1 1829 76 784 1710 239 25 157 54 25 54 66 2 2 3 21 20 77 4 2 1 17 3 2 1 5 1 2 3 2 1 3 2 1 1 4 1 1 1 4 1 1 1 1 1 1 20372 15396 1989 35421 639 481 301 5354 2298 8076 4275 477 455 11604 757 357 910 2926
564565 1 1 720 1228 525 9083 6882 4347 1569 183 975 1652 160 430 734 3247 1 243 2 1 196 9 1 14 7 7 7 1 3 51 59 3 3 46 3 7 7 1 26 280 2 1 19 28 15 1 3 154 27 1 1 1 26 5 23 42 6 1 4 3 1 1 1 1 1 1 23 2 2 1 1 19 2 1 3 1 6 27 1 1 1 1 2 13 17 2 1 1 1 1 1 3 1 1 1 1 1 2 1
597794 3 20 4 14 20 6 58 1 1 1 1 1 1 2 3 1 1 2 1 1 1 2 1 9 1 1 1 1 1 1 1 1 1 1 1 1 1 2 1 1 1 1 2 1 1 1 1 1 1 1 1 1 1 2 1 1 1 1 1 1 1 1 1 1 1 1 1 1 1456 62 1451 242 506 300 289 18 904 1119 573 687 97 327 79 387 22 50 109 38 70 56 1 10 3 17 20 8 17 2 11
606967 4 31 120 12 1 29 32 6 7 4 7 6 67 4 1 33 19 1 1 1 85 10 1 7 12 1 1 3 2 4 2 5 6 2 1 1 2 6 1 1 1 1 1 1 1 2 2 1 1 1 1 1 1 1 1 1 1 1 1 2 1 1 1 1 1 1 10911 5384 6224 5991 4713 4953 160 241 189 117 5455 1682 109 442 187 4622 93 2728 5521 814 88 187 565 615 115 401 614 396 5 1 86 1 1
671478 17 1 23 8 7 6 69 7 56 7 1 3 77 64 270 89 5 1 48 3 2 19 26 4 3 2 35 136 32 1 82 21 4 4 2 1 1 1 1 120 36 1 1 17 13 25 1 2 4 2 1 17 1 2 23 6 1 1 1 10 1 3 2 27 1 1 1 1 1 12 7 1 6 2 1 1 1 2 1 1 6 19 1 18 14 4 5 1 9 44 1 1 1 1 1 8 1 1 3
673115 5 1 1 1 1 1 1 1 1 1 1 4 1 3 1 1 1 1 1 1 1 1 1 1 1 7 1 1 1 1 7 3 1 1 1 1 1 1 1 1 1 1 1 1 1 1 1 1 2 1 2 1 1 1 3 1 1 1 2 4 2 2 1 3 1 1 1 1 1 1 1 1 1 1 1 1 1 1 1 1 1 1 1 1 1 1 1 1 1 1 1 1 1 1 1 124 136 109 45
673663 51 2 8 10 6 1 13 31 15 2 7 81 15 1 14 28 13 8 14 50 21 1 1 1 2 61 2 1 5 2 65 12 1 14 7 1 11 1 2 2 1 2 3 3 1 1 2 1 3 9 1 1 1 3 1 1 1 1 1 1 1 2 4 3 1 3 1 1 1 1 1 1 1 1 1 1 1 1 1 1 1 1 1 1 1 2 1 1 2 1 1 1 2 1 3 1 1 1 2
674338 1 1 1 1 1907 1 1110 1188 535 1190 207 13 2 2 2 1 10 13 14 4 9 12 3 14 5 1 1 19 60 86 24 24 78 24 5 10 3 5 95 222 1 1 74 1 1 1 1 1 1 1 23 10 123 23 1 1 1 1 1 64 1 2 1 1 4 1 1 1 1 1 35 1 1 1 3 1 1 1 1 1 1 1 1 1 1 1 3 1 1 1 1 1 1 1 1 1 1 1 1
681654 1 1 1 1 1 1 1 1 3 6 4 13 6 1 1 1 1 1 1 1 1 1 1 1 1 1 2 1 1 1 1 1 2 1 1 1 1 1 1 1 1 1 1 1 1 1 1 1 593 1010 2229 664 186 1944 96 78 575 1 1 1 1 212 1 1 1 1 13 6 6 7 1 1 13 16 14 1 17 20 1 16 1 2 13 35 45 4 4 106 145 15 37 124 14 20 12 33 3 5 95
690180 24 8 19 6 7 7 1 2 70 276 1 1 1 1 1 1 23 69 472 1 1 52 124 29 24 6 32 18 4 2 1 2 1 249 3 2 1 26 1 1 1 3 1 1 1 1 1 51 18 1 1 2 1 1 1 1 148 44 1 1 29 42 3 1 22 11 22 3 3 3 3 3 13 20 3 1 11 3 28 9 1 1 8 2 1 1 1 1 1 1 1 57 1 1 1 1 1 1 1
692347 1 1 1 1 1 1 1 1 1 1 1 2 1 1 1 1 1 1 1 1 1 1 1 1 1 1 1 1 1 1 1 1 1 1 2 1 1 1 1 4 1 1 2 1 1 1 1 1 1 1 1 3 1 1 1 1 1 1 3 1 1 1 1 1 1 1 1 1 1 1 1 1 1 1 1 1 1 1 1 1 1 1 1 1 1 1 1 1 1 1 1 1 1 1 43 1 24 1 3
692531 15 5 26 23 14 11 57 20 1 1 1 40 26 12 114 23 1 32 18 6 9 3 51 6 1 1 2 1 79 7 2 39 15 1 17 4 6 5 6 4 5 4 2 1 11 1 2 1 1 1 5 11 1 1 1 1 1 1 1 1 1 1 1 1 1 2 1 1 1 3 1 1 1 2 1 1 1 1 1 1 1 1 1 1 1 1 1 144 294 11 1 1 7 1 6 1 2 2 1
693792 1 1 1 1 1 1 1 1 2509 4865 490 2643 150 1 1 1 1 225 4 1 104 185 46 663 161 21 2 1 142 5 1 1 3 1 1 1 1 1 17 90 2 1 8 5 1 8 7 3 45 3 28 7 1 20 168 2 1 6 1 1 87 13 1 1 19 3 17 2 1 8 2 1 1 1 1 1 1 1 8 1 1 1 3 13 1 11 6 21 27 1 2 1 1 1 1 2 1 3 1
706726 1 3 1 1 1 5 1 1 3 19 2 8 1 16 2 1 17 1 1 2 1 1 1 1 1 1 1 1 1 1 1 1 1 1 1 1 1 1 1 1 1 1 1 1 9 1 1 1 1 1 1 2 1 2 1 1 1 1 1 1 1 1 1 1 1 1 1 1 1 1 4 1 1 2 1 1 1 1 1 1 1 1 1 1 1 1 1 1 2 1 1 1 1 1 1 1 1 1 1
706908 1 1 1 1 1 1 1 1 1 1 1 111 179 121 45 3 1 1 249 27 1 1 17 1 1 1 1 7 1 11 6 2 1 2 2 1 1 1 1 1 1 1 1 1 1 1 1 1 1 1 1 1 1 1 1 2 1 1 1 1 1 1 2171 1926 1 1 399 14 1 1 1 1 207 50 23 7 2 210 89 11 14 362 836 321 12 1 1 1 1 1 170 19 1806 323 36 3 170 32 23
716990 1 7 3 1 1 1 1 1 1 1 1 2 4 6 6 1 17 28 40 4 18 27 3 19 3 2 100 170 28 102 14 14 6 62 371 4 1 1 55 18 12 262 36 1 1 77 14 45 1 3 1 1 1 1 3 1 1 1 1 1 1 1 1 1 1 1 1 1 14 1 2 3 5 9 1 4 1 1 24 3 5 53 81 70 3 1 1 1 1 1 1 2 1 1 3 2 1 1 1
718906 1 6 1 9 1 2 3 4 11 1 3 1 30 3 4 26 1 1 1 1 1 1 3 12 1 11 1 2 1 1 1 1 1 1 1 1 1 1 1 1 2 1 1 3 3 1 1 1 1 2 2 2 5 1 1 3 3 1 2 1 1 2 1 1 1 1 1 1 3 1 1 1 1 1 1 1 1 1 1 1 1 1 2 1 1 1 1 1 7 1 1 1 1 1 1 3 11 1 1
719160 1 1 1 1 1 1 1 1 1 1 1 1 1 1 1 1 1 2 1 1 1 1 1 1 1 3 1 1 1 1 1 1 1 1 1 1 1 1 1 1 1 1 1 1 1 1 1 1 1 1 1 1 1 1 1 1 1 1 1 1 1 1 1 1 1 1 1 1 1 1 1 1 1 1 1 1 1 1 1 1 1 1 1 1 1 1 1 1 1 1 1 1 1 1 1 1 1 1 1
719263 1 1 1 1 23 125 1 212 247 13 2 1 1 1 434 38 3 1 28 2 6 3 2 26 2 30 17 5 14 1 1 44 10 100 11 1 25 5 1 1 67 6 13 1 1 1 1 2 2 1 1 1 1 1 1 1 1 1 69 28 1 1 2 1 1 2 13 1 6 9 1 8 1 1 2 1 2 1 2 1 1 1 1 1 2 1 1 2 8 1 1 5 1 1 1 1 1 4 2
720998 1 1 2 1 1 1 1 1 2 1 1 1 1 1 1 1 1 1 1 1 1 1 1 2 1 1 1 1 1 1 1 1 1 1 6 1 2 1 1 1 1 5 1 1 4 1 2 1 1 1 1 1 1 1 1 2 1 1 1 2 1 1 1 1 1 1 1 1 1 1 1 1 1 1 1 1 1 1 1 1 1 1 1 1 1 1 1 1 1 1 1 1 1 3 1 4 14 1 3
721137 1 6 32 7 8 2 1 2 1 52 69 1 1 15 4 5 135 1 1 35 1 5 3 2 52 18 8 154 456 1 3 1 1 1 1 1 1 1 1 5 22 1 3 1 1 2 1 2 10 1 12 1 1 10 1 4 49 1 18 58 7 1 1 1 2 1 2 3 1 1 1 1 2 1 1 1 1 3 1 1 1 1 1 1 1 1 1 2 1 1 2 1 1 1 1 12 1 3 1
722499 1 1 1 1 1 4 11 1 1 1 1 1 1 1 1 2 1 1 2 14 2 1 1 2 2 1 1 1 1 1 1 1 1 1 1 1 2 1 2 1 1 1 1 1 1 1 1 1 1 1 1 1 2 1 1 1 1 1 1 1 1 1 2 1 3 1 1 1 1 1 1 1 1 1 1 1 1 1 8 7 1 2 1 1 1 1 1 5 1 1 2 1 2 4 2 1 5 20 2
722686 1 1 1 1 1 1 1 1 1 1 1 3 1 1 1 1 1 19 2 1 1 1 1 1 3 1 6 1 23 1 1 2 42 2 1 1 1 24 1 4 5 1 1 1 1 8 1 1 3 1 1 1 1 1 2 1 1 1 1 1 17 1 2 3 2 4 1 21 1 1 20 1 2 1 6 1 92 2 1 2 1 1 6 1 1 1 40 15 3 5 1 1 1 1 8 4 2 2 13
723168 6 1 31 1 1 1 3 2 2 1 1 4 1 1 1 1 2 2 9 1 1 4 1 1 2 1 18 1 6 1 3 1 1 2 1 4 3 1 5 1 1 1 1 1 1 1 4 1 3 2 6 2 20 4 2 2 1 1 1 1 1 1 1 1 1 1 2 1 1 1 5 1 1 1 1 1 1 1 1 1 1 1 2 1 1 1 1 1 1 1 1 1 4 2 1 1 2 1 1
723405 1 1 1 1 2 1 1 1 1 1 1 1 1 1 1 1 2 1 1 1 1 1 1 1 6 1 1 1 3 1 1 1 1 1 1 1 1 20 2 1 1 2 1 1 1 1 3 1 1 1 1 1 1 2 1 1 1 1 1 1 1 1 2 1 1 1 1 1 1 1 1 2 2 1 1 1 2 2 1 1 1 2 1 2 5 4 1 6 1 1 1 3 1 1 1 1 1 1 1
723560 1 1 1 2 4 4 9 2 1 3 1 1 1 1 4 1 1 1 1 2 1 2 5 4 2 1 5 1 1 3 1 1 1 1 1 2 1 1 1 2 2 1 1 1 2 7 2 4 2 1 4 2 1 1 2 1 1 1 1 1 2 2 1 1 1 3 1 3 1 1 1 1 1 1 2 1 1 1 1 1 8 6 3 32 12 1 3 2 2 28 4 1 1 3 1 3 7 1 1
723824 1 1 1 3 5 1 1 1 1 1 4 2 1 1 1 1 1 1 1 3 2 2 1 10 1 1 1 1 1 1 2 1 1 1 1 1 1 1 1 1 1 1 4 1 1 1 2 1 1 1 1 2 1 1 1 4 21 6 1 8 1 2 11 2 1 8 2 1 1 1 16 4 1 2 2 2 2 1 1 1 2 2 1 1 3 1 1 1 7 1 1 1 1 1 1 1 1 1 1
724040 1 1 1 1 1 1 1 1 1 1 7 3 1 1 3 1 1 1 1 1 1 1 1 1 1 1 2 1 4 1 1 1 1 2 1 20 1 2 1 1 1 1 1 2 1 1 2 1 1 5 1 1 1 1 1 1 1 1 1 1 1 1 1 1 1 2 1 1 1 1 1 1 1 1 1 1 1 1 1 1 1 1 94 1 2 1 8 1 1 1 47 17 1 1 1 1 1 1 1
724357 1 4 1 1 1 1 1 1 1 1 3 2 2 6 8 3 1 1 1 1 1 1 1 1 1 1 1 1 1 1 1 1 1 3 13 1 1 7 1 3 2 14 12 1 1 1 1 1 1 1 1 1 1 1 1 1 1 2 1 1 1 1 1 1 1 1 2 1 1 1 1 1 1 6 1 1 1 1 1 1 1 1 1 1 1 1 1 1 2 1 1 1 1 1 1 1 1 1 1
724533 1 1 1 2 1 1 4 1 3 6 1 1 1 1 1 1 1 1 1 1 1 1 1 1 1 1 1 1 1 1 1 1 1 1 1 2 2 1 1 1 1 2 2 15 3 2 4 2 2 28 1 1 1 1 2 1 1 1 1 1 1 1 1 1 1 1 1 3 1 2 2 1 1 6 2 1 1 1 1 1 2 2 3 1 1 1 1 1 1 1 1 1 1 1 1 1 1 1 1
724712 1 1 1 1 1 1 1 1 1 1 1 1 1 1 1 2 1 2 2 1 1 1 1 1 1 1 1 2 3 1 1 1 2 1 1 1 1 1 1 1 1 1 1 1 1 1 1 1 1 1 1 1 1 1 1 1 1 1 1 1 1 1 1 2 1 4 1 3 3 1 1 1 1 1 1 1 1 1 1 1 2 1 1 1 2 1 1 1 1 1 1 1 1 1 1 1 1 1 1
724830 1 2 1 2 1 1 2 1 1 1 1 2 1 1 1 1 2 2 1 1 1 1 1 1 3 1 3 2 1 11 1 1 1 1 1 2 2 1 2 1 2 1 1 1 1 1 1 3 1 1 1 1 1 1 1 1 1 1 1 1 1 1 2 1 1 1 1 1 3 1 1 1 1 1 1 1 1 1 1 1 2 1 1 1 1 1 1 1 1 1 1 1 1 1 1 1 1 1 1
724961 1 2 1 1 2 1 1 1 1 1 1 1 1 1 1 2 1 2 1 1 1 2 1 1 1 1 2 1 1 1 2 1 1 3 1 1 1 1 1 1 1 1 1 1 1 7 1 1 1 1 1 1 1 1 1 1 1 1 3 1 1 1 1 1 1 1 1 1 1 1 1 1 1 1 1 1 1 1 1 1 1 1 1 1 1 1 1 1 1 1 1 1 2 1 1 9 1 1 3
725090 1 1 1 1 1 7 2 1 1 3 1 1 2 2 1 2 1 1 1 1 1 1 1 1 1 1 1 14 7 3 4 1 1 1 1 1 3 11 4 1 13638 33337 3574 6783 7135 1 1 387 7 1 1 29 3 3 6 6 1 17 21 38 3 15 3 72 111 11 7 221 3 1 1 17 1 56 10 2 1 8 2 1 2 45 9 2 1 1 1 1 1 1 5 1 1 1 1 1 1 1 1
790794 1 1 1 1 1 1 1 1 1 1 6 10 1 1 30 9 38 7 1 1 1 1 1 1 1 1 1 2 1 4 1 1 1 1 1 1 1 6 1 1 1 1 1 1 1 1 1 1 1 3 1 1 1 1 1 1 1 1 1 1 1 1 1 1 1 1 1 1 1 1 1 1 1 1 1 1 6702 7741 5834 2253 892 11 1 1 222 1 1 1 1 10 5 6 3 35 28 3 30 7 23
814791 1 22 191 21 117 27 3 10 3 89 360 3 1 1 49 1 2 84 83 12 1 110 58 5 1 6 3 1 1 1 1 1 1 1 1 25 1 1 1 1 1 11 11 1 1 9 1 1 1 1 10 60 4 9 5 1 1 57 1 1 1 1 1 9 3 38 3 1 2 2 3 1 1 1 1 1 1 1 1 1 1 1 1 1 1 1 1 1 1 1 3 1 1 1 1 6 2 1 4
816383 1 2 1 1 1 1 1 1 1 2 1 1 3 1 5 1 1 1 1 1 1 1 1 1 1 1 1 1 1 1 1 1 1 1 1 1 1 1 1 1 1 1 1 1 2 1 2 1 1 4 1 1 1 1 1 1 1 1 1 1 1 1 1 1 1 1 1 1 1 1 2 1 1 1 1 1 1 1 1 1 1 1 1 1 1 1 1 1 1 1 1 1 1 1 1 1 1 1 1
816497 463 1 429 16 1 1 1 1 1 1 1 1 2 2 2 2 5 13 14 13 9 3 11 12 9 5 12 13 3 8 1 2 29 88 79 53 28 89 68 27 72 20 4 14 40 15 4 108 383 237 119 304 61 19 19 11 321 6 1 1 1 1 1 1 1 1 613 4 1 1 109 55 29 143 1 1 1 112 1 1 16 1 2 6 1 1 1 1 75 1 1 1 7 1 1 1 1 1 1
820974 1 1 6 1 1 1 1 1 1 1 1 1 1 1 1 1 1 1 1 1 1 1 1 1 1 1 1 1 1 1 205 50 9 1 11 88 17 3 1 1 4 1 1 1 1 1 1 1 1 1 1 1 1 1 1 1 1 1 1 1 4 6 5 5 9 1 1 1 1 18 38 8 6 23 1 1 1 1 1 1 1 1 1 1 1 20 1 1 1 1 1 1 1 1 1 2 3 1 1
821594 4 1 1 1 1 1 2 1 1 1 1 1 1 3 1 1 1 1 1 1 1 1 1 1 1 1 1 1 1 1 2 2 1 1 3 1 1 1 1 1 1 1 4 1 1 1 1 9 1 2 1 1 3 1 1 2 1 1 1 1 1 1 1 1 1 1 1 1 1 1 1 1 1 1 1 1 1 1 1 1 1 1 1 1 1 1 1 1 1 1 1 1 1 1 1 1 1 1 1
821719 1 1 1 1 1 1 1 1 1 1 1 1 1 3 2 2 2 21 1 31 1 19 4 1 15 4 1 1 138 1 143 1 40 8 38 6 10 439 1 260 55 81 796 1 1 1 343 1 840 119 42 13 2 43 47 29 12 5 1 4 6 2 1 1 1 1 1 1 1 1 1 1 1 1 1 1 1 1 1 1 1 1 1 1 1 1 6 1 1 1 9 1 1 10 1 1 4 4 1
825435 4 35 1 1 1 55 1 1 25 19 121 1 1 78 133 15 1 1 1 1 1 1 1 1 1 1 2 1 1 1 2 1 8 1 1 1 1 1 3 1 1 1 5 1 2 10 1 1 1 1 1 1 1 1 1 1 1 1 1 1 1 1 1 1 1 1 1 1 1 1 2 1 1 1 1 1 1 1 5 1 1 7 1 1 1 1 1 19 1 1 1 1 1 1 1 4 1 1 12
826079 1 1 2 1 1 1 1 1 1 1 1 1 1 1 1 1 1 1 1 1 1 1 1 1 1 1 1 1 1 1 1 1 1 1 1 1 1 2 1 1 1 1 1 1 1 1 1 1 1 1 1 1 1 1 1 1 1 1 1 1 1 1 1 1 1 1 1 1 2 1 2 1 1 1 1 1 1 1 1 1 2 2 1 1 2 1 1 1 1 1 1 1 1 3 1 1 1 1 1
826188 1 8 1 5 2 1 3 1 1 1 1 3 1 1 15 1 8 3 1 1 1 1 5 1 1 1 1 15 2 1 1 1 1 1 2 1 2 1 1 1 1 2 1 1 1 1 1 1 1 1 1 1 13 2 1 1 1 1 1 2 1 1 1 1 1 1 1 1 1 1 1 1 1 66 1 1 43 8 2 1 2 1 5 1 1 1 1 1 1 1 1 1 1 2 1 1 1 16 1
826499 1 2 1 1 1 1 1 1 1 1 101 4 1 1 2 1 1 1 1 1 1 1 1 18 8 2 2 1 1 1 1 4 1 2 1 1 2 2 1 8 2 1 1 2 1 1 1 1 1 1 2 1 4 1 1 1 1 1 1 1 1 1 1 1 1 1 1 1 1 1 1 1 1 1 1 1 1 1 1 1 1 1 1 1 1 1 1 1 1 1 1 1 1 1 1 1 1 1 1
826749 2 2 1 2 6 1 10 1 10 1 1 8 1 1 1 42 1 1 60 1 1 6 1 5 1 145 10 2 1 5 1 1 1 1 1 16 1 1 36 19 12 3 14 2 1 1 1 1 1 1 1 1 1 1 1 2 1 3 1 2 1 1 1 1 1 8 1 1 10 1 1 1 1 1 1 26 1 2 1 4 1 1 1 1 1 1 3 1 1 1 9 2 1 2 1 9 1 1 1
827313 1 1 1 1 1 1 1 1 1 1 1 1 1 1 1 1 1 1 1 1 1 1 2 1 3 1 1 1 1 1 1 1 1 1 3 2 1 1 1 1 1 1 1 1 1 1 1 1 1 1 1 1 2 1 1 1 1 1 1 1 2 1 1 1 1 1 1 1 1 1 1 1 1 1 1 2 1 1 1 1 1 2 1 1 1 1 1 1 1 1 1 1 1 1 1 1 1 1 1
827423 1 1 1 1 1 1 1 1 1 6 1 2 1 2 2 1 1 2 2 1 1 2 1 1 3 3 1 1 1 1 2 1 1 1 1 1 1 2 3 1 1 2 1 1 1 2 1 1 1 1 1 1 1 2 5 3 1 7 1 2 1 1 1 1 1 1 1 1 1 1 1 1 2 4 1 1 3 2 2 1 1 1 1 1 1 1 1 1 1 2 1 2 3 1 1 1 1 1 1
827570 1 1 1 1 2 4 1 1 1 3 1 1 1 1 1 1 1 1 1 2 1 2 1 2 1 2 3 3 1 18 1 1 1 2 1 1 2 1 1 6 1 1 1 1 1 1 1 1 1 1 1 1 1 1 1 1 1 2 1 1 1 1 1 1 4 7 1 3 18 6 1 3 2 1 13 2 1 2 3 1 6 1 1 1 1 1 1 1 1 1 1 1 1 1 1 1 1 1 1
827766 3 1 1 1 1 1 1 1 1 1 1 1 1 1 1 1 8 4 1 4 22 6 1 2 2 2 12 2 1 5 2 1 1 1 1 1 1 3 2 1 5 1 1 1 1 2 1 1 1 1 1 1 1 1 1 1 1 1 1 1 1 1 1 1 1 1 1 1 1 1 2 1 1 3 1 1 1 1 1 2 1 1 1 1 4 4 1 12 3 1 3 2 11 1 1 1 3 2 1
827976 1 1 1 1 1 1 1 1 1 1 1 1 1 1 1 1 1 1 1 1 1 1 1 1 1 1 1 1 1 2 1 3 1 1 1 2 1 1 1 1 1 2 1 2 1 1 18 22 3 2 72 1 1 4 10 11 2 1 1 2 1 2 13 1 1 1 1 1 2 1 1 1 1 1 1 2 1 1 1 1 1 1 1 1 1 1 1 1 6 1 5 1 1 1 1 1 1 1 1
828242 1 1 1 1 4 2 7 1 1 1 1 1 1 1 1 1 1 1 1 1 1 1 1 1 1 1 1 1 1 1 1 1 1 1 22 3 11 3 3 91 1 1 10 5 3 1 1 35 5 1 1 1 1 1 1 1 1 13 1 1 12 1 1 1 1 1 1 1 3 1 1 1 1 1 1 1 1 1 1 1 1 1 1 1 1 1 1 1 1 1 5 1 1 1 1 3 3 1 1
828565 1 2 1 1 1 1 1 1 1 1 1 1 1 1 1 1 1 1 1 1 1 1 1 1 1 1 1 1 1 1 1 1 1 1 1 1 1 1 1 1 1 1 1 1 1 1 1 1 1 1 1 1 1 12 1 1 1 2 1 1 1 1 2 1 1 1 1 1 1 1 1 1 1 1 1 1 1 1 1 5 1 3 1 1 1 1 1 1 1 1 1 1 136 1 2 1 1 1 8
828828 1 1 34 6 4 1 6 1 1 1 1 6 28 2 1 1 3 1 1 1 1 1 2 1 1 1 1 1 1 1 1 1 1 1 1 1 1 1 1 1 1 1 6 1 1 2 1 1 1 1 1 5 3 1 1 1 1 1 1 1 1 1 1 1 1 1 1 1 1 1 1 1 1 1 1 1 1 1 1 1 1 1 1 1 4 1 5 1 1 1 1 1 20 1 1 3 1 1 13
829064 1 6 1 1 1 1 1 1 1 1 1 1 1 1 1 1 1 1 1 1 1 2 1 1 1 1 1 1 1 1 1 1 1 1 1 1 1 1 1 1 2 1 1 1 3 1 1 1 1 1 1 1 1 1 1 1 1 1 1 1 1 1 1 1 1 1 1 1 1 1 1 1 1 1 1 1 1 1 1 1 1 1 1 1 1 1 1 2 1 1 1 1 1 1 1 1 1 1 1
829174 1 1 1 1 1 1 1 1 1 1 1 1 1 1 1 1 1 1 2 1 1 1 1 1 1 1 5 1 1 1 1 1 2 1 1 1 1 1 1 1 1 1 1 1 1 1 1 1 1 1 1 1 1 1 1 1 1 1 1 1 1 1 1 1 1 1 1 1 1 1 1 1 1 1 1 3 1 1 1 1 1 1 2 1 1 1 1 1 1 1 1 1 1 1 1 1 1 1 1
829283 1 1 1 1 2 1 1 2 1 3 1 1 1 1 1 1 1 1 1 1 1 1 1 1 1 3 2 1 1 1 1 1 6 1 1 5 6 1 1 1 1 1 1 1 1 1 1 1 1 1 1 1 1 1 1 1 1 1 1 1 1 2 1 1 1 1 1 1 1 1 1 1 1 1 1 1 2 1 1 1 1 1 1 1 1 1 1 1 1 1 2 1 1 1 1 1 3 1 1
829409 1 1 1 2 1 1 1 1 2 1 1 1 1 1 1 1 1 1 1 1 2 1 1 1 1 1 1 1 1 1 1 3 1 1 1 4 1 1 1 1 1 1 1 1 1 1 1 1 1 1 1 1 1 1 1 1 1 1 1 1 1 1 1 2 1 1 1 1 1 1 1 1 1 1 1 1 1 1 2 1 1 1 3 2 1 1 1 1 1 1 1 2 19 1 1 2 1 1 1
829542 1 2 1 1 1 1 1 3 1 3 1 2 1 1 1 1 1 1 1 1 1 1 1 1 1 2 1 1 1 1 1 1 1 1 1 1 1 1 1 1 1 1 1 1 1 1 1 1 1 1 1 1 1 1 1 2 1 1 1 1 2 1 1 1 1 5 1 7 1 1 1 1 1 1 1 1 1 1 1 1 1 1 2 1 1 1 1 1 1 1 1 1 1 1 1 1 1 1 1
829662 1 1 1 1 1 1 1 1 1 1 2 1 1 1 1 1 1 1 1 1 1 1 1 1 1 1 1 1 1 1 1 2 1 1 1 1 1 1 1 1 1 1 1 1 1 1 1 1 1 1 1 1 1 1 3 1 1 1 1 1 1 1 1 1 1 1 1 1 1 1 1 1 1 1 1 1 1 1 1 1 1 1 1 1 1 1 1 1 1 1 1 1 1 1 1 1 1 1 1
829766 1 1 1 1 1 1 1 1 1 1 1 1 1 2 12 2 1 4 1 1 1 1 1 1 1 1 2 1 1 2 1 1 1 1 1 1 1 1 1 1 1 1 5 3 1 1 4 3 1 1 13 5 1 2 1 4 1 1 1 1 1 60 6 1 5 7 1 4 4 7 2 2 1 2 1 1 9 1 11 1 2 1 5 1 1 1 2 1 1 1 1 1 5 4 1 1 1 16 1
830051 2 1 1 1 3 1 4 1 1 2 1 1 1 1 1 1 1 1 2 1 3 1 2 3 1 1 1 1 1 1 1 2 3 2 1 18 1 2 2 1 1 2 1 3 2 1 1 10 7 1 2 1 2 2 1 2 3 1 1 1 1 2 1 1 1 1 1 4 1 1 2 1 1 1 1 1 1 1 1 1 2 1 2 13 1 1 1 2 1 1 2 1 1 1 1 1 1 1 1
830233 1 1 1 1 1 1 1 1 1 1 1 1 4 1 2 1 1 1 1 1 1 1 1 1 2 1 1 1 1 1 1 1 8 10 1 2 15 2 1 2 3 1 1 2 1 1 1 1 1 1 1 1 1 2 1 2 2 1 1 1 1 1 1 4 1 1 1 1 1 1 1 1 1 1 8 2 1 1 1 4 1 1 1 1 1 1 1 1 1 1 1 1 1 1 1 1 1 1 1
830391 4 1 3 1 1 1 1 1 1 1 1 2 1 1 1 4 2 1 1 2 2 1 4 18 3 12 1 1 2 2 1 1 1 1 1 1 1 1 1 1 1 1 9 1 1 3 1 1 1 1 1 1 1 1 1 17 1 1 1 1 1 1 4 1 1 1 1 1 1 1 1 1 1 1 1 1 1 1 1 1 1 1 1 1 1 1 1 1 1 1 1 1 1 1 5 1 2 1 2
830573 1 1 1 1 1 1 1 1 1 1 1 7 11 15 31 1 1 1 1 1 1 1 1 1 1 1 1 1 1 1 1 1 1 2 1 1 1 1 1 1 1 1 1 1 4 11 1 1 13 4 1 54
