701109
701110
701131
701132
701140
701147
701149
701153
701155
701156
701165
701170
701173
701182
701183
701185
701187
701189
701191
701194
701199
701210
701212
701227
701235
701236
701238
701250
701264
701270
701277
701288
701292
701295
701306
701310
701322
701323
701327
701333
701346
701348
701350
701353
701359
701361
701363
701364
701365
701374
701379
701392
701394
701397
701398
701405
701421
701423
701430
701432
701439
701440
701441
701447
701452
701459
701460
701463
701472
701475
701479
701483
701491
701495
701499
701503
701522
701523
701525
701527
701528
701530
701545
701555
701569
701571
701574
701584
701586
701587
701589
701591
701593
701598
701599
701603
701605
701613
701616
701618
701623
701625
701637
701639
701643
701645
701649
701651
701654
701657
701658
701662
701663
701664
701665
701666
701668
701672
701675
701680
701685
701689
701692
701698
701701
701702
701718
701722
701732
701735
701736
701740
701745
701748
701749
701754
701755
701773
701794
701797
701800
701805
701807
701815
701816
701817
701825
701844
701845
701846
701847
701864
701866
701873
701879
701884
701890
701897
701918
701927
701930
701931
701935
701942
701947
701950
701955
701957
701963
701970
701974
701986
701989
701991
701993
702011
702013
702015
702037
702045
702050
702052
702057
702059
702066
702072
702077
702087
702091
702103
702104
702105
702111
702116
702119
702132
702140
702142
702148
702149
702155
702159
702174
702180
702182
702189
702190
702199
702214
702217
702219
702235
702267
702278
702295
702316
702323
702362
702375
702378
702381
702385
702390
702437
702444
702455
702459
702467
702473
702478
702481
702491
702496
702499
702500
702501
702521
702530
702560
702569
702571
702573
702579
702598
702612
702617
702618
702633
702635
702653
702654
702656
702665
702672
702689
702690
702708
702731
702749
702760
702785
702793
702802
702808
702827
702884
702905
702954
702991
703019
703057
703218
703245
703249
703253
703276
703287
703337
703397
703472
703482
703510
703541
703542
703568
703579
703583
703616
703629
703661
703667
703669
703696
703699
703701
703715
703727
703732
703749
703762
703771
703779
703782
703787
703801
703805
703819
703842
703848
703852
703869
703870
703872
703874
703877
703885
703893
703908
703921
703928
703933
703936
703939
703940
703945
703952
703960
703978
703991
704005
704008
704036
704041
704044
704064
704073
704076
704081
704097
704134
704152
704153
704158
704173
704182
704201
704234
704264
704284
704390
704400
704497
704587
704646
704726
704849
705185
705189
705315
705325
705382
705429
705566
705643
705661
705724
705755
705756
705800
705821
705834
705836
705867
705932
706038
706155
706188
706206
706235
706322
706390
706412
706521
706711
706788
706894
706978
707010
707022
707062
707093
707096
707160
707175
707186
707250
707262
707272
707278
707296
707328
707345
707365
707366
707374
707406
707454
707489
707496
707504
707508
707540
707543
707551
707577
707591
707594
707595
707604
707605
707625
707631
707635
707649
707658
707659
707661
707671
707685
707703
707708
707715
707719
707721
707723
707724
707739
707746
707748
707752
707755
707760
707765
707766
707777
707788
707801
707816
707831
707833
707840
707844
707845
707847
707851
707854
707863
707865
707884
707917
707930
707933
707937
707971
707985
707996
708004
708006
708012
708013
708017
708018
708027
708030
708031
708038
708039
708045
708058
708059
708077
708080
708087
708088
708098
708099
708111
708113
708115
708139
708148
708149
708160
708166
708167
708173
708175
708185
708197
708199
708202
708207
708224
708248
708255
708259
708262
708266
708268
708275
708285
708299
708320
708336
708337
708351
708357
708367
708389
708399
708401
708448
708464
708504
708553
708557
708569
708672
708741
708746
708768
708794
708877
708894
708903
708934
708968
709043
709053
709116
709635
709944
710016
710017
710051
710059
710100
710121
710127
710149
710171
710189
710210
710215
710237
710259
710265
710276
710298
710303
710314
710322
710345
710349
710360
710379
710385
710397
710401
710410
710419
710446
710465
710473
710479
710486
710504
710508
710535
710669
710680
710708
710709
710781
710795
710801
710823
710839
710855
710859
710860
710877
710908
710925
710930
710945
710948
710961
710977
710993
711000
711002
711008
711029
711047
711048
711050
711070
711074
711075
711078
711101
711108
711123
711126
711130
711134
711164
711171
711172
711174
711177
711184
711187
711196
711204
711208
711259
711263
711272
711291
711298
711300
711302
711310
711331
711344
711369
711381
711396
711421
711461
711470
711471
711483
711489
711492
711509
711531
711546
711554
711558
711564
711585
711605
711611
711624
711625
711631
711661
711663
711683
711697
711708
711710
711716
711728
711733
711738
711763
711790
711791
711796
711799
711801
711802
711804
711812
711817
711819
711822
711828
711839
711840
711846
711853
711876
711879
711890
711892
711894
711902
711906
711912
711921
711926
711932
711933
711943
711949
711953
711956
711963
711964
711965
711966
711967
711969
711977
711992
712001
712008
712015
712018
712019
712021
712024
712030
712032
712033
712043
712064
712069
712071
712080
712083
712085
712096
712097
712098
712105
712110
712118
712120
712126
712137
712143
712144
712152
712156
712157
712159
712161
712163
712170
712171
712185
712202
712203
712205
712216
712231
712232
712238
712239
712259
712269
712273
712285
712292
712298
712300
712341
712373
712411
712413
712439
712481
712485
712488
712522
712523
712526
712529
712531
712555
712570
712578
712610
712615
712629
712648
712649
712677
712690
712704
712707
712710
712725
712733
712737
712769
712775
712811
712814
712819
712850
712854
712856
712891
712905
712922
713013
713076
713091
713157
713167
713233
713239
713242
713253
713334
713374
713391
713413
713441
713461
713464
713473
713490
713531
713534
713541
713543
713554
713576
713607
713609
713611
713638
713641
713649
713654
713720
713723
713827
713876
713907
713963
713984
714030
714056
714067
714097
714125
714174
714200
714217
714261
714288
714316
714348
714423
714425
714480
714645
714695
714703
714779
714785
714791
714868
714875
714880
714935
714951
715005
715041
715044
715047
715132
715141
715180
715196
715201
715223
715246
715317
715329
715377
715403
715413
715499
715528
715535
715583
715586
715614
715629
715668
715671
715673
715677
715698
715717
715718
715721
715750
715755
715761
715777
715779
715780
715801
715802
715839
715875
715879
715880
715889
715922
715931
715932
715942
715948
715950
715960
715970
715989
715998
716005
716007
716034
716044
716048
716050
716062
716067
716068
716091
716092
716097
716105
716109
716121
716130
716138
716159
716166
716184
716197
716227
716265
716314
716328
716377
716381
716406
716409
716425
716432
716447
716463
716469
716476
716484
716487
716492
716493
716499
716503
716504
716507
716509
716513
716515
716524
716535
716547
716552
716556
716558
716562
716563
716570
716589
716590
716593
716600
716612
716622
716625
716644
716673
716678
716689
716697
716715
716721
716723
716730
716746
716756
716786
716788
716798
716803
716813
716832
716858
716867
716892
716931
716936
716958
717000
717009
717014
717020
717022
717027
717028
717037
717056
717058
717083
717095
717106
717108
717117
717129
717133
717137
717148
717160
717165
717172
717177
717182
717186
717188
717190
717199
717206
717207
717212
717238
717247
717248
717260
717269
717273
717275
717278
717281
717310
717320
717325
717332
717350
717352
717357
717422
717427
717433
717436
717446
717456
717457
717474
717485
717503
717505
717514
717529
717552
717590
717591
717608
717630
717646
717671
717745
717758
717783
717785
717797
717802
717806
717821
717840
717844
717848
717859
717862
717880
717901
717937
717969
717984
717987
718001
718002
718024
718034
718035
718074
718103
718123
718128
718157
718160
718167
718178
718181
718202
718206
718241
718252
718264
718265
718267
718272
718284
718337
718360
718403
718409
718418
718425
718434
718458
718487
718569
718600
718605
718611
718619
718674
718691
718719
718797
718931
718949
719000
719003
719009
719014
719019
719073
719075
719080
719085
719089
719106
719110
719125
719151
719157
719183
719235
719244
719252
719308
719348
719350
719371
719427
719461
719619
719863
719947
719948
720039
720179
720258
720269
720355
720374
720377
720414
720437
720471
720487
720490
720494
720527
720531
720556
720558
720571
720574
720615
720645
720655
720657
720703
720719
720722
720746
720756
720760
720774
720781
720833
720835
720849
720850
720863
720876
720938
720940
721024
721026
721027
721040
721087
721091
721110
721114
721118
721144
721188
721195
721197
721199
721219
721223
721232
721242
721253
721258
721274
721276
721280
721281
721285
721305
721306
721365
721385
721408
721419
721433
721437
721442
721451
721465
721470
721474
721484
721486
721490
721497
721498
721529
721534
721545
721558
721571
721573
721577
721578
721585
721610
721613
721614
721620
721621
721626
721636
721651
721654
721662
721668
721686
721694
721696
721701
721703
721706
721707
721740
721746
721763
721765
721768
721774
721802
721807
721810
721814
721815
721839
721844
721864
721865
721870
721876
721882
721899
721901
721909
721911
721919
721926
721928
721949
721950
721969
721987
721988
722016
722027
722031
722043
722046
722064
722080
722092
722107
722109
722113
722117
722132
722133
722156
722182
722183
722196
722211
722231
722253
722258
722259
722267
722277
722312
722321
722322
722325
722332
722347
722352
722359
722363
722366
722380
722385
722387
722402
722420
722434
722447
722455
722457
722466
722472
722476
722477
722481
722511
722513
722528
722539
722552
722560
722574
722594
722596
722601
722604
722664
722667
722669
722711
722714
722729
722730
722741
722747
722775
722779
722782
722785
722801
722816
722857
722860
722880
722888
722918
722924
722949
722955
722968
722999
723009
723010
723015
723050
723063
723073
723076
723080
723103
723135
723146
723151
723169
723181
723191
723199
723200
723237
723251
723266
723270
723275
723294
723372
723410
723435
723450
723493
723512
723594
723670
723672
723718
723872
723942
724045
724059
724145
724163
724231
724236
724292
724294
724300
724314
724377
724453
724457
724480
724481
724507
724511
724527
724531
724539
724543
724575
724599
724618
724638
724666
724686
724701
724706
724723
724745
724746
724751
724827
724839
724843
724858
724868
724877
724894
724908
724909
724937
724950
724975
724989
724991
724995
725023
725038
725045
725063
725101
725102
725119
725138
725152
725181
725188
725200
725219
725221
725226
725232
725234
725236
725240
725254
725288
725289
725312
725316
725318
725319
725321
725329
725336
725350
725367
725400
725405
725406
725407
725408
725411
725413
725414
725415
725419
725423
725428
725431
725432
725436
725437
725438
725442
725451
725455
725482
725484
725489
725496
725498
725500
725501
725504
725512
725515
725518
725520
725523
725529
725537
725545
725561
725564
725565
725567
725571
725578
725584
725588
725596
725599
725603
725608
725610
725624
725636
725642
725644
725651
725655
725660
725676
725680
725690
725705
725706
725707
725715
725725
725747
725748
725749
725750
725751
725761
725766
725771
725785
725786
725789
725831
725832
725834
725838
725852
725864
725867
725869
725884
725890
725900
725918
725921
725927
725946
725958
725966
725976
726000
726032
726050
726053
726057
726060
726065
726072
726081
726083
726087
726088
726097
726099
726104
726114
726130
726144
726163
726165
726167
726176
726190
726193
726199
726208
726210
726222
726227
726232
726238
726239
726242
726246
726251
726253
726277
726279
726287
726303
726304
726308
726313
726317
726318
726321
726330
726334
726336
726343
726353
726354
726365
726391
726396
726399
726418
726421
726463
726490
726509
726515
726523
726525
726550
726584
726586
726589
726594
726598
726609
726633
726654
726676
726710
726730
726754
726762
726766
726769
726776
726788
726806
726810
726834
726835
726843
726845
726846
726851
726859
726880
726900
726907
726921
726923
726924
726929
726961
726974
726988
727015
727018
727047
727052
727055
727064
727083
727089
727090
727094
727098
727102
727104
727108
727109
727117
727122
727126
727141
727144
727153
727157
727158
727159
727161
727164
727169
727180
727181
727182
727191
727192
727199
727208
727222
727230
727236
727250
727260
727263
727266
727272
727278
727280
727286
727287
727294
727297
727299
727307
727311
727313
727314
727316
727319
727322
727327
727329
727332
727337
727339
727349
727354
727356
727363
727377
727378
727381
727386
727396
727404
727406
727407
727418
727419
727444
727452
727465
727472
727481
727482
727483
727486
727488
727491
727492
727498
727504
727506
727513
727520
727529
727530
727534
727546
727583
727593
727600
727604
727605
727610
727613
727625
727644
727676
727684
727753
727754
727769
727803
727810
727811
727815
727823
727827
727846
727877
727878
727880
727890
727900
727905
727910
727915
727920
727923
727955
727966
727972
727982
727991
727993
728044
728045
728049
728054
728063
728100
728110
728111
728130
728143
728150
728155
728158
728162
728174
728200
728201
728210
728213
728216
728230
728231
728235
728237
728257
728272
728277
728286
728293
728310
728323
728339
728348
728360
728363
728390
728403
728419
728441
728453
728488
728507
728513
728520
728552
728607
728611
728612
728613
728637
728686
728692
728703
728704
729756
729773
729812
729859
729879
729891
729966
730010
730021
730034
730094
730120
730334
730360
730469
730472
730494
730511
730549
730575
730777
731221
731290
731291
731413
731419
731420
731425
731435
731465
731487
731492
731496
731499
731519
731534
731546
731558
731562
731593
731602
731616
731665
731786
731856
731862
731897
731970
731986
731989
732040
732070
732097
732117
732160
732161
732179
732205
732223
732255
732256
732277
732289
732313
732314
732364
732385
732407
732412
732473
732495
732519
732567
732603
732611
732633
732648
732651
732700
732703
732705
732724
732767
732772
732786
732813
732814
732825
732845
732856
732865
732881
732895
732904
732907
732949
732957
732971
732979
732994
733042
733045
733050
733062
733075
733125
733144
733167
733183
733242
733332
733365
733374
733432
733520
733524
733571
733615
733689
733735
733837
733917
734022
734099
734134
734247
734284
734351
734366
734493
734534
734555
734630
734677
734710
734712
734714
734763
734795
734837
734841
734857
734870
734882
734886
734913
734929
734956
734971
734977
735037
735044
735045
735049
735059
735069
735107
735124
735128
735129
735135
735149
735152
735181
735188
735205
735214
735221
735222
735225
735237
735245
735257
735268
735271
735275
735284
735292
735297
735302
735304
735307
735318
735326
735328
735332
735334
735358
735360
735361
735366
735374
735381
735396
735405
735413
735416
735432
735437
735441
735449
735451
735454
735483
735485
735487
735505
735506
735516
735520
735530
735538
735539
735553
735573
735574
735577
735587
735606
735608
735611
735616
735627
735628
735639
735646
735657
735658
735662
735690
735697
735704
735714
735722
735727
735728
735729
735735
735739
735742
735765
735769
735774
735777
735778
735789
735793
735796
735798
735813
735818
735836
735839
735840
735843
735845
735848
735854
735862
735868
735882
735884
735888
735893
735895
735908
735909
735928
735939
735959
735960
735965
735969
735973
735975
735977
735985
735989
735994
735996
735998
736009
736013
736017
736023
736026
736027
736028
736030
736055
736056
736058
736059
736062
736076
736077
736079
736081
736092
736094
736095
736098
736103
736109
736110
736114
736115
736124
736130
736141
736143
736144
736150
736152
736155
736158
736162
736163
736167
736170
736172
736174
736183
736185
736186
736188
736189
736192
736198
736203
736207
736213
736229
736230
736231
736236
736240
736241
736248
736250
736253
736259
736263
736266
736271
736276
736277
736283
736284
736289
736298
736302
736303
736307
736309
736317
736318
736320
736321
736328
736337
736338
736343
736344
736348
736354
736359
736366
736370
736373
736378
736380
736382
736388
736389
736391
736393
736394
736396
736400
736401
736409
736413
736415
736416
736421
736422
736427
736433
736437
736438
736442
736453
736457
736459
736465
736467
736472
736474
736475
736477
736486
736487
736488
736489
736490
736505
736506
736507
736510
736520
736522
736525
736526
736529
736530
736532
736535
736537
736541
736548
736551
736552
736558
736562
736565
736566
736576
736578
736587
736592
736597
736603
736608
736610
736625
736634
736642
736643
736652
736653
736656
736659
736663
736680
736684
736685
736686
736688
736701
736704
736706
736713
736727
736733
736738
736739
736743
736744
736749
736772
736775
736785
736786
736787
736795
736796
736798
736799
736800
736803
736804
736805
736809
736810
736820
736821
736824
736825
736831
736835
736839
736843
736845
736846
736850
736851
736855
736858
736862
736870
736873
736874
736876
736883
736887
736889
736890
736891
736895
736897
736898
736899
736906
736907
736910
736911
736913
736922
736923
736926
736927
736929
736935
736939
736940
736942
736947
736953
736958
736959
736966
736969
736971
736977
736991
736995
736996
737015
737023
737025
737027
737035
737037
737040
737042
737049
737060
737063
737064
737071
737075
737095
737103
737112
737113
737115
737116
737121
737126
737136
737156
737159
737160
737163
737164
737171
737173
737177
737190
737192
737194
737207
737215
737216
737219
737224
737229
737230
737236
737239
737247
737249
737254
737258
737267
737273
737277
737284
737286
737294
737297
737308
737313
737321
737323
737324
737326
737337
737341
737345
737347
737349
737352
737368
737371
737375
737390
737397
737399
737404
737406
737412
737415
737416
737422
737425
737432
737449
737464
737467
737469
737476
737478
737481
737485
737489
737492
737500
737505
737511
737533
737535
737551
737558
737559
737561
737562
737563
737569
737571
737574
737583
737595
737600
737615
737625
737630
737636
737643
737648
737655
737677
737681
737685
737686
737709
737713
737717
737721
737729
737732
737740
737745
737751
737754
737768
737771
737772
737784
737791
737792
737794
737816
737825
737828
737839
737846
737852
737853
737857
737863
737864
737881
737883
737888
737890
737892
737903
737910
737912
737916
737918
737919
737924
737929
737930
737942
737950
737953
737954
737957
737961
737991
737994
738000
738002
738003
738018
738027
738028
738029
738031
738055
738058
738064
738067
738074
738081
738121
738129
738135
738155
738167
738173
738235
738236
738244
738247
738249
738253
738256
738271
738284
738316
738327
738329
738354
738363
738370
738378
738380
738385
738394
738396
738408
738418
738422
738426
738435
738445
738452
738477
738478
738481
738483
738490
738496
738510
738518
738521
738536
738544
738557
738563
738567
738578
738579
738581
738582
738589
738606
738612
738613
738623
738626
738630
738632
738640
738654
738671
738678
738683
738696
738714
738715
738720
738731
738745
738755
738763
738795
738802
738809
738811
738817
738840
738945
738986
739000
739069
739108
739115
739142
739149
739150
739214
739245
739248
739287
739322
739335
739357
739429
739522
739574
739579
739606
739613
739617
739648
739657
739659
739660
739683
739694
739709
739722
739725
739730
739744
739766
739775
739783
739796
739797
739810
739840
739846
739885
739897
739929
739931
739961
740026
740033
740095
740102
740119
740120
740141
740164
740166
740181
740191
740193
740205
740207
740226
740233
740236
740237
740239
740248
740252
740258
740261
740268
740279
740280
740283
740287
740295
740296
740302
740305
740306
740308
740309
740313
740322
740324
740341
740352
740354
740355
740358
740371
740372
740383
740385
740398
740401
740403
740404
740409
740412
740419
740423
740428
740442
740450
740469
740471
740474
740479
740480
740486
740489
740496
740503
740504
740515
740527
740530
740545
740546
740549
740555
740579
740588
740619
740623
740627
740630
740631
740643
740651
740669
740684
740686
740697
740707
740716
740734
740739
740752
740766
740769
740771
740779
740791
740806
740809
740827
740844
740850
740855
740859
740874
740879
740883
740887
740902
740918
740921
740949
740952
740956
740968
740970
740973
740980
740992
740993
740997
741001
741011
741014
741058
741060
741061
741071
741080
741091
741103
741107
741112
741124
741147
741165
741174
741179
741211
741224
741226
741228
741239
741259
741261
741285
741291
741306
741326
741354
741362
741363
741364
741391
741434
741444
741448
741461
741489
741490
741516
741576
741611
741619
741640
741657
741758
741763
741771
741825
741837
741841
741849
741877
741894
741906
741925
741926
741927
741941
741943
741954
741967
741974
741990
741994
742003
742053
742061
742069
742076
742107
742108
742114
742116
742132
742134
742140
742150
742152
742181
742184
742188
742190
742191
742193
742201
742206
742211
742216
742234
742251
742254
742270
742274
742278
742283
742288
742316
742324
742332
742336
742344
742358
742360
742377
742385
742387
742391
742394
742402
742406
742433
742470
742497
742502
742507
742508
742522
742527
742541
742542
742545
742557
742564
742573
742589
742590
742608
742616
742647
742649
742664
742666
742706
742806
742811
742847
742914
742924
742952
742975
742999
743006
743022
743095
743103
743211
743224
743238
743241
743244
743249
743255
743282
743323
743330
743333
743390
743404
743418
743430
743435
743486
743500
743528
743535
743575
743581
743599
743648
743698
743754
743762
743773
743778
743802
743825
743831
743846
743850
743871
743898
743946
744399
744408
744410
744588
744615
744705
744807
744892
744923
745007
745089
745178
745261
745279
745377
745400
745465
745574
745667
745766
745856
745931
746027
746033
746112
746138
746141
746154
746187
746203
746223
746252
746253
746269
746288
746305
746317
746333
746339
746352
746372
746380
746400
746416
746420
746429
746448
746462
746469
746470
746480
746486
746505
746511
746517
746554
746582
746583
746588
746594
746604
746606
746607
746609
746614
746626
746671
746675
746686
746691
746734
746767
746814
747281
747306
747377
747385
747403
747431
747448
747449
747498
747511
747516
747518
747564
747577
747604
747624
747750
747762
747773
747792
747809
747819
747829
747831
747835
747863
747867
747875
747909
747916
747927
747936
747937
747944
747987
748030
748063
748126
748159
748272
748301
748386
748409
748456
748471
748527
748550
748587
748721
748729
748767
748772
748774
748845
748851
748854
748860
748865
748904
748917
748927
748929
748973
748982
748995
749018
749063
749133
749221
749225
749307
749394
749396
749413
749476
749484
749485
749544
749557
749573
749613
749624
749650
749666
749685
749689
749691
749711
749712
749715
749727
749737
749748
749791
749816
749823
749828
749900
749901
749913
749931
749937
749991
750002
750006
750023
750039
750051
750071
750106
750117
750136
750184
750200
750238
750243
750280
750322
750360
750399
750420
750452
750462
750498
750540
750763
751263
751317
751418
751477
751480
751506
751527
751573
751774
751934
752167
752200
752209
752273
752278
752297
752300
752345
752356
752365
752366
752380
752434
752435
752437
752442
752449
752464
752510
752526
752572
752611
752651
752676
752727
752750
752767
752789
752875
752934
752964
752971
752977
752978
752986
753038
753051
753056
753066
753070
753088
753118
753120
753127
753132
753178
753207
753228
753281
753283
753294
753298
753351
753403
753423
753447
753458
753462
753475
753486
753491
753498
753533
753550
753556
753561
753600
753606
753614
753667
753673
753680
753688
753716
753755
753771
753819
753825
753837
753842
754008
754089
754128
754139
754221
754261
754283
754307
754447
754458
754514
754547
754650
754676
754766
754779
754856
754910
755124
755390
755631
755718
755898
755912
755949
756000
756078
756096
756104
756164
756225
756226
756246
756256
756291
756300
756325
756359
756362
756400
756472
756489
756505
756514
756532
756555
756597
756638
756649
756654
756669
756733
756734
756738
756756
756769
756774
756819
756840
756863
756865
756875
756886
756894
756897
756918
756932
756941
756949
756959
756986
757034
757036
757038
757070
757080
757097
757103
757121
757140
757142
757147
757158
757164
757197
757204
757207
757210
757225
757238
757240
757265
757282
757283
757288
757303
757310
757325
757335
757338
757340
757342
757348
757351
757361
757393
757394
757402
757407
757416
757421
757435
757445
757449
757452
757453
757459
757462
757470
757471
757476
757477
757485
757486
757492
757495
757497
757500
757523
757529
757537
757538
757542
757554
757557
757564
757566
757568
757569
757571
757573
757575
757576
757586
757588
757589
757603
757604
757606
757609
757611
757617
757618
757622
757623
757630
757631
757633
757634
757637
757643
757644
757645
757647
757648
757651
757664
757665
757669
757670
757679
757681
757683
757693
757694
757695
757712
757714
757715
757717
757718
757725
757727
757731
757735
757739
757741
757743
757745
757753
757755
757759
757761
757768
757770
757771
757787
757792
757793
757794
757798
757799
757804
757810
757830
757832
757835
757838
757841
757845
757847
757848
757849
757857
757859
757866
757867
757879
757884
757888
757893
757896
757897
757906
757911
757916
757920
757922
757930
757931
757933
757937
757940
757944
757948
757949
757968
757985
757993
757998
758000
758001
758007
758010
758011
758017
758019
758023
758025
758028
758030
758036
758043
758047
758053
758058
758062
758065
758069
758074
758078
758079
758080
758085
758094
758097
758106
758110
758114
758116
758117
758118
758119
758126
758129
758145
758148
758150
758155
758159
758168
758169
758170
758173
758174
758176
758177
758180
758181
758187
758191
758199
758211
758212
758214
758219
758222
758223
758227
758229
758230
758234
758236
758240
758241
758242
758251
758252
758258
758265
758268
758270
758274
758276
758279
758280
758286
758290
758293
758295
758296
758300
758303
758307
758308
758309
758316
758319
758320
758321
758328
758336
758337
758339
758349
758351
758354
758355
758362
758363
758366
758368
758369
758376
758377
758378
758380
758381
758382
758383
758386
758387
758392
758394
758398
758407
758409
758418
758419
758422
758423
758425
758427
758443
758444
758445
758448
758451
758455
758456
758459
758468
758474
758478
758479
758488
758492
758497
758502
758504
758509
758510
758522
758525
758528
758533
758534
758539
758544
758545
758547
758548
758560
758572
758574
758577
758582
758593
758597
758604
758616
758617
758618
758619
758633
758645
758665
758667
758674
758677
758693
758695
758697
758698
758712
758717
758725
758732
758746
758752
758758
758795
758804
758810
758829
758849
758876
758889
758898
758915
758917
758960
758962
758980
758984
758999
759013
759014
759019
759028
759030
759032
759033
759056
759067
759074
759084
759091
759092
759093
759100
759107
759110
759119
759120
759124
759126
759129
759131
759147
759157
759161
759164
759165
759167
759172
759177
759180
759181
759190
759191
759194
759195
759196
759198
759199
759202
759203
759208
759215
759221
759222
759245
759252
759258
759260
759261
759264
759265
759266
759267
759271
759272
759273
759274
759282
759283
759286
759290
759293
759296
759297
759300
759302
759307
759314
759319
759321
759333
759334
759341
759342
759343
759344
759347
759348
759350
759352
759361
759367
759371
759372
759378
759390
759391
759394
759397
759398
759401
759403
759404
759407
759410
759413
759417
759427
759430
759432
759435
759440
759441
759452
759455
759456
759458
759466
759469
759472
759474
759477
759480
759482
759483
759485
759486
759490
759492
759495
759497
759499
759501
759507
759508
759510
759512
759516
759522
759529
759539
759547
759550
759553
759554
759558
759559
759560
759562
759563
759570
759573
759574
759587
759589
759595
759596
759600
759607
759612
759619
759621
759626
759627
759631
759635
759636
759637
759648
759650
759654
759655
759656
759658
759663
759665
759667
759670
759672
759679
759687
759689
759690
759691
759697
759699
759714
759716
759717
759724
759725
759728
759731
759736
759738
759740
759742
759745
759747
759749
759759
759762
759763
759776
759781
759784
759786
759795
759798
759799
759800
759803
759808
759812
759815
759816
759826
759828
759829
759832
759841
759845
759852
759854
759856
759862
759863
759866
759875
759877
759880
759884
759888
759893
759895
759896
759897
759901
759902
759903
759904
759905
759907
759910
759911
759913
759917
759920
759921
759922
759926
759928
759936
759942
759946
759947
759949
759953
759956
759960
759961
759966
759967
759968
759970
759971
759972
759973
759974
759978
759979
759981
759982
759983
759984
759985
759986
759991
759996
759997
759999
760000
760001
760007
760009
760010
760012
760014
760018
760019
760021
760022
760025
760027
760028
760030
760031
760032
760041
760042
760043
760044
760048
760053
760055
760057
760059
760060
760061
760065
760066
760067
760068
760071
760072
760073
760074
760075
760076
760078
760079
760080
760081
760085
760086
760087
760089
760092
760093
760098
760118
760119
760120
760122
760125
760126
760128
760129
760132
760142
760151
760165
760166
760172
760175
760177
760179
760200
760207
760208
760220
760223
760228
760238
760242
760245
760246
760248
760253
760262
760263
760267
760277
760294
760301
760310
760311
760323
760330
760337
760350
760351
760354
760380
760388
760397
760403
760414
760420
760435
760441
760447
760448
760452
760453
760454
760463
760465
760467
760472
760483
760518
760520
760525
760540
760573
760578
760592
760594
760598
760599
760605
760623
760625
760663
760668
760675
760691
760708
760711
760725
760738
760741
760743
760746
760753
760765
760774
760777
760798
760804
760814
760820
760841
760855
760860
760867
760883
760897
760898
760914
760920
760935
760956
760959
760965
760966
760971
760979
760991
760995
761003
761018
761019
761029
761031
761037
761042
761043
761048
761049
761057
761063
761067
761081
761098
761100
761113
761115
761118
761119
761125
761128
761132
761136
761137
761139
761146
761152
761159
761162
761172
761174
761176
761183
761186
761190
761199
761203
761215
761217
761219
761221
761226
761229
761230
761231
761242
761246
761248
761253
761257
761275
761279
761286
761292
761294
761297
761299
761302
761305
761312
761318
761319
761320
761326
761328
761340
761350
761361
761371
761402
761410
761416
761418
761422
761455
761458
761459
761467
761491
761505
761529
761532
761583
761585
761590
761603
761662
761703
761831
761867
761900
761927
761928
761950
761976
761994
762003
762021
762029
762047
762052
762075
762090
762110
762112
762119
762123
762159
762170
762206
762210
762214
762218
762260
762287
762301
762328
762360
762377
762528
762533
762633
762698
762818
762967
763051
763131
763182
763203
763257
763260
763272
763283
763310
763396
763413
763627
763856
763860
763919
763939
763997
764003
764004
764017
764080
764132
764143
764150
764188
764251
764321
764328
764333
764444
764508
764511
764544
764560
764607
764614
764668
764694
764715
764741
765056
765079
765158
765173
765189
765245
765264
765284
765297
765316
765347
765352
765372
765379
765390
765410
765412
765442
765458
765469
765475
765476
765485
765490
765493
765505
765545
765560
765579
765588
765597
765648
765684
765767
765777
765834
765873
765876
765911
766020
766037
766112
766145
766152
766180
766248
766292
766386
766667
766797
767003
767209
767360
767498
767564
767578
767606
767710
767746
767778
767793
767811
767812
767828
767835
767866
767880
767893
767915
767916
767917
767918
767947
767949
767952
767964
768025
768036
768041
768092
768095
768125
768127
768175
768204
768210
768321
768383
768386
768412
768502
768509
768518
768578
768631
768637
768686
768714
768722
768740
768752
768767
768806
768813
768891
768894
768895
768918
768930
768931
768932
768954
768969
768973
768989
769003
769013
769016
769028
769038
769050
769051
769053
769055
769056
769057
769060
769085
769088
769089
769091
769092
769096
769104
769105
769108
769109
769117
769130
769133
769135
769137
769147
769152
769161
769172
769174
769177
769193
769196
769204
769207
769208
769209
769215
769218
769223
769231
769240
769245
769249
769251
769255
769259
769263
769272
769274
769276
769278
769280
769285
769291
769295
769296
769301
769304
769310
769313
769315
769316
769322
769324
769326
769329
769330
769331
769334
769336
769355
769357
769359
769365
769368
769369
769376
769381
769382
769396
769399
769406
769407
769414
769415
769418
769422
769428
769429
769440
769450
769451
769454
769466
769470
769472
769474
769482
769484
769492
769493
769497
769500
769505
769508
769510
769512
769514
769520
769522
769530
769536
769543
769544
769545
769546
769548
769555
769558
769560
769564
769565
769568
769573
769579
769588
769593
769603
769617
769619
769620
769622
769623
769627
769633
769643
769649
769650
769668
769670
769672
769679
769685
769686
769697
769702
769704
769706
769721
769723
769724
769728
769732
769733
769734
769742
769748
769753
769754
769756
769757
769761
769763
769767
769768
769780
769790
769792
769795
769796
769798
769799
769802
769805
769808
769810
769815
769822
769823
769825
769826
769827
769828
769838
769853
769854
769856
769860
769862
769867
769880
769891
769894
769895
769896
769901
769903
769905
769910
769915
769924
769925
769927
769931
769965
769972
769976
769984
769987
769989
769994
769997
770001
770029
770037
770042
770048
770059
770067
770080
770094
770144
770165
770178
770227
770260
770264
770272
770287
770331
770340
770347
770369
770398
770417
770424
770444
770467
770472
770473
770474
770480
770492
770538
770547
770563
770581
770601
770602
770647
770648
770651
770655
770660
770695
770705
770714
770726
770739
770740
770741
770745
770749
770752
770754
770766
770768
770773
770786
770795
770806
770810
770819
770824
770833
770837
770845
770876
770877
770878
770882
770884
770900
770905
770910
770920
770923
770941
770955
770968
770989
771042
771046
771069
771394
771422
771462
771599
771672
771688
771767
771778
771897
771920
771945
771988
772094
772124
772130
772137
772148
772243
772263
772272
772296
772311
772334
772383
772507
772514
772523
772594
772602
772603
772659
772689
772732
772782
772784
772855
772869
772875
772883
772895
772898
772903
772910
772925
772944
772947
772956
773005
773036
773050
773070
773083
773089
773092
773096
773098
773136
773139
773173
773178
773180
773185
773193
773212
773223
773259
773270
773282
773284
773287
773311
773327
773360
773401
773403
773414
773436
773449
773500
773502
773537
773538
773572
773588
773590
773604
773657
773677
773678
773692
773695
773783
773859
773872
773891
773956
773963
773979
774068
774151
774267
774523
774534
774603
774705
774804
774816
774969
774994
774995
775059
775084
775092
775099
775138
775152
775169
775190
775193
775210
775212
775233
775264
775265
775271
775275
775290
775341
775343
775344
775346
775364
775366
775367
775380
775400
775414
775420
775428
775442
775443
775444
775458
775470
775471
775479
775485
775491
775499
775503
775512
775539
775557
775559
775560
775577
775596
775608
775619
775627
775640
775773
775928
775984
776030
776059
776083
776103
776123
776178
776250
776305
776382
776414
776487
776493
776621
776739
776745
776823
776849
777044
777299
777385
777408
777413
777420
777425
777453
777481
777494
777520
777557
777563
777564
777568
777570
777571
777575
777577
777588
777594
777612
777625
777643
777648
777650
777655
777658
777675
777676
777683
777697
777699
777700
777706
777707
777712
777716
777719
777728
777732
777734
777737
777741
777742
777745
777747
777757
777758
777764
777765
777767
777782
777803
777805
777810
777836
777837
777843
777844
777846
777849
777853
