71424
71425
71427
71428
71431
71433
71434
71437
71438
71439
71442
71450
71451
71452
71457
71459
71461
71462
71466
71470
71473
71474
71478
71479
71482
71484
71499
71500
71501
71505
71507
71512
71514
71519
71528
71533
71537
71541
71542
71546
71547
71553
71554
71556
71557
71558
71574
71579
71584
71587
71591
71593
71594
71600
71601
71604
71605
71606
71614
71615
71621
71623
71625
71628
71629
71638
71644
71647
71649
71660
71661
71671
71676
71679
71690
71694
71695
71718
71722
71724
71736
71742
71743
71754
71758
71759
71769
71773
71777
71781
71783
71785
71786
71787
71788
71789
71790
71798
71803
71805
71810
71824
71828
71830
71834
71852
71853
71857
71859
71870
71883
71887
71893
71896
71900
71901
71906
71908
71910
71911
71914
71915
71918
71925
72184
72186
72187
72188
72196
72197
72198
72218
72219
72232
72248
72249
72250
72252
72258
72317
72325
72336
72340
72345
72352
72353
72363
72365
72385
72392
72411
72412
72413
72415
72416
72418
72419
72424
72428
72442
72453
72460
72468
72469
72471
72472
72473
72475
72487
72488
72491
72498
72503
72522
72526
72538
72554
72560
72572
72587
72591
72594
72595
72605
72611
72613
72614
72624
72632
72633
72634
72642
72664
72666
72675
72689
72690
72694
72696
72698
72702
72703
72710
72714
72717
72718
72721
72724
72731
72735
72739
72740
72743
72753
72757
72762
72763
72765
72768
72770
72776
72779
72781
72787
72788
72793
72797
72798
72800
72804
72814
72826
72830
72842
72846
72851
72858
72867
72886
72898
72902
72906
72909
72912
72917
72923
72928
72933
72937
72941
72944
72946
72948
72951
72953
72956
72961
72962
72963
72964
72965
72971
72972
72973
72977
72980
72983
72985
72988
72991
72992
72993
72996
73006
73009
73013
73021
73027
73030
73032
73035
73051
73056
73058
73078
73082
73083
73087
73089
73091
73093
73094
73095
73097
73100
73105
73110
73111
73112
73113
73116
73125
73130
73136
73137
73139
73142
73146
73150
73158
73163
73164
73167
73168
73176
73179
73192
73193
73195
73196
73197
73198
73200
73201
73202
73205
73208
73209
73213
73214
73223
73225
73228
73233
73234
73239
73242
73251
73254
73258
73269
73272
73280
73283
73292
73298
73305
73307
73309
73313
73315
73325
73326
73328
73329
73337
73338
73340
73343
73347
73355
73365
73375
73377
73378
73388
73390
73391
73393
73397
73399
73400
73403
73410
73413
73416
73417
73420
73425
73426
73436
73439
73440
73445
73447
73449
73455
73458
73459
73471
73479
73483
73484
73486
73489
73491
73494
73495
73505
73506
73512
73514
73515
73516
73521
73532
73533
73534
73538
73547
73559
73560
73577
73578
73583
73585
73590
73593
73600
73601
73608
73609
73612
73613
73622
73623
73628
73630
73633
73634
73637
73644
73648
73649
73650
73652
73658
73667
73674
73675
73676
73680
73681
73682
73685
73694
73697
73699
73700
73701
73704
73719
73721
73730
73740
73750
73758
73768
73777
73779
73780
73781
73782
73784
73802
73803
73808
73810
73812
73813
73815
73816
73817
73818
73819
73822
73829
73834
73836
73844
73846
73847
73848
73850
73852
73854
73856
73858
73861
73864
73866
73868
73871
73873
73874
73878
73880
73881
73888
73889
73894
73896
73901
73903
73907
73911
73913
73915
73918
73922
73932
73937
73940
73945
73946
73948
73957
73958
73961
73966
73968
73971
73981
73983
73984
73992
74005
74007
74014
74017
74025
74027
74028
74029
74031
74032
74033
74036
74037
74040
74042
74059
74065
74067
74069
74073
74075
74076
74078
74081
74083
74085
74089
74091
74097
74108
74120
74122
74124
74125
74127
74128
74131
74133
74135
74136
74138
74139
74140
74148
74150
74152
74153
74154
74155
74156
74157
74159
74160
74161
74164
74165
74171
74173
74174
74176
74178
74181
74182
74183
74184
74187
74188
74189
74193
74194
74200
74202
74207
74209
74223
74227
74238
74246
74247
74248
74249
74252
74253
74254
74260
74261
74263
74264
74267
74269
74273
74274
74276
74293
74295
74303
74305
74310
74318
74319
74320
74322
74338
74339
74341
74342
74351
74354
74356
74358
74359
74368
74379
74380
74381
74383
74386
74388
74389
74391
74396
74399
74402
74407
74409
74411
74418
74425
74426
74428
74429
74433
74435
74436
74440
74441
74443
74445
74449
74451
74459
74463
74465
74471
74476
74489
74492
74495
74498
74499
74500
74506
74524
74526
74548
74553
74554
74555
74557
74582
74593
74595
74607
74608
74635
74640
74647
74658
74681
74697
74700
74711
74716
74722
74723
74726
74741
74766
74770
74781
74783
74784
74785
74786
74790
74793
74797
74798
74805
74807
74815
74817
74827
74833
74836
74839
74848
74850
74880
74883
74884
74886
74895
74909
74927
74929
74944
74960
75240
75294
75333
75351
75368
75378
75401
75445
75458
75459
75470
75494
75496
75500
75504
75520
75534
75536
75538
75540
75543
75544
75545
75546
75571
75574
75580
75587
75589
75590
75593
75600
75609
75615
75620
75621
75625
75628
75629
75630
75632
75633
75640
75643
75649
75651
75652
75658
75662
75663
75665
75668
75670
75682
75694
75702
75705
75708
75709
75722
75744
75750
75752
75758
75766
75795
76184
76216
76225
76240
76251
76252
76253
76263
76266
76308
76317
76319
76320
76321
76337
76346
76361
76381
76387
76403
76487
76624
76721
76730
76737
76744
76746
76749
76775
76777
76778
76828
76851
76877
76898
76919
76921
76938
76939
76940
76955
76966
76994
76996
77003
77005
77007
77009
77031
77034
77035
77038
77039
77043
77045
77046
77048
77050
77055
77059
77062
77065
77066
77069
77074
77078
77079
77085
77093
77095
77103
77154
77210
77506
77570
77603
77618
77620
77621
77632
77635
77644
77655
77659
77666
77669
77674
77684
77687
77696
77699
77702
77703
77707
77709
77710
77714
77719
77720
77721
77733
77737
77740
77745
77750
77751
77752
77754
77757
77758
77769
77770
77772
77773
77774
77776
77784
77785
77791
77794
77798
77799
77809
77819
77836
77837
77840
77897
77922
77935
77944
77945
77957
77958
77959
77961
77962
77963
77964
77965
77966
77967
77968
77970
77972
77973
77974
77975
77977
77978
77979
77987
77988
77989
77991
77992
77993
77994
77995
77996
78000
78005
78006
78008
78012
78013
78015
78017
78021
78025
78027
78037
78040
78052
78054
78056
78059
78069
78071
78075
78076
78080
78087
78088
78093
78094
78096
78097
78099
78109
78111
78130
78145
78147
78149
78191
78246
78247
78256
78260
78271
78273
78275
78276
78277
78292
78293
78294
78297
78299
78300
78304
78307
78309
78311
78312
78313
78317
78322
78323
78326
78330
78333
78337
78339
78342
78344
78352
78353
78357
78358
78359
78360
78368
78374
78380
78392
78403
78404
78427
78439
78452
78462
78463
78464
78466
78467
78472
78476
78488
78505
78520
78525
78527
78531
78538
78539
78544
78546
78553
78560
78569
78579
78582
78584
78588
78592
78595
78609
78615
78617
78629
78655
78657
78663
78668
78690
78699
78700
78704
78707
78712
78734
78739
78741
78745
78748
78768
78785
78789
78793
78799
78809
78810
78813
78830
78836
78839
78840
78856
78858
78862
78863
78880
78882
78889
78890
78892
78893
78900
78913
78925
78929
78930
78931
78932
78935
78939
78954
78955
78978
78979
78989
78991
79009
79032
79042
79059
79073
79079
79122
79163
79165
79176
79234
79252
79285
79290
79329
79331
79334
79339
79343
79349
79353
79362
79364
79365
79369
79374
79380
79381
79422
79428
79431
79437
79441
79480
79490
79527
79538
79596
79848
79923
79925
79937
79944
79948
79960
79979
80013
80029
80055
80058
80062
80066
80070
80074
80102
80105
80107
80108
80115
80119
80124
80126
80140
80149
80153
80156
80158
80174
80178
80180
80182
80184
80186
80190
80191
80192
80206
80210
80213
80221
80224
80229
80237
80241
80277
80280
80289
80290
80297
80301
80304
80306
80307
80316
80317
80319
80321
80323
80325
80338
80354
80357
80367
80372
80378
80383
80392
80395
80402
80408
80414
80415
80420
80443
80446
80465
80484
80487
80523
80616
80619
80671
80692
80697
80698
80701
80704
80705
80743
81009
81016
81038
81059
81061
81066
81069
81080
81084
81099
81105
81108
81110
81112
81113
81116
81120
81121
81128
81136
81137
81138
81140
81142
81143
81146
81156
81170
81245
81248
81249
81252
81253
81255
81260
81261
81263
81264
81265
81267
81268
81284
81292
81295
81303
81306
81308
81309
81310
81312
81332
81336
81339
81388
81400
81420
81440
81441
81442
81450
81486
81505
81637
81646
81668
81671
81673
81698
81703
81707
81730
81737
81739
81741
81745
81747
81749
81758
81761
81765
81770
81771
81772
81781
81790
81791
81796
81798
81799
81802
81804
81806
81809
81810
81816
81817
81818
81819
81820
81824
81829
81830
81831
81832
81833
81834
81835
81836
81837
81839
81840
81841
81844
81845
81846
81849
81854
81859
81860
81861
81873
81874
81875
81876
81888
81889
81891
81892
81893
81898
81900
81901
81902
81908
81909
81911
81912
81915
81917
81921
81940
81997
81999
82066
82086
82091
82124
82129
82146
82165
82197
82210
82211
82212
82243
82251
82261
82262
82266
82267
82278
82295
82504
82517
82534
82540
82543
82561
82581
82585
82597
82599
82601
82603
82608
82611
82621
82626
82628
82635
82636
82649
82654
82655
82656
82657
82658
82659
82660
82662
82663
82664
82665
82666
82668
82670
82671
82672
82673
82674
82675
82676
82677
82685
82688
82689
82690
82691
82692
82693
82694
82696
82697
82699
82701
82702
82703
82704
82706
82707
82708
82709
82713
82715
82716
82717
82718
82719
82721
82723
82725
82726
82727
82728
82731
82732
82733
82734
82736
82737
82739
82740
82741
82742
82743
82744
82745
82747
82749
82752
82754
82756
82759
82764
82765
82767
82770
82772
82773
82775
82776
82777
82779
82780
82781
82783
82787
82788
82789
82790
82791
82792
82794
82797
82798
82799
82802
82803
82804
82806
82808
82811
82812
82813
82814
82817
82818
82820
82822
82825
82826
82829
82830
82831
82832
82836
82850
82851
82854
82855
82856
82897
82900
82907
82910
82949
82980
82984
82997
83011
83026
83028
83055
83060
83063
83073
83077
83084
83087
83088
83099
83105
83119
83123
83133
83138
83139
83161
83170
83172
83177
83182
83183
83184
83192
83193
83195
83197
83198
83200
83201
83202
83203
83204
83205
83206
83208
83210
83211
83222
83231
83235
83238
83240
83247
83249
83250
83255
83256
83260
83263
83265
83271
83276
83278
83286
83288
83291
83294
83297
83301
83305
83307
83308
83310
83311
83312
83315
83316
83320
83321
83328
83329
83335
83337
83338
83340
83343
83344
83346
83355
83356
83374
83375
83378
83381
83385
83387
83388
83389
83393
83394
83397
83398
83399
83405
83407
83408
83411
83413
83414
83415
83416
83422
83426
83433
83434
83435
83436
83445
83446
83447
83449
83451
83452
83453
83455
83456
83457
83458
83460
83462
83465
83466
83467
83475
83476
83477
83483
83484
83486
83487
83488
83489
83490
83493
83494
83499
83503
83507
83508
83511
83537
83541
83557
83560
83563
83570
83571
83575
83581
83590
83593
83597
83604
83621
83622
83624
83629
83632
83635
83639
83644
83651
83657
83736
83764
83770
83871
83925
83930
83962
84044
84078
84125
84146
84216
84223
84249
84250
84276
84297
84302
84303
84304
84308
84341
84344
84382
84383
84401
84428
84431
84433
84437
84439
84443
84446
84448
84450
84452
84457
84465
84473
84475
84476
84480
84488
84516
84518
84528
84531
84544
84545
84547
84557
84567
84573
84577
84585
84593
84724
84740
84742
84744
84745
84751
84757
84758
84759
84765
84774
85006
85030
85034
85090
85104
85132
85135
85139
85140
85144
85149
85156
85157
85158
85159
85161
85168
85190
85206
85217
85235
85250
85274
85276
85284
85291
85305
85306
85316
85319
85322
85325
85327
85329
85332
85341
85350
85382
85385
85386
85387
85408
85430
85436
85443
85458
85485
85489
85503
85521
85542
85605
85638
85664
85665
85680
85685
85688
85689
85697
85701
85706
85713
85716
85718
85722
85723
85725
85726
85733
85734
85736
85739
85741
85743
85756
85758
85760
85761
85762
85763
85764
85774
85787
85788
85791
85793
85806
85810
85819
85821
85822
85824
85826
85827
85829
85831
85835
85838
85865
85867
85874
85879
85880
85886
85890
85901
85904
85914
85916
85921
85932
85940
85952
85966
85986
85988
86068
86075
86092
86101
86109
86309
86349
86353
86354
86356
86366
86371
86372
86373
86375
86376
86378
86379
86382
86383
86384
86385
86387
86397
86399
86404
86405
86406
86407
86408
86412
86415
86416
86425
86426
86433
86438
86441
86444
86453
86456
86457
86474
86476
86477
86480
86481
86483
86487
86495
86496
86498
86504
86506
86509
86511
86512
86526
86533
86539
86542
86546
86558
86561
86563
86564
86565
86577
86580
86593
86598
86609
86612
86617
86623
86630
86641
86678
86689
86700
86704
86725
86747
86773
86796
86820
86824
86845
86855
86883
86884
86921
86923
87357
87410
87433
87434
87442
87451
87452
87453
87458
87472
87474
87478
87481
87491
87497
87505
87514
87518
87519
87520
87525
87543
87547
87549
87572
87574
87579
87580
87602
87603
87750
87764
87824
87862
87870
87885
87887
87889
87894
87950
87968
87972
87973
87974
87976
87980
88009
88010
88011
88012
88044
88045
88046
88058
88070
88077
88081
88083
88088
88091
88096
88099
88103
88107
88108
88109
88111
88113
88114
88115
88118
88119
88120
88123
88128
88129
88131
88143
88152
88154
88162
88164
88165
88168
88172
88173
88174
88176
88186
88190
88192
88195
88198
88201
88207
88208
88213
88227
88237
88239
88243
88256
88272
88288
88298
88299
88300
88301
88308
88318
88319
88320
88322
88326
88329
88331
88332
88333
88356
88362
88368
88374
88376
88380
88393
88400
88402
88405
88406
88412
88413
88415
88421
88449
88450
88468
88479
88481
88537
88538
88548
88555
88557
88572
88606
88613
88620
88622
88625
88627
88651
88656
88660
88661
88662
88668
88671
88678
88683
88684
88686
88687
88692
88699
88720
88724
88728
88732
88740
88743
88750
88752
88753
88754
88755
88757
88759
88767
88769
88770
88773
88778
88780
88781
88785
88786
88788
88795
88800
88801
88802
88806
88809
88810
88813
88815
88826
88830
88832
88833
88835
88837
88839
88843
88844
88845
88847
88849
88850
88853
88862
88863
88864
88865
88867
88868
88879
88887
88888
88889
88891
88893
88895
88900
88902
88904
88906
88907
88908
88909
88911
88915
88918
88920
88924
88929
88931
88933
88939
89164
89169
89186
89189
89196
89197
89209
89226
89234
89238
89239
89244
89246
89250
89253
89255
89258
89263
89264
89265
89277
89288
89312
89313
89314
89318
89330
89334
89336
89344
89348
89349
89354
89367
89368
89369
89371
89378
89388
89397
89430
89431
89432
89438
89447
89449
89452
89453
89454
89455
89458
89459
89462
89463
89464
89467
89468
89472
89475
89477
89478
89480
89482
89483
89484
89485
89486
89488
89489
89490
89491
89492
89493
89495
89496
89497
89508
89512
89514
89515
89524
89528
89533
89534
89544
89547
89548
89551
89556
89558
89560
89562
89564
89565
89567
89568
89569
89570
89573
89574
89576
89580
89581
89584
89585
89587
89588
89594
89595
89608
89609
89610
89615
89618
89624
89626
89646
89653
89657
89659
89665
89666
89667
89682
89686
89692
89696
89698
89699
89702
89715
89716
89723
89725
89728
89731
89733
89736
89739
89740
89741
89747
89749
89755
89758
89762
89765
89778
89781
89786
89790
89793
89797
89803
89806
89807
89808
89809
89810
89816
89819
89820
89823
89824
89839
89842
89843
89844
89845
89846
89847
89848
89849
89850
89851
89852
89853
89855
89856
89859
89860
89867
89873
89874
89876
89879
89880
89884
89888
89889
89890
89896
89897
89899
89900
89903
89904
89905
89906
89908
89909
89910
89912
89915
89919
89920
89922
89923
89924
89925
89927
89928
89930
89931
89932
89936
89937
89944
89945
89947
89949
89951
89956
89960
89962
89967
90271
90291
90354
90361
90363
90364
90365
90367
90390
90414
90434
90471
90475
90505
90604
90652
90731
90734
90747
90767
90818
90993
91092
91115
91300
91669
91730
91745
91750
91753
91824
91827
91854
91862
91867
91872
91888
91894
91903
91904
91905
91908
91909
91913
91916
91924
91933
91935
91937
91939
91940
91943
91945
91947
91957
91959
91960
91961
91964
91965
91966
91971
91973
91974
91975
91976
91979
91995
91999
92000
92001
92003
92006
92009
92012
92022
92037
92043
92044
92046
92067
92072
92085
92096
92102
92148
92188
92206
92209
92213
92227
92229
92235
92241
92242
92244
92250
92267
92271
92282
92339
92636
92637
92655
92664
92666
92668
92683
92699
92972
92975
93025
93074
93155
93160
93179
93205
93245
93260
93272
93280
93281
93287
93295
93296
93300
93304
93313
93320
93322
93331
93351
93360
93376
93378
93400
93403
93405
93407
93410
93413
93421
93429
93430
93431
93432
93433
93434
93435
93436
93437
93439
93452
93453
93455
93458
93459
93460
93461
93462
93463
93464
93465
93470
93482
93484
93485
93486
93487
93488
93490
93494
93497
93501
93502
93503
93504
93507
93509
93510
93512
93514
93516
93518
93520
93522
93524
93528
93530
93531
93532
93533
93537
93543
93545
93546
93548
93549
93551
93554
93558
93562
93577
93578
93579
93580
93581
93583
93588
93590
93593
93612
93614
93616
93618
93620
93622
93623
93624
93634
93635
93636
93643
93644
93655
93656
93685
93696
93697
93708
93709
93721
93728
93735
93737
93738
93739
93742
93743
93748
93752
93762
93765
93767
93769
93770
93775
93776
93799
93813
93824
93839
93843
93846
93848
93851
93852
93853
93860
93861
93862
93863
93867
93868
93872
93873
93874
93875
93886
93926
93938
93943
93954
93963
93984
93986
94017
94028
94042
94046
94047
94084
94092
94093
94120
94121
94123
94153
94154
94156
94157
94158
94162
94163
94168
94172
94179
94183
94185
94187
94212
94214
94234
94236
94283
94303
94340
94341
94342
94343
94344
94349
94352
94357
94358
94362
94369
94389
94395
94418
94426
94429
94434
94453
94466
94467
94488
94550
94609
94647
94697
94698
94701
94706
94707
94709
94736
94737
94738
94740
94742
94743
94746
94747
94758
94763
94767
94774
94778
94782
94801
94802
94804
94809
94816
94838
94871
94895
94905
94906
94907
94930
94935
94937
94944
94958
94972
94974
94993
94995
94996
94997
94998
94999
95000
95005
95007
95008
95011
95013
95014
95020
95024
95029
95030
95031
95032
95034
95036
95039
95041
95058
95061
95074
95077
95106
95110
95120
95122
95127
95190
95269
95296
95309
95337
95350
95361
95388
95402
95422
95443
95455
95457
95534
95566
95575
95587
95616
95627
95632
95634
95635
95637
95639
95643
95653
95666
95676
95678
95679
95680
95682
95695
95704
95705
95706
96253
96581
96677
96680
96683
96687
96694
96696
96700
96707
96712
96713
96714
96715
96719
96721
96731
96732
96733
96740
96745
96751
96752
96760
96762
96767
96768
96771
96785
96799
96809
96826
96827
96828
96829
96831
96842
96845
96847
96857
96861
96868
96870
96871
96872
96895
96896
96903
96910
96913
96918
96933
96937
96947
96948
96949
96950
96952
96954
96957
96958
96960
96972
96973
97182
97202
97216
97248
97258
97261
97265
97272
97274
97281
97290
97293
97296
97325
97331
97332
97333
97335
97337
97345
97348
97350
97352
97367
97375
97377
97383
97388
97390
97395
97401
97597
97619
97651
97653
97791
97819
97844
97850
97874
97876
97877
97878
97883
97899
97905
97927
97931
97945
97947
97954
97955
97959
97962
97997
98004
98006
98015
98034
98037
98045
98046
98047
98048
98053
98423
98445
98456
98469
98515
98518
98540
98554
98556
98558
98559
98602
98605
98624
98632
98641
98645
98648
98649
98679
98684
98685
98690
98705
98710
98722
98740
98742
98743
98748
98798
98971
98975
99003
99029
99040
99049
99052
99055
99070
99131
99169
99179
99185
99188
99193
99195
99202
99212
99220
99226
99227
99236
99238
99239
99248
99254
99256
99264
99266
99268
99317
99647
99653
99654
99741
99764
99800
99819
99850
99853
99856
99873
99875
99877
99879
99908
99911
99921
99930
99941
99951
99986
99999
100809
100814
100830
100834
100835
100836
100848
100852
100853
100854
100894
101026
101034
101051
101053
101055
101067
101144
101167
101169
101175
101203
101213
101219
101221
101230
101232
101243
101246
101249
101265
101268
101280
101289
101290
101292
101293
101295
101297
101299
101304
101313
101322
101328
101329
101331
101337
101340
101347
101372
101376
101413
101445
101462
101595
101596
101621
101627
101652
101658
101704
102282
102286
102307
102312
102313
102322
102334
102350
102352
102354
102356
102358
102361
102366
102370
102374
102376
102379
102381
102383
102384
102386
102389
102392
102396
102398
102399
102401
102403
102410
102413
102416
102422
102427
102428
102429
102430
102431
102435
102437
102438
102439
102440
102448
102457
102458
102459
102461
102467
102468
102471
102472
102474
102475
102484
102486
102487
102488
102491
102493
102498
102499
102501
102508
102509
102514
102518
102520
102521
102525
102534
102535
102538
102540
102542
102545
102546
102547
102555
102556
102557
102571
102599
102846
102863
102864
102871
102872
102906
102939
102958
102962
102965
103023
103135
103150
103193
103224
103245
103262
103268
103274
103282
103285
103293
103294
103309
103314
103323
103340
103342
103344
103346
103351
103352
103356
103361
103366
103375
103745
103956
103978
104015
104061
104092
104130
104178
104201
104207
104221
104222
104225
104230
104250
104254
104272
104304
104335
104394
104409
104421
104470
104509
104657
104662
104663
104703
104709
104710
104713
104714
104723
104726
104728
104730
104737
104738
104741
104742
104756
104759
104760
104766
104771
104773
104780
104784
104788
104790
104791
104795
104796
104797
104799
104804
104805
104807
104813
104814
104815
104817
104819
104821
104823
104824
104829
104833
104836
104844
104845
104906
104917
104944
104954
104957
104958
104961
105032
105175
105214
105215
105230
105320
105343
105346
105353
105354
105357
105359
105360
105361
105362
105363
105364
105368
105370
105372
105374
105377
105380
105381
105382
105387
105394
105400
105445
105450
105458
105469
105472
105474
105480
105481
105482
105483
105549
105587
105622
105752
105863
105884
105908
105914
105936
105957
106000
106013
106023
106026
106031
106034
106035
106038
106050
106054
106059
106061
106068
106076
106088
106099
106105
106107
106108
106114
106117
106142
106143
106149
106150
106151
106153
106171
106174
106177
106179
106180
106181
106197
106203
106212
106226
106252
106286
106322
106323
106326
106336
106339
106356
106384
106452
106464
106474
106481
106486
106488
106492
106493
106495
106505
106508
106509
106517
106522
106525
106526
106529
106531
106533
106535
106536
106537
106540
106549
106552
106570
106571
106580
106592
106594
106596
106599
106602
106629
106640
106667
106669
106693
106700
106759
106764
106775
106778
106784
106794
106801
106819
106842
106865
106880
106891
106898
106899
106987
106992
107255
107262
107264
107267
107268
107285
107297
107303
107306
107314
107326
107332
107333
107334
107337
107338
107349
107352
107353
107354
107356
107387
107398
107424
107444
107580
107620
107626
107689
107699
107714
107715
107723
107735
107736
107737
107739
107747
107752
107754
107757
107763
107767
107771
107778
107781
107786
107794
107795
107796
107808
107810
107811
107812
107822
107827
107829
107830
107831
107832
107887
107922
107923
107948
108078
108092
108121
108142
108148
108901
109266
109314
109318
109332
109350
109364
109389
109391
109400
109416
109418
109420
109440
109448
109453
109456
109460
109780
109827
109842
109860
109883
109951
110651
110664
110673
110674
110687
110688
110695
110699
110705
110707
110708
110730
110742
110749
110763
110764
110767
110768
110771
110772
110774
110776
110778
110803
110808
110810
110815
110817
110820
110828
110829
110840
110863
110869
111061
111073
111075
111087
111936
111966
111987
111998
112000
112012
112023
112024
112027
112028
112034
112037
112038
112041
112045
112055
112063
112067
112069
112074
112075
112078
112079
112083
112086
112087
112088
112089
112090
112091
112099
112101
112103
112104
112106
112107
112108
112109
112110
112111
112130
112140
112155
112163
112165
112590
112632
112640
112719
112778
112794
112795
113495
113500
113502
113516
113531
113538
113539
113541
113542
113557
113563
113568
113578
113582
113589
113592
113603
113606
113611
113617
113627
113638
113640
113646
113647
113653
113660
113661
113663
113668
113669
113672
113673
113674
113676
113681
113682
113683
113687
113689
113693
113694
113695
113711
113717
113718
113719
113720
113729
113741
113742
113750
113765
113775
113789
113791
114019
114027
114038
114042
114050
114054
114064
114077
114098
114118
114119
114122
114124
114126
114130
114133
114135
114141
114146
114150
114152
114153
114155
114160
114163
114168
114172
114174
114204
114221
114222
114223
114226
114238
114252
114260
114261
114273
114274
114275
114276
114281
114290
114291
114292
114293
114301
114304
114306
114311
114324
114326
114331
114345
114350
114359
114361
114382
114384
114395
114396
114397
114415
114416
114417
114427
114428
114433
114448
114455
114460
114463
114465
114467
114470
114472
114473
114474
114475
114478
114480
114486
114488
114492
114495
114496
114497
114500
114501
114507
114509
114510
114512
114523
114525
114526
114529
114536
114539
114542
114559
114577
114581
114587
114588
114591
114593
114597
114599
114601
114602
114603
114608
114610
114614
114617
114618
114621
114622
114624
114626
114649
114684
114686
114726
114758
115246
115270
116118
116126
116229
116242
116246
116271
116337
116344
116352
116355
116356
116359
116361
116362
116387
116447
116620
124926
124965
125026
125039
125101
125102
125104
125139
125175
125189
125192
125203
125962
126010
126012
126032
127129
127143
127146
127149
127151
127180
127187
127217
127236
127246
127269
127275
127287
127289
127292
127294
129322
129341
129363
129408
129427
129429
129430
129434
129438
129440
129446
129448
129454
129461
129478
129515
131403
131407
131412
131427
131484
132147
133136
133149
133189
133217
133220
133223
133235
133247
133260
133261
133262
133263
133264
133280
133282
133290
133291
133292
133296
133302
133303
133304
133326
133535
133544
133549
133552
134162
134185
134203
134207
134222
134243
134245
134267
134272
134285
134288
134299
134305
134308
134318
134322
134323
134324
134325
134352
134354
134361
134362
134370
134389
134390
134393
134394
134395
134398
134405
134408
134409
134413
134416
134444
134445
134450
134452
134459
134463
134478
134484
134488
134489
134500
134502
134512
134586
134613
134641
134662
134670
134681
135024
135059
135069
139315
139327
139355
139366
139386
139387
139468
142372
142400
142424
142426
142467
142469
142472
142475
142522
142553
143978
144021
144032
144034
144036
144049
144080
144544
147291
147498
147645
147721
147799
147978
148030
148051
148083
148085
148120
148124
148202
148288
148301
148376
148412
148416
148542
148578
148587
148706
148782
148865
148905
148944
148990
149005
149074
149099
149212
149234
149303
149370
149389
149487
149492
149499
149519
149563
149594
149632
149633
149656
149662
149677
149725
149732
149745
149775
149796
149802
149805
149866
149871
149886
149887
149911
149948
149959
150003
150032
150034
150067
150088
150099
150124
150138
150158
150190
150257
150258
150309
150321
150372
150395
150512
150526
150698
150711
150743
150748
150754
150759
150797
150887
150894
150966
150978
150995
151109
151165
151221
151235
151306
151373
151420
151440
151448
151479
151487
151528
151560
151562
151580
151596
151614
151620
151628
151630
151653
151655
151669
151678
151703
151705
151732
151746
151749
151757
151760
151772
151784
151831
151846
151857
151885
151893
151901
151936
151938
151956
151991
152012
152046
152050
152052
152071
152094
152136
152171
152177
152187
152212
152220
152235
152249
152276
152282
152294
152307
152314
152340
152351
152365
152384
152439
152481
152496
152497
152498
152521
152527
152552
152559
152569
152577
152580
152582
152612
152634
152653
152655
152657
152661
152664
152665
152701
152710
152716
152721
152726
152735
152751
152757
152761
152772
152777
152783
152784
152786
152800
152819
152822
152827
152830
152835
152838
152847
152863
152865
152866
152876
152884
152899
152903
152905
152907
152912
152920
152923
152925
152926
152928
152940
152943
152952
152954
152961
152968
152974
152998
153001
153013
153036
153037
153038
153051
153052
153060
153074
153082
153099
153106
153108
153111
153113
153124
153135
153139
153166
153188
153194
153204
153210
153230
153245
153254
153258
153273
153287
153293
153294
153297
153316
153319
153322
153336
153340
153343
153349
153350
153359
153360
153366
153375
153380
153401
153402
153418
153419
153423
153431
153437
153445
153457
153482
153490
153491
153512
153518
153525
153526
153533
153538
153548
153563
153565
153579
153593
153602
153615
153626
153642
153657
153659
153685
153688
153689
153691
153702
153709
153712
153714
153715
153721
153733
153737
153749
153771
153795
153800
153817
153834
153852
153858
153861
153862
153877
153880
153891
153899
153905
153912
153914
153918
153929
153931
153936
153937
153954
153957
153972
153975
153990
153992
153996
153999
154004
154017
154020
154021
154039
154046
154051
154069
154070
154085
154091
154094
154107
154113
154117
154120
154125
154128
154134
154136
154138
154140
154143
154148
154149
154154
154158
154169
154170
154175
154182
154193
154195
154199
154206
154216
154223
154224
154226
154235
154236
154238
154243
154245
154271
154275
154288
154293
154301
154308
154310
154311
154313
154314
154318
154323
154326
154327
154329
154332
154333
154334
154336
154338
154344
154352
154372
154377
154380
154382
154384
154401
154403
154414
154416
154440
154443
154446
154447
154454
154455
154459
154460
154464
154467
154469
154470
154471
154473
154476
154479
154481
154494
154498
154505
154511
154512
154514
154516
154520
154521
154528
154532
154533
154535
154536
154538
154540
154541
154542
154543
154551
154560
154561
154570
154571
154572
154576
154578
154579
154581
154583
154585
154587
154594
154604
154614
154615
154617
154620
154621
154628
154632
154636
154637
154638
154639
154650
154652
154657
154664
154670
154671
154673
154674
154677
154678
154680
154681
154682
154683
154687
154688
154689
154693
154695
154696
154699
154704
154705
154706
154710
154717
154719
154721
154723
154727
154733
154736
154740
154741
154742
154745
154746
154747
154748
154750
154752
154753
154754
154758
154763
154765
154766
154771
154782
154783
154784
154785
154786
154791
154792
154801
154804
154812
154814
154817
154823
154830
154833
154834
154841
154850
154868
154869
154873
154875
154893
154897
154899
154904
154909
154910
154913
154914
154916
154917
154919
154934
154938
154941
154945
154947
154950
154952
154955
154959
154964
154975
154979
154980
154993
154996
154998
155002
155006
155012
155015
155016
155021
155037
155040
155041
155045
155046
155048
155050
155052
155057
155058
155059
155065
155068
155069
155074
155075
155076
155077
155081
155082
155084
155088
155090
155095
155097
155098
155100
155106
155107
155109
155111
155112
155113
155114
155115
155117
155123
155124
155125
155126
155131
155135
155142
155143
155157
155158
155160
155161
155162
155165
155166
155167
155169
155181
155182
155185
155193
155210
155211
155220
155228
155232
155233
155235
155242
155253
155260
155261
155262
155271
155272
155273
155274
155275
155277
155283
155286
155289
155292
155294
155297
155299
155300
155311
155313
155314
155316
155317
155318
155319
155320
155321
155335
155338
155341
155343
155350
155351
155354
155356
155357
155364
155368
155383
155385
155388
155391
155392
155395
155399
155411
155416
155421
155428
155430
155438
155439
155444
155453
155457
155460
155462
155463
155464
155465
155466
155468
155473
155474
155475
155477
155478
155479
155486
155488
155493
155494
155496
155500
155504
155509
155510
155511
155512
155513
155518
155523
155527
155529
155532
155536
155537
155538
155539
155540
155543
155553
155559
155560
155565
155568
155571
155572
155573
155578
155589
155605
155607
155618
155620
155628
155638
155652
155654
155655
155661
155662
155681
155682
155689
155694
155702
155707
155708
155713
155714
155715
155716
155719
155720
155723
155730
155731
155734
155740
155745
155749
155751
155763
155764
155780
155783
155791
155801
155802
155803
155804
155811
155813
155816
155824
155826
155827
155831
155832
155837
155838
155839
155840
155845
155847
155848
155850
155853
155856
155860
155861
155865
155870
155871
155873
155874
155876
155886
155892
155894
155895
155897
155898
155901
155908
155926
155927
155929
155934
155938
155939
155945
155961
155985
155986
155987
155989
155993
155995
155997
156001
156007
156008
156011
156018
156033
156036
156040
156043
156046
156068
156074
156081
156083
156090
156100
156107
156113
156117
156118
156119
156135
156140
156141
156142
156152
156154
156156
156157
156174
156175
156176
156179
156182
156186
156188
156190
156191
156196
156197
156204
156211
156212
156214
156218
156220
156223
156230
156252
156253
156256
156260
156262
156265
156268
156273
156276
156277
156279
156283
156285
156290
156299
156305
156306
156308
156311
156312
156326
156334
156342
156344
156352
156355
156359
156367
156369
156376
156381
156382
156410
156418
156430
156432
156447
156451
156455
156456
156462
156465
156466
156467
156478
