185621
185637
185638
185641
185643
185645
185646
185650
185654
185656
185665
185667
185668
185669
185676
185680
185689
185692
185693
185699
185702
185707
185708
185711
185713
185718
185730
185732
185734
185738
185740
185743
185745
185746
185751
185753
185759
185766
185769
185774
185775
185776
185779
185782
185783
185787
185790
185791
185793
185795
185796
185799
185804
185805
185809
185820
185824
185829
185834
185836
185838
185839
185840
185841
185845
185849
185850
185853
185855
185856
185861
185863
185872
185873
185874
185878
185880
185881
185882
185888
185893
185894
185895
185897
185905
185907
185916
185921
185924
185926
185931
185933
185934
185935
185942
185943
185944
185946
185947
185949
185950
185951
185952
185954
185960
185961
185965
185966
185967
185968
185971
185972
185980
185984
185985
185988
185989
185992
185994
185996
185997
185998
185999
186000
186001
186002
186007
186010
186011
186012
186014
186018
186026
186036
186037
186038
186041
186043
186047
186049
186050
186051
186060
186062
186063
186065
186066
186067
186070
186071
186072
186077
186087
186089
186091
186092
186098
186099
186102
186106
186107
186110
186113
186114
186117
186121
186122
186123
186124
186126
186127
186128
186129
186136
186142
186146
186151
186153
186157
186170
186171
186173
186174
186175
186176
186178
186180
186181
186182
186184
186186
186187
186188
186189
186199
186201
186206
186207
186212
186213
186220
186222
186229
186232
186235
186236
186238
186239
186241
186243
186244
186245
186246
186249
186257
186270
186271
186272
186280
186282
186295
186306
186309
186313
186315
186340
186343
186344
186350
186354
186355
186356
186368
186369
186373
186387
186397
186404
186406
186408
186417
186433
186446
186484
186485
186497
186530
186543
186547
186570
186578
186583
186586
186592
186601
186611
186613
186614
186615
186616
186625
186627
186630
186632
186633
186636
186644
186645
186647
186650
186651
186654
186656
186657
186659
186665
186673
186684
186688
186695
186697
186699
186700
186704
186706
186709
186710
186711
186712
186715
186722
186734
186737
186741
186746
186747
186749
186750
186758
186767
186768
186771
186775
186776
186777
186778
186781
186788
186789
186790
186791
186793
186798
186799
186800
186802
186804
186805
186806
186810
186812
186815
186816
186818
186823
186824
186829
186831
186843
186847
186848
186852
186854
186855
186862
186871
186874
186885
186889
186891
186897
186898
186901
186912
186914
186916
186919
186928
186929
186935
186946
186948
186952
186957
186958
186961
186966
186967
186968
186969
186971
186974
186981
186990
186991
186992
186993
186996
187001
187009
187011
187012
187013
187019
187033
187045
187046
187050
187061
187063
187076
187080
187082
187083
187084
187090
187102
187109
187119
187130
187132
187135
187140
187155
187159
187177
187180
187182
187184
187190
187193
187196
187202
187204
187205
187208
187209
187211
187216
187217
187218
187219
187221
187227
187230
187232
187237
187238
187240
187241
187243
187244
187248
187250
187252
187258
187259
187262
187263
187264
187265
187269
187271
187272
187273
187276
187278
187283
187284
187286
187288
187289
187290
187293
187298
187299
187302
187305
187311
187312
187313
187326
187329
187335
187338
187340
187344
187346
187352
187354
187355
187357
187360
187366
187369
187370
187375
187378
187383
187387
187388
187389
187391
187392
187395
187396
187397
187398
187399
187401
187404
187405
187407
187409
187430
187433
187448
187450
187463
187465
187474
187475
187476
187483
187491
187496
187504
187540
187542
187543
187555
187558
187559
187563
187568
187588
187596
187601
187602
187607
187609
187619
187620
187622
187623
187629
187631
187635
187636
187640
187643
187645
187653
187659
187677
187683
187694
187695
187696
187701
187702
187714
187723
187727
187734
187739
187740
187741
187742
187743
187744
187747
187765
187766
187767
187769
187830
187831
187861
187894
187896
187898
187899
187900
187901
187903
187907
187908
187909
187911
187919
187920
187921
187922
187923
187926
187937
187950
187955
187956
187957
187961
187967
187976
187978
187982
187993
187996
187997
188001
188002
188007
188009
188011
188012
188013
188015
188016
188017
188019
188023
188028
188029
188037
188038
188053
188057
188058
188059
188061
188062
188076
188083
188089
188094
188097
188098
188099
188102
188104
188108
188109
188110
188111
188116
188117
188120
188121
188124
188133
188148
188151
188152
188154
188160
188181
188192
188193
188200
188205
188213
188216
188217
188219
188226
188228
188230
188231
188232
188233
188235
188239
188246
188247
188248
188264
188271
188273
188277
188280
188302
188304
188308
188310
188355
188434
188465
188468
188469
188471
188487
188501
188502
188517
188534
188545
188546
188548
188557
188561
188571
188584
188589
188597
188608
188617
188619
188622
188629
188633
188637
188644
188648
188666
188669
188677
188684
188692
188708
188723
188725
188738
188739
188780
188792
188800
188805
188808
188809
188814
188819
188826
188831
188852
188861
188865
188868
188873
188874
188880
188881
188892
188901
188902
188906
188913
188916
188919
188921
188927
188928
188934
188938
188946
188950
188953
188957
188964
188969
188982
188985
188986
188992
188996
188999
189000
189003
189008
189013
189020
189030
189031
189039
189041
189042
189044
189046
189047
189049
189051
189052
189053
189054
189055
189056
189057
189061
189063
189068
189070
189071
189075
189078
189079
189081
189084
189085
189087
189089
189092
189098
189100
189102
189103
189108
189112
189115
189121
189123
189124
189131
189134
189135
189139
189141
189144
189149
189156
189161
189162
189166
189180
189182
189183
189185
189189
189191
189192
189193
189194
189201
189203
189205
189206
189211
189225
189231
189232
189237
189248
189253
189262
189272
189276
189292
189297
189320
189322
189325
189339
189340
189354
189363
189366
189369
189371
189374
189377
189379
189381
189388
189390
189392
189394
189418
189428
189436
189437
189449
189453
189455
189456
189457
189458
189459
189462
189472
189475
189480
189495
189514
189537
189550
189560
189568
189571
189572
189607
189610
189614
189622
189627
189635
189636
189637
189638
189639
189640
189641
189642
189643
189647
189661
189662
189665
189666
189668
189671
189675
189680
189683
189684
189686
189687
189693
189695
189703
189711
189718
189729
189730
189731
189734
189738
189739
189740
189743
189744
189746
189762
189781
189789
189791
189792
189795
189796
189801
189810
189814
189820
189827
189829
189831
189832
189849
189851
189852
189854
189863
189867
189869
189877
189888
189889
189897
189898
189899
189901
189907
189912
189913
189917
189918
189920
189921
189928
189931
189932
189933
189934
189937
189939
189940
189943
189948
189949
189955
189958
189962
189969
189978
189981
189986
189994
189996
190011
190013
190015
190020
190028
190031
190035
190045
190065
190069
190082
190102
190129
190130
190137
190139
190157
190158
190159
190179
190186
190188
190194
190209
190217
190226
190256
190257
190268
190269
190275
190276
190277
190280
190283
190293
190301
190306
190310
190312
190313
190314
190315
190320
190322
190323
190325
190329
190331
190336
190338
190344
190350
190357
190358
190360
190362
190364
190373
190374
190376
190377
190378
190379
190380
190384
190391
190392
190394
190395
190396
190397
190398
190399
190400
190401
190402
190405
190406
190411
190414
190416
190417
190418
190419
190420
190422
190430
190431
190453
190455
190456
190458
190471
190488
190496
190505
190506
190514
190516
190520
190521
190524
190525
190542
190564
190570
190580
190585
190586
190588
190590
190592
190593
190597
190607
190609
190616
190621
190622
190625
190627
190629
190630
190635
190638
190641
190642
190643
190651
190656
190658
190667
190668
190670
190672
190673
190675
190683
190686
190698
190699
190700
190701
190712
190715
190725
190728
190729
190731
190734
190736
190739
190745
190747
190750
190751
190752
190754
190756
190761
190763
190764
190771
190773
190776
190778
190783
190786
190791
190793
190794
190795
190796
190798
190805
190807
190809
190824
190825
190826
190827
190833
190834
190835
190837
190839
190841
190843
190849
190850
190853
190854
190858
190859
190860
190870
190885
190902
190927
190993
191012
191051
191055
191057
191079
191087
191090
191093
191112
191114
191122
191124
191127
191135
191148
191155
191157
191159
191162
191166
191169
191171
191180
191181
191183
191186
191200
191203
191204
191226
191229
191231
191232
191239
191240
191243
191246
191271
191279
191283
191298
191302
191317
191319
191321
191332
191345
191364
191372
191379
191381
191382
191386
191388
191391
191392
191410
191426
191431
191436
191466
191468
191471
191482
191486
191490
191501
191502
191507
191508
191509
191511
191518
191521
191524
191528
191531
191534
191538
191539
191546
191547
191548
191550
191551
191553
191563
191564
191568
191583
191595
191596
191598
191599
191602
191604
191605
191608
191609
191611
191612
191623
191625
191628
191630
191637
191638
191653
191656
191657
191659
191660
191662
191663
191664
191668
191669
191670
191681
191683
191686
191687
191688
191690
191692
191694
191695
191697
191698
191699
191701
191702
191703
191705
191707
191708
191710
191714
191719
191722
191723
191724
191726
191727
191728
191732
191738
191741
191745
191747
191748
191750
191751
191753
191754
191755
191757
191758
191761
191763
191765
191766
191770
191771
191772
191774
191775
191776
191779
191780
191781
191782
191783
191785
191786
191787
191788
191791
191792
191793
191794
191797
191798
191801
191804
191806
191808
191810
191811
191814
191815
191819
191821
191822
191824
191825
191826
191828
191831
191832
191833
191841
191842
191843
191845
191846
191847
191851
191852
191861
192166
192168
192169
192170
192171
192172
192173
192175
192184
192188
192191
192192
192208
192215
192217
192221
192224
192225
192227
192230
192231
192232
192233
192255
192257
192260
192262
192264
192269
192279
192287
192293
192295
192300
192303
192315
192316
192318
192325
192334
192335
192337
192340
192350
192365
192366
192369
192370
192371
192373
192374
192375
192376
192381
192382
192383
192384
192392
192398
192403
192407
192410
192411
192420
192422
192423
192424
192430
192431
192444
192470
192472
192473
192475
192476
192480
192481
192486
192487
192489
192493
192494
192495
192499
192501
192505
192506
192509
192510
192511
192519
192520
192522
192523
192532
192569
192571
192572
192573
192598
192601
192603
192605
192631
192632
192641
192663
192678
192738
192753
192784
192789
192797
192806
192809
192817
192819
192835
192862
192863
192865
192872
192906
192945
192957
192959
192967
192970
192977
193001
193004
193008
193010
193022
193041
193044
193066
193067
193071
193074
193075
193076
193079
193083
193084
193085
193086
193093
193096
193106
193108
193120
193124
193125
193127
193132
193135
193143
193146
193152
193190
193197
193199
193200
193202
193205
193209
193210
193227
193229
193230
193233
193247
193248
193250
193251
193254
193257
193259
193261
193271
193275
193279
193280
193286
193287
193290
193291
193292
193296
193301
193308
193313
193314
193317
193318
193323
193337
193377
193380
193390
193393
193406
193422
193473
193496
193499
193501
193512
193517
193537
193587
193590
193611
193612
193617
193619
193630
193647
193690
193692
193701
193707
193710
193711
193713
193719
193729
193732
193733
193738
193740
193742
193759
193761
193763
193765
193794
193812
193813
193818
193829
193835
193840
193844
193856
193899
193945
193965
193969
193970
193977
193983
194019
194026
194094
194101
194114
194123
194128
194129
194131
194134
194135
194148
194153
194154
194155
194171
194182
194185
194187
194195
194198
194199
194202
194203
194204
194211
194222
194223
194224
194260
194267
194269
194272
194275
194286
194289
194290
194291
194295
194298
194310
194315
194321
194323
194329
194330
194332
194334
194336
194337
194338
194343
194344
194347
194348
194350
194358
194361
194375
194383
194392
194396
194398
194406
194408
194413
194414
194416
194429
194431
194434
194437
194440
194460
194464
194482
194497
194499
194501
194503
194516
194522
194523
194525
194530
194531
194535
194536
194558
194560
194562
194564
194565
194566
194579
194590
194611
194615
194623
194625
194627
194634
194636
194639
194644
194646
194648
194666
194668
194674
194677
194681
194689
194706
194708
194742
194751
194754
194767
194772
194800
194806
194820
194826
194827
194835
194840
194842
194869
194870
194871
194872
194873
194874
194885
194886
194887
194889
194894
194901
194906
194907
194908
194911
194912
194913
194914
194920
194923
194926
194927
194945
194948
194955
194961
194972
194973
194977
194981
194985
194992
194997
194998
195006
195010
195011
195013
195020
195029
195030
195035
195036
195037
195043
195047
195048
195049
195052
195057
195059
195067
195068
195070
195073
195076
195082
195086
195087
195088
195092
195098
195099
195103
195104
195105
195106
195107
195109
195121
195122
195126
195127
195130
195137
195138
195140
195141
195149
195150
195152
195158
195161
195163
195171
195174
195175
195181
195186
195189
195193
195195
195211
195215
195218
195223
195238
195242
195246
195253
195256
195259
195260
195263
195265
195266
195267
195270
195271
195274
195277
195295
195342
195344
195369
195376
195378
195388
195389
195397
195407
195424
195430
195436
195440
195447
195448
195454
195468
195477
195497
195502
195507
195520
195530
195536
195548
195567
195569
195571
195575
195582
195603
195609
195612
195626
195631
195633
195637
195640
195645
195648
195651
195652
195655
195679
195699
195703
195705
195707
195709
195711
195745
195747
195748
195764
195773
195777
195781
195785
195788
195791
195793
195796
195800
195802
195806
195818
195822
195825
195861
195875
195879
195890
195928
195935
195949
195951
195964
195966
195970
195971
195973
195975
195978
196000
196002
196020
196039
196056
196066
196068
196072
196089
196092
196120
196122
196126
196128
196141
196143
196145
196169
196177
196180
196184
196192
196195
196207
196210
196212
196334
196537
196611
196635
196648
196708
196712
196716
196724
196731
196751
196772
196780
196781
196784
196789
196790
196804
196820
196827
196831
196834
196842
196848
196850
196856
196859
196860
196863
196865
196866
196867
196871
196887
196903
196907
196909
196911
196912
196915
196919
196921
196927
196949
196952
196953
196955
196957
196966
196982
196984
196985
196986
196988
196989
196992
196998
197000
197005
197016
197033
197036
197058
197060
197063
197071
197076
197077
197080
197086
197087
197096
197132
197136
197147
197163
197168
197176
197178
197184
197185
197193
197196
197200
197206
197208
197211
197212
197214
197217
197222
197224
197228
197229
197231
197232
197234
197241
197246
197247
197248
197250
197254
197258
197261
197262
197263
197264
197267
197269
197271
197273
197280
197288
197290
197292
197296
197299
197301
197302
197303
197305
197307
197310
197311
197329
197332
197333
197351
197352
197353
197356
197357
197360
197365
197366
197373
197377
197380
197382
197383
197384
197385
197386
197387
197389
197390
197394
197399
197415
197418
197419
197426
197433
197454
197455
197459
197460
197479
197484
197487
197488
197490
197498
197508
197522
197529
197532
197533
197534
197537
197538
197540
197556
197566
197567
197571
197575
197588
197596
197605
197611
197616
197620
197625
197627
197628
197629
197636
197639
197643
197645
197648
197652
197655
197663
197665
197666
197667
197669
197678
197680
197683
197686
197688
197690
197694
197698
197701
197707
197710
197714
197715
197718
197729
197733
197736
197740
197741
197752
197758
197780
197782
197788
197791
197792
197793
197794
197800
197801
197802
197808
197811
197813
197814
197818
197822
197824
197825
197829
197830
197832
197833
197834
197848
197851
197852
197864
197865
197866
197867
197876
197877
197919
197921
197990
198074
198171
198196
198202
198220
198221
198222
198223
198224
198225
198226
198227
198229
198230
198236
198237
198238
198254
198290
198295
198298
198309
198310
198314
198329
198335
198340
198341
198345
198347
198348
198350
198351
198354
198366
198368
198374
198375
198377
198379
198381
198388
198397
198399
198413
198418
198419
198422
198429
198441
198444
198449
198450
198470
198491
198494
198495
198500
198505
198508
198515
198525
198530
198531
198533
198535
198540
198541
198546
198548
198553
198554
198560
198561
198562
198564
198565
198566
198567
198568
198578
198579
198582
198585
198587
198594
198599
198600
198601
198602
198603
198604
198611
198616
198618
198619
198620
198631
198633
198634
198635
198636
198639
198641
198661
198672
198675
198684
198688
198689
198697
198706
198708
198710
198711
198715
198716
198729
198732
198733
198741
198742
198745
198747
198751
198753
198754
198760
198773
198777
198778
198781
198789
198791
198794
198795
198796
198797
198802
198807
198811
198812
198813
198820
198825
198827
198838
198842
198844
198846
198856
198859
198880
198920
198926
198936
198937
198961
198992
199051
199059
199061
199068
199070
199071
199075
199080
199085
199087
199088
199089
199091
199094
199095
199096
199097
199099
199100
199101
199107
199108
199111
199112
199113
199117
199120
199124
199125
199126
199129
199131
199135
199136
199138
199139
199141
199142
199144
199147
199151
199152
199153
199163
199164
199176
199189
199203
199260
199266
199267
199269
199272
199281
199282
199283
199284
199285
199287
199288
199297
199298
199309
199320
199322
199328
199332
199334
199335
199337
199360
199362
199370
199374
199375
199378
199388
199391
199424
199425
199427
199430
199432
199437
199443
199450
199472
199485
199487
199489
199498
199499
199501
199502
199509
199510
199514
199515
199516
199517
199519
199522
199523
199525
199543
199544
199545
199549
199557
199559
199562
199563
199564
199571
199572
199573
199574
199580
199582
199583
199584
199586
199592
199593
199618
199631
199642
199643
199648
199650
199662
199666
199669
199672
199675
199679
199680
199681
199682
199683
199685
199688
199689
199692
199693
199699
199701
199716
199719
199725
199730
199731
199732
199741
199744
199748
199749
199751
199752
199753
199754
199755
199758
199759
199764
199805
199928
199962
199988
199997
200026
200097
200101
200169
200184
200188
200202
200203
200218
200226
200237
200243
200245
200248
200276
200278
200287
200289
200296
200298
200299
200306
200309
200310
200325
200326
200328
200329
200340
200344
200345
200347
200358
200364
200365
200367
200368
200370
200376
200378
200382
200383
200385
200387
200388
200391
200392
200393
200395
200396
200401
200404
200409
200416
200420
200425
200430
200435
200439
200440
200441
200449
200458
200460
200461
200466
200486
200487
200489
200490
200491
200493
200495
200500
200517
200523
200525
200534
200539
200540
200542
200547
200548
200549
200550
200555
200567
200573
200582
200583
200584
200585
200588
200589
200591
200596
200602
200604
200607
200610
200612
200615
200617
200619
200621
200622
200624
200625
200626
200627
200628
200635
200637
200639
200643
200646
200648
200652
200653
200658
200670
200679
200680
200682
200684
200693
200697
200700
200706
200708
200710
200711
200717
200719
200720
200721
200727
200728
200730
200732
200733
200735
200739
200741
200743
200748
200750
200751
200752
200761
200762
200763
200765
200766
200769
200772
200773
200775
200776
200778
200780
200783
200784
200785
200786
200788
200789
200790
200791
200793
200799
200800
200801
200804
200805
200806
200807
200808
200810
200813
200814
200816
200818
200825
200828
200829
200833
200843
200854
200855
200858
200866
200878
200880
200882
200896
200902
200915
200917
200920
200926
200929
200930
200940
200941
200942
200944
200955
200967
200974
200986
200989
200995
201001
201004
201013
201015
201045
201051
201060
201064
201068
201069
201070
201071
201072
201080
201082
201083
201088
201090
201096
201101
201105
201106
201108
201123
201124
201126
201127
201130
201132
201133
201137
201152
201157
201172
201173
201174
201175
201176
201177
201178
201192
201193
201199
201200
201204
201209
201210
201223
201228
201241
201243
201253
201267
201298
201310
201322
201339
201364
201376
201377
201379
201382
201383
201401
201406
201407
201412
201415
201417
201424
201430
201434
201438
201439
201445
201447
201448
201453
201454
201464
201465
201467
201468
201469
201476
201477
201479
201483
201486
201487
201489
201519
201555
201613
201626
201645
201672
201694
201699
201708
201717
201721
201730
201731
201745
201770
201774
201778
201788
201799
201809
201820
201832
201833
201835
201836
201837
201843
201845
201846
201847
201848
201852
201869
201882
201908
201914
201915
201919
201928
201930
201937
201944
201973
201985
201986
201994
202048
202059
202076
202111
202123
202128
202130
202164
202183
202195
202196
202205
202216
202221
202227
202229
202232
202252
202271
202283
202305
202312
202345
202347
202348
202350
202351
202353
202360
202368
202391
202392
202394
202397
202401
202405
202413
202421
202425
202428
202448
202451
202453
202470
202472
202473
202474
202475
202476
202500
202506
202507
202521
202528
202535
202537
202556
202559
202560
202575
202581
202588
202600
202640
202672
202675
202681
202707
202716
202722
202746
202793
202798
202801
202802
202807
202811
202812
202813
202814
202815
202819
202821
202822
202832
202836
202837
202839
202845
202848
202861
202878
202881
202883
202885
202892
202911
202917
202929
202986
202988
202989
202990
203001
203009
203010
203011
203012
203013
203019
203025
203030
203032
203036
203039
203045
203053
203055
203062
203074
203075
203080
203108
203126
203131
203145
203153
203194
203201
203202
203209
203214
203216
203222
203234
203239
203244
203245
203249
203251
203252
203254
203257
203263
203266
203267
203272
203273
203275
203278
203279
203284
203291
203292
203293
203301
203307
203308
203309
203311
203312
203313
203322
203323
203324
203326
203327
203336
203350
203383
203384
203385
203390
203396
203397
203398
203406
203410
203418
203419
203424
203427
203431
203434
203437
203444
203447
203448
203449
203450
203452
203453
203454
203457
203458
203459
203460
203461
203464
203465
203467
203471
203475
203476
203479
203480
203483
203487
203495
203498
203503
203504
203505
203506
203508
203511
203516
203520
203521
203522
203527
203529
203530
203533
203544
203545
203546
203547
203551
203553
203555
203567
203569
203575
203576
203617
203618
203631
203633
203635
203637
203639
203644
203650
203676
203697
203700
203718
203721
203728
203729
203731
203732
203738
203746
203748
203754
203757
203762
203768
203772
203773
203777
203780
203787
203789
203796
203797
203801
203803
203808
203811
203812
203813
203821
203822
203823
203826
203831
203833
203839
203843
203849
203852
203884
203894
203910
203912
203923
203927
203931
203938
203945
203958
203971
203974
203991
203997
203998
204006
204015
204016
204032
204034
204035
204038
204042
204047
204048
204057
204065
204066
204067
204068
204073
204076
204078
204081
204088
204093
204095
204102
204111
204116
204123
204135
204137
204150
204152
204160
204187
204189
204205
204212
204218
204220
204236
204237
204252
204253
204257
204264
204269
204275
204280
204283
204285
204286
204291
204293
204294
204296
204298
204304
204310
204311
204312
204318
204321
204327
204331
204341
204344
204350
204352
204353
204368
204370
204377
204379
204382
204383
204388
204390
204395
204441
204443
204444
204454
204457
204458
204462
204473
204501
204505
204537
204561
204569
204572
204576
204578
204584
204612
204615
204620
204621
204623
204635
204639
204644
204654
204657
204663
204664
204676
204679
204682
204686
204687
204692
204710
204720
204726
204727
204732
204739
204740
204744
204751
204752
204753
204758
204759
204760
204765
204767
204768
204770
204776
204778
204779
204781
204783
204790
204793
204798
204817
204821
204825
204826
204828
204830
204832
204865
204871
204878
204879
204884
204897
204898
204899
204916
204945
204953
204954
204955
205037
205048
205053
205056
205058
205099
205100
205101
205103
205122
205149
205171
205181
205184
205198
205199
205200
205203
205205
205207
205211
205212
205219
205237
205241
205263
205277
205287
205366
205386
205387
205396
205397
205399
205406
205408
205442
205445
205452
205458
205467
205468
205472
205481
205487
205488
205493
205495
205497
205498
205500
205502
205504
205507
205513
205514
205518
205519
205521
205523
205527
205528
205533
205536
205537
205538
205540
205545
205546
205551
205565
205575
205577
205579
205582
205588
205591
205594
205596
205599
205602
205620
205621
205624
205625
205628
205629
205631
205633
205639
205643
205648
205655
205661
205667
205668
205672
205680
205685
205686
205695
205699
205705
205709
205716
205719
205722
205724
205732
205735
205736
205738
205739
205742
205745
205746
205748
205751
205752
205753
205755
205757
205758
205760
205761
205767
205768
205778
205785
205787
205789
205793
205805
205806
205809
205846
205849
205853
205856
205862
205863
205867
205873
205874
205910
205912
205913
205914
205915
205931
205936
205938
205939
205953
205954
205973
205975
205976
205979
205982
205983
205990
205993
206001
206010
206011
206012
206015
206021
206022
206023
206024
206025
206026
206033
206034
206035
206036
206039
206040
206042
206045
206048
206050
206059
206065
206067
206071
206072
206074
206075
206076
206077
206078
206079
206081
206084
206085
206086
206088
206089
206097
206099
206100
206113
206125
206153
206162
206172
206181
206187
206211
206213
206214
206226
206234
206235
206237
206240
206243
206246
206248
206249
206251
206254
206265
206267
206268
206270
206273
206275
206277
206283
206285
206293
206302
206305
206312
206316
206318
206319
206321
206323
206329
206335
206336
206337
206345
206348
206350
206352
206354
206355
206356
206357
206358
206359
206364
206365
206368
206369
206370
206371
206373
206374
206376
206379
206381
206382
206386
206388
206395
206398
206401
206409
206410
206412
206414
206421
206423
206424
206434
206439
206442
206444
206448
206453
206454
206463
206472
206479
206480
206483
206484
206485
206490
206492
206496
206499
206502
206503
206508
206509
206510
206512
206515
206521
206522
206531
206532
206536
206537
206538
206540
206543
206557
206564
206567
206584
206593
206594
206595
206597
206602
206606
206613
206618
206622
206623
206625
206628
206634
206636
206637
206640
206642
206647
206649
206650
206657
206661
206664
206668
206670
206674
206679
206680
206682
206686
206688
206689
206690
206697
206708
206710
206712
206719
206722
206725
206728
206730
206739
206742
206751
206754
206755
206756
206758
206766
206770
206771
206772
206780
206789
206793
206803
206815
206821
206822
206823
206825
206826
206831
206834
206845
206846
206852
206853
206854
206856
206858
206861
206865
206867
206868
206871
206872
206874
206875
206879
206880
206883
206898
206905
206921
206931
206941
206963
206970
206981
206983
206990
206997
207012
207013
207020
207029
207034
207047
207048
207050
207051
207054
207055
207058
207060
207061
207066
207070
207073
207075
207077
207078
207079
207082
207083
207087
207092
207093
207095
207096
207097
207099
207103
207104
207105
207108
207109
207110
207111
207122
207125
207128
207129
207132
207133
207139
207140
207142
207143
207145
207147
207148
207154
207157
207173
207174
207192
207195
207611
207615
207620
207621
207626
207628
207629
207633
207640
207646
207648
207650
207651
207738
208034
208064
208067
208069
208072
208074
208075
208105
208117
208135
208140
208142
208144
208145
208148
208155
208164
208206
208207
208208
208210
208211
208217
208218
208220
208227
208229
208231
208236
208244
208254
208264
208267
208269
208271
208274
208276
208278
208281
208282
208463
208538
208539
208553
208555
208556
208557
208558
208562
208572
208579
208583
208584
208589
208591
208594
208595
208600
208641
208650
208651
208673
208676
208683
208684
208686
208709
208713
208716
208717
208718
208720
208724
208728
208729
208730
208732
208754
208756
208779
208801
208812
208829
208836
208851
208858
208865
208867
208871
208873
208875
208878
208879
208883
208884
208885
208886
208890
208893
208895
208896
208897
208900
208904
208907
208908
208918
208919
208920
208921
208924
208928
208933
208937
208939
208941
208942
208944
208945
208946
208947
208955
208957
208964
208967
208968
208970
208973
208975
208976
208977
208981
208988
208989
208994
208998
209002
209003
209004
209007
209009
209011
209014
209015
209016
209017
209022
209029
209030
209032
209038
209042
209044
209047
209056
209064
209066
209068
209072
209084
209089
209092
209104
209107
209116
209119
209126
209127
209129
209131
209132
209138
209139
209143
209145
209150
209157
209158
209160
209162
209163
209165
209166
209168
209169
209170
209174
209177
209178
209180
209182
209184
209186
209190
209193
209198
209207
209208
209209
209210
209211
209220
209221
209222
209223
209231
209233
209234
209237
209238
209239
209243
209244
209249
209252
209253
209259
209264
209265
209269
209271
209273
209276
209278
209279
209280
209287
209289
209290
209291
209293
209295
209296
209297
209299
209300
209302
209303
209309
209311
209314
209315
209317
209319
209320
209321
209322
209327
209328
209330
209333
209335
209336
209340
209341
209342
209344
209346
209347
209351
209355
209358
209360
209362
209368
209373
209375
209382
209384
209387
209388
209392
209394
209397
209398
209400
209401
209403
209404
209407
209408
209409
209418
209419
209427
209438
209439
209452
209454
209456
209465
209473
209474
209483
209492
209498
209499
209503
209504
209510
209513
209516
209519
209526
209527
209529
209535
209539
209542
209543
209544
209552
209560
209561
209563
209567
209569
209571
209577
209581
209584
209588
209592
209594
209596
209597
209598
209600
209602
209603
209605
209608
209610
209613
209615
209617
209621
209667
209714
209716
209725
209729
209734
209738
209741
209747
209749
209755
209762
209766
209768
209777
209787
209800
209804
209828
209832
209835
209837
209838
209861
209864
209869
209874
209879
209887
209897
209906
209910
209913
209916
209922
209932
209935
209944
209945
209956
209957
209958
209959
209961
209975
209976
209977
209978
209979
209980
209981
209982
209983
209984
209985
209988
209989
209991
209995
209998
209999
210006
210007
210017
210018
210019
210023
210025
210029
210031
210040
210044
210045
210052
210056
210059
210060
210061
210064
210066
210067
210068
210070
210071
210072
210073
210086
210094
210097
210098
210099
210100
210105
210106
210110
210116
210120
210126
210127
210132
210135
210148
210240
210245
210248
210261
210262
210277
210289
210296
210299
210315
210322
210328
210337
210391
210412
210429
210439
210441
210442
210454
210455
210461
210462
210466
210483
210492
210499
210500
210548
210550
210588
210644
211239
211245
211278
211302
211307
211316
211324
211339
211341
211343
211346
211355
211363
211367
211376
211379
211383
211384
211385
211387
211697
211718
211723
211730
211738
211739
211773
211776
211786
211793
211795
211797
211802
211805
211806
211807
211808
211814
211816
211817
211818
211844
211848
211855
211856
211875
211876
211882
211904
211907
211909
211934
211949
211963
211968
211969
211981
211982
211985
211988
212007
212009
212015
212018
212063
212070
212073
212074
212081
212082
212084
212089
212101
212106
212114
212116
212119
212120
212128
212131
212132
212135
212153
212161
212165
212177
212184
212187
212195
212205
212213
212221
212228
212250
212257
212285
212289
212310
212314
212324
212328
212342
212346
212369
212379
212383
212387
212389
212393
212394
212395
212399
212402
212406
212407
212416
212428
212434
212443
212469
212476
212477
212479
212482
212486
212497
212513
212514
212515
212520
212527
212536
212540
212541
212549
212554
212559
212562
212565
212566
212568
212573
212576
212579
212582
212584
212585
212588
212590
212593
212594
212595
212596
212599
212602
212604
212607
212614
212618
212624
212631
212634
212635
212639
212643
212648
212659
212663
212670
212673
212674
212676
212677
212678
212679
212682
212684
212685
212686
212692
212693
212695
212699
212702
212705
212709
212717
212719
212720
212723
212725
212727
212731
212733
212734
212736
212741
212743
212744
212747
212752
212754
212755
212761
212763
212770
212773
212785
212787
212788
212791
212803
212806
212808
212810
212813
212814
212815
212819
212821
212822
212824
212825
212827
212830
212833
212834
212836
212838
212839
212841
212842
212847
212854
212857
212860
212862
212864
212872
212873
212893
212894
212899
212911
212912
212913
212914
212915
212916
212919
212922
212923
212925
212926
212927
212928
212929
212930
212934
212935
212938
212939
212948
212954
212956
212957
212961
212962
212963
212965
212967
212969
212971
212972
212974
212976
212977
212981
212987
212990
212996
212997
213011
213029
213034
213035
213044
213045
213046
213049
213051
213052
213053
213064
213069
213072
213082
213084
213086
213087
213090
213105
213106
213113
213118
213122
213124
213126
213132
213134
213139
213140
213144
213149
213150
213157
213159
213164
213166
213169
213170
213171
213173
213179
213187
213190
213192
213198
213204
213206
213207
213208
213209
213211
213216
213217
213218
213219
213220
213223
213227
213234
213238
213247
213257
213259
213260
213264
213278
213279
213291
213301
213305
213306
213312
213313
213315
213329
213330
213332
213333
213334
213335
213339
213341
213347
213355
213360
213361
213363
213369
213370
213379
213380
213381
213387
213389
213397
213398
213401
213403
213417
213419
213420
213421
213423
213424
213428
213429
213433
213434
213436
213437
213444
213445
213448
213452
213453
213459
213464
213469
213474
213475
213476
213477
213478
213479
213480
213481
213486
213488
213491
213495
213496
213499
213500
213504
213513
213519
213522
213524
213525
213533
213537
213555
213563
213566
213574
213590
213601
213602
213608
213617
213620
213623
213626
213628
213675
213689
213690
213696
213700
213709
213715
213716
213718
213721
213734
213752
213760
213761
213768
213769
213773
213779
213782
213791
213807
213818
213830
213833
213836
213839
213842
213865
213867
213869
213872
213887
213898
213909
213911
213913
213917
213920
213922
213923
213925
213929
213938
213940
213943
213944
213947
213954
213958
213965
213967
213969
213970
213988
214024
214026
214029
214032
214037
214038
214042
214043
214092
214093
214101
214102
214109
214121
214122
214127
214128
214152
214164
214214
214222
214242
214247
214249
214250
214252
214256
214261
214262
214263
214266
214269
214272
214273
214280
214287
214288
214289
214293
214299
214300
214306
214316
214322
214337
214338
214339
214342
214350
214351
214353
214356
214358
214360
214361
214365
214366
214373
214378
214383
214393
214397
214400
214401
214403
214407
214416
214418
214420
214425
214432
214433
214434
214440
214447
214450
214455
214457
214458
214464
214465
214480
214483
214487
214488
214489
214490
214501
214529
214537
214560
214574
214612
214617
214618
214638
214701
214703
214704
214706
214744
214752
214764
214771
214798
214800
214802
214842
214866
214873
214875
214969
214992
215002
215015
215017
215022
215025
215035
215073
215080
215088
215089
215097
215120
215126
215128
215131
215140
215155
215156
215157
215162
215165
215172
215174
215217
215219
215226
215247
215261
215269
215272
215274
215337
215378
215385
215389
215391
215398
215399
215402
215407
215411
215417
215422
215427
215429
215430
215431
215448
215449
215454
215457
215460
215468
215469
215493
215498
215499
215517
215522
215524
215527
215532
215544
215558
215562
215581
215593
215597
215607
215624
215636
215640
215648
215656
215667
215678
215686
215689
215691
215693
215724
215725
